{
    "_id": "AM3YY2Zfe2ChJHd7",
    "data": {
        "attributes": {
            "ac": {
                "value": 33
            },
            "hardness": 22,
            "hasHealth": true,
            "hp": {
                "details": "per telekinetic cloud",
                "max": 88,
                "temp": 0,
                "tempmax": 0,
                "value": 88
            },
            "stealth": {
                "details": "(expert)",
                "value": 24
            }
        },
        "creatureType": "",
        "details": {
            "description": "Three innocuous decorations instilled with telekinetic magic pull objects and pieces of the room itself into spinning clouds of debris that attack all creatures in the room.",
            "disable": "Thievery DC 27 (expert) to take apart a telekinetic cloud, Thievery DC 32 (master) to disable each telekinetic decoration, or <i>dispel magic </i>(6th level; counteract DC 30) to counteract each telekinetic decoration",
            "isComplex": true,
            "level": 12,
            "reset": "The trap deactivates and resets 10 minutes after it has no target creatures (because the creatures either moved too far away or died).",
            "routine": "(9 actions) Each decoration uses 3 of the trap's actions each turn, and the trap loses 3 actions each turn for every decoration that is disabled. A decoration uses its first action to move its cloud of objects up to 200 feet, its second action to make the objects Strike, and its third action to add more objects to the cloud, increasing its damage by 1d12 (to a maximum of 4d12+10). If a decoration's cloud is already at maximum damage, it does nothing with its third action.<br />If a decoration's cloud has been destroyed, the decoration instead spends its first action to create a new cloud of objects inside the room (using the starting damage value) and then its second and third actions to have the cloud move and attack."
        },
        "flavourText": "",
        "recallKnowledgeText": "",
        "saves": {
            "fortitude": {
                "rank": 0,
                "saveDetail": "",
                "value": 24
            },
            "reflex": {
                "rank": 0,
                "saveDetail": "",
                "value": 19
            },
            "will": {
                "rank": 0,
                "saveDetail": "",
                "value": 0
            }
        },
        "schema": {
            "version": {
                "value": ""
            }
        },
        "sidebarText": "",
        "source": {
            "value": ""
        },
        "statusEffects": [],
        "traits": {
            "ci": [],
            "di": {
                "custom": "",
                "selected": {},
                "value": []
            },
            "dr": [],
            "dv": [],
            "rarity": {
                "value": "common"
            },
            "size": {
                "value": "med"
            },
            "traits": {
                "custom": "",
                "value": [
                    "magical",
                    "mechanical"
                ]
            }
        }
    },
    "effects": [],
    "flags": {},
    "img": "systems/pf2e/icons/default-icons/hazard.svg",
    "items": [
        {
            "_id": "SvVSBExFgbjDrBvW",
            "data": {
                "actionCategory": {
                    "value": ""
                },
                "actionType": {
                    "value": "reaction"
                },
                "actions": {
                    "value": ""
                },
                "description": {
                    "chat": "",
                    "unidentified": "",
                    "value": "<p><strong>Trigger</strong> A creature stays in the room for at least 6 seconds.<br /><strong>Effect</strong> Each telekinetic decoration constructs a cloud of objects in the room (three clouds total) and the trap rolls initiative. The creatures in the room when the trap is triggered become the trap's targets, regardless of whether they leave the room or other creatures later enter the room. Each decoration targets a different creature if possible. A target creature that moves at least 1 mile from the trap ceases being a target, at which point the decoration designates a new target.</p>"
                },
                "requirements": {
                    "value": ""
                },
                "rules": [],
                "slug": null,
                "source": {
                    "value": ""
                },
                "traits": {
                    "custom": "",
                    "rarity": {
                        "value": "common"
                    },
                    "value": [
                        "arcane",
                        "evocation"
                    ]
                },
                "trigger": {
                    "value": ""
                },
                "usage": {
                    "value": "held-in-one-hand"
                },
                "weapon": {
                    "value": ""
                }
            },
            "effects": [],
            "flags": {},
            "img": "systems/pf2e/icons/actions/Reaction.webp",
            "name": "Agitate",
            "sort": 100000,
            "type": "action"
        },
        {
            "_id": "aJouqXgwCGFTWYHD",
            "data": {
                "attack": {
                    "value": ""
                },
                "attackEffects": {
                    "custom": "",
                    "value": []
                },
                "baseItem": null,
                "bonus": {
                    "value": 24
                },
                "brokenThreshold": {
                    "value": 0
                },
                "bulkCapacity": {
                    "value": ""
                },
                "collapsed": {
                    "value": false
                },
                "containerId": {
                    "value": ""
                },
                "damageRolls": {
                    "ha17f105vm6xzoc5d1w0": {
                        "damage": "2d12+10",
                        "damageType": "bludgeoning"
                    }
                },
                "description": {
                    "chat": "",
                    "unidentified": "",
                    "value": ""
                },
                "equipped": {
                    "value": false
                },
                "equippedBulk": {
                    "value": ""
                },
                "hardness": {
                    "value": 0
                },
                "hp": {
                    "value": 0
                },
                "identification": {
                    "status": "identified"
                },
                "identified": {
                    "value": false
                },
                "invested": {
                    "value": false
                },
                "maxHp": {
                    "value": 0
                },
                "negateBulk": {
                    "value": "0"
                },
                "preciousMaterial": {
                    "value": ""
                },
                "preciousMaterialGrade": {
                    "value": ""
                },
                "price": {
                    "value": 0
                },
                "property1": {
                    "critDamage": "",
                    "critDamageType": "",
                    "critDice": 0,
                    "critDie": "",
                    "damageType": "",
                    "dice": 0,
                    "die": "",
                    "value": ""
                },
                "property2": {
                    "critDamage": "",
                    "critDamageType": "",
                    "critDice": 0,
                    "critDie": "",
                    "damageType": "",
                    "dice": 0,
                    "die": "",
                    "value": ""
                },
                "property3": {
                    "critDamage": "",
                    "critDamageType": "",
                    "critDice": 0,
                    "critDie": "",
                    "damageType": "",
                    "dice": 0,
                    "die": "",
                    "value": ""
                },
                "quantity": {
                    "value": 1
                },
                "rules": [],
                "size": {
                    "value": "med"
                },
                "slug": null,
                "source": {
                    "value": ""
                },
                "stackGroup": {
                    "value": ""
                },
                "traits": {
                    "custom": "",
                    "rarity": {
                        "value": "common"
                    },
                    "value": []
                },
                "usage": {
                    "value": "held-in-one-hand"
                },
                "weaponType": {
                    "value": "melee"
                },
                "weight": {
                    "value": 0
                }
            },
            "effects": [],
            "flags": {},
            "img": "systems/pf2e/icons/default-icons/hazard.svg",
            "name": "Objects",
            "sort": 200000,
            "type": "melee"
        }
    ],
    "name": "Telekinetic Swarm Trap",
    "permission": {
        "default": 0
    },
    "token": {
        "actorId": "AM3YY2Zfe2ChJHd7",
        "actorLink": false,
        "bar1": {
            "attribute": "attributes.hp"
        },
        "bar2": {},
        "brightLight": 0,
        "brightSight": 0,
        "dimLight": 0,
        "dimSight": 0,
        "displayBars": 20,
        "displayName": 20,
        "disposition": 0,
        "flags": {},
        "height": 1,
        "img": "systems/pf2e/icons/default-icons/hazard.svg",
        "lightAlpha": 1,
        "lightAngle": 360,
        "lightAnimation": {
            "intensity": 5,
            "speed": 5
        },
        "lockRotation": false,
        "name": "Telekinetic Swarm Trap",
        "randomImg": false,
        "rotation": 0,
        "scale": 1,
        "sightAngle": 360,
        "tint": null,
        "vision": false,
        "width": 1
    },
    "type": "hazard"
}
