{
    "_id": "iU0fEDdBp3rXpTMC",
    "data": {
        "active": true,
        "alsoApplies": {
            "linked": [],
            "unlinked": []
        },
        "base": "Hidden",
        "description": {
            "chat": "",
            "unidentified": "",
            "value": "<p>While you're hidden from a creature, that creature knows the space you're in but can't tell precisely where you are. You typically become hidden by using Stealth to @Compendium[pf2e.actionspf2e.Hide]{Hide}. When @Compendium[pf2e.actionspf2e.Seek]{Seeking} a creature using only imprecise senses, it remains hidden, rather than @Compendium[pf2e.conditionitems.Observed]{Observed}. A creature you're hidden from is @Compendium[pf2e.conditionitems.Flat-Footed]{Flat-Footed} to you, and it must succeed at a <a class=\"inline-roll roll\" title=\"DC11 flat check\" data-mode=\"roll\" data-flavor=\"DC11 flat check\" data-formula=\"1d20\"><i class=\"fas fa-dice-d20\"></i> 1d20</a> <strong>DC 11</strong> flat check when targeting you with an attack, spell, or other effect or it fails affect you. Area effects aren't subject to this flat check.<br /><br />A creature might be able to use the seek action to try to observe you, as described on page 471.</p>"
        },
        "duration": {
            "perpetual": true,
            "text": "",
            "value": 0
        },
        "group": "detection",
        "hud": {
            "img": {
                "useStatusName": true,
                "value": "systems/pf2e/icons/conditions-2/hidden.webp"
            },
            "selectable": true,
            "statusName": "hidden"
        },
        "modifiers": [],
        "overrides": [],
        "references": {
            "children": [],
            "immunityFrom": [],
            "overriddenBy": [],
            "overrides": []
        },
        "removable": true,
        "rules": [],
        "source": {
            "value": ""
        },
        "sources": {
            "hud": false
        },
        "traits": {
            "custom": "",
            "rarity": {
                "value": "common"
            },
            "value": []
        },
        "value": {
            "immutable": false,
            "isValued": false,
            "modifiers": [],
            "value": 1
        }
    },
    "effects": [],
    "flags": {
        "pf2e": {
            "condition": true
        }
    },
    "img": "systems/pf2e/icons/conditions/hidden.webp",
    "name": "Hidden",
    "permission": {
        "default": 0
    },
    "type": "condition"
}
