{
    "_id": "lDVqvLKA6eF3Df60",
    "data": {
        "active": true,
        "alsoApplies": {
            "linked": [],
            "unlinked": []
        },
        "base": "Persistent Damage",
        "description": {
            "chat": "",
            "unidentified": "",
            "value": "<p>Persistent damage comes from effects like acid, being on fire, or many other situations. It appears as \"X persistent [type] damage,\" where \"X\" is the amount of damage dealt and \"[type]\" is the damage type. Instead of taking persistent damage immediately, you take it at the end of each of your turns as long as you have the condition, rolling any damage dice anew each time. After you take persistent damage, roll a <a class=\"inline-roll roll\" title=\"DC 15 flat check\" data-mode=\"roll\" data-flavor=\"DC 15 flat check\" data-formula=\"1d20\"><i class=\"fas fa-dice-d20\"></i> 1d20</a> <strong>DC 15</strong> flat check to see if you recover from the persistent damage. If you succeed, the condition ends.</p>"
        },
        "duration": {
            "perpetual": true,
            "text": "",
            "value": 0
        },
        "group": "",
        "hud": {
            "img": {
                "useStatusName": true,
                "value": "systems/pf2e/icons/conditions-2/persistentDamage.webp"
            },
            "selectable": true,
            "statusName": "persistentDamage"
        },
        "modifiers": [],
        "overrides": [],
        "references": {
            "children": [],
            "immunityFrom": [],
            "overriddenBy": [],
            "overrides": []
        },
        "removable": true,
        "rules": [],
        "source": {
            "value": ""
        },
        "sources": {
            "hud": false
        },
        "traits": {
            "custom": "",
            "rarity": {
                "value": "common"
            },
            "value": []
        },
        "value": {
            "immutable": false,
            "isValued": true,
            "modifiers": [],
            "value": 1
        }
    },
    "effects": [],
    "flags": {
        "pf2e": {
            "condition": true
        }
    },
    "img": "systems/pf2e/icons/conditions/persistentDamage.webp",
    "name": "Persistent Damage",
    "permission": {
        "default": 0
    },
    "type": "condition"
}
