{
    "_id": "E2ij2Cg8oMC0W0NS",
    "data": {
        "boosts": {
            "0": {
                "value": [
                    "dex",
                    "wis"
                ]
            },
            "1": {
                "value": [
                    "cha",
                    "con",
                    "dex",
                    "int",
                    "str",
                    "wis"
                ]
            }
        },
        "description": {
            "chat": "",
            "unidentified": "",
            "value": "<p><strong>Prerequisite</strong>: Region - Eye of Dread</p>\n<hr />\n<p>Woodcraft comes naturally to you, and you have learned how to use the forest to your tactical advantage against superior forces in skirmishes against the Molthuni army or the Ironfang Legion.</p>\n<p>Choose two ability boosts. One must be to <strong>Dexterity</strong> or <strong>Wisdom</strong>, and one is a free ability boost.</p>\n<p>You're trained in the Survival skill and the Forest Lore skill. You gain the @Compendium[pf2e.feats-srd.Terrain Stalker]{Terrain Stalker} (underbrush) skill feat.</p>"
        },
        "items": {
            "nyz6l": {
                "id": "beyw5bdA5hkQbmaG",
                "img": "systems/pf2e/icons/features/feats/feats.webp",
                "level": "1",
                "name": "Terrain Stalker",
                "pack": "pf2e.feats-srd"
            }
        },
        "rules": [],
        "source": {
            "value": ""
        },
        "trainedLore": "Forest Lore",
        "trainedSkills": {
            "value": [
                "sur"
            ]
        },
        "traits": {
            "custom": "",
            "rarity": {
                "value": "common"
            },
            "value": []
        }
    },
    "effects": [],
    "flags": {},
    "img": "systems/pf2e/icons/default-icons/mystery-man.svg",
    "name": "Nirmathi Guerrilla",
    "permission": {
        "default": 0
    },
    "type": "background"
}
