{
    "_id": "AbYyx61j1K4F27tC",
    "data": {
        "armor": {
            "value": "1"
        },
        "armorType": {
            "value": "shield"
        },
        "baseItem": null,
        "brokenThreshold": {
            "value": 22
        },
        "bulkCapacity": {
            "value": ""
        },
        "check": {
            "value": "0"
        },
        "collapsed": {
            "value": false
        },
        "containerId": {
            "value": ""
        },
        "description": {
            "chat": "",
            "unidentified": "",
            "value": "<p>Adamantine shields are particularly sturdy, and when used for a shield bash, they are adamantine weapons.</p>\n<p>The shield has Hardness 11, HP 44, and BT 22.</p>\n<hr />\n<p><strong>Craft Requirements</strong> adamantine worth at least 4,000 gp</p>"
        },
        "dex": {
            "value": "0"
        },
        "equipped": {
            "value": false
        },
        "equippedBulk": {
            "value": ""
        },
        "group": {
            "value": ""
        },
        "hardness": {
            "value": 11
        },
        "hp": {
            "value": 44
        },
        "identification": {
            "status": "identified"
        },
        "identified": {
            "value": true
        },
        "invested": {
            "value": false
        },
        "level": {
            "value": "16"
        },
        "maxHp": {
            "value": 44
        },
        "negateBulk": {
            "value": "0"
        },
        "potencyRune": {
            "value": 0
        },
        "preciousMaterial": {
            "value": "adamantine"
        },
        "preciousMaterialGrade": {
            "value": "high"
        },
        "price": {
            "value": "8,000 gp"
        },
        "propertyRune1": {
            "value": ""
        },
        "propertyRune2": {
            "value": ""
        },
        "propertyRune3": {
            "value": ""
        },
        "propertyRune4": {
            "value": ""
        },
        "quantity": {
            "value": "1"
        },
        "resiliencyRune": {
            "value": ""
        },
        "rules": [],
        "size": {
            "value": "med"
        },
        "source": {
            "value": ""
        },
        "speed": {
            "value": "0"
        },
        "stackGroup": {
            "value": ""
        },
        "strength": {
            "value": "0"
        },
        "traits": {
            "custom": "",
            "rarity": {
                "value": "uncommon"
            },
            "value": []
        },
        "usage": {
            "value": "held-in-one-hand"
        },
        "weight": {
            "value": "L"
        }
    },
    "effects": [],
    "flags": {},
    "img": "systems/pf2e/icons/equipment/shields/precious-material-shields/adamantite-buckler.webp",
    "name": "Adamantine Buckler (High-Grade)",
    "permission": {
        "default": 0
    },
    "type": "armor"
}
