{
    "_id": "1erd18HS57aCyC6r",
    "data": {
        "baseItem": null,
        "brokenThreshold": {
            "value": 0
        },
        "bulkCapacity": {
            "value": ""
        },
        "collapsed": {
            "value": false
        },
        "containerId": {
            "value": ""
        },
        "description": {
            "chat": "",
            "unidentified": "",
            "value": "<p>This broom has a tenuous connection to gravity, and it tends to drift even while stowed. You can ride on the broom using one hand to guide it, and the broom can carry up to one passenger in addition to you.</p>\n<p>The broom moves at a fly Speed of 20 feet. The broom can carry only so much, taking a -10-foot penalty to its Speed if laden with more than 20 Bulk, and crashing to the ground if it carries more than 30 Bulk.</p>\n<p><strong>Activate</strong> <span class=\"pf2-icon\">D</span> Command, Interact</p>\n<p><strong>Effect</strong> You name a destination on the same plane, and the broom speeds toward it at a fly Speed of 40 feet. You must either clutch the broom with two hands in order to ride it, or you need to release the broom to send it off with no rider. If you don't have a good idea of the location, layout, and general direction of the destination, or if your named destination is on another plane, the broom wanders aimlessly, circling back to its starting location after 30 minutes.</p>\n<p>If the broom carries a rider, this activation lasts until 4 hours pass (typically 16 miles of travel), the broom reaches its destination, or you Dismiss the activation. If the broom doesn't have a rider, the activation lasts until the broom reaches its destination. When the activation ends, the broom floats to the ground and can't be activated again for 1 hour.</p>"
        },
        "equipped": {
            "value": false
        },
        "equippedBulk": {
            "value": ""
        },
        "hardness": {
            "value": 0
        },
        "hp": {
            "value": 0
        },
        "identification": {
            "status": "identified"
        },
        "identified": {
            "value": true
        },
        "invested": {
            "value": false
        },
        "level": {
            "value": "12"
        },
        "maxHp": {
            "value": 0
        },
        "negateBulk": {
            "value": "0"
        },
        "preciousMaterial": {
            "value": ""
        },
        "preciousMaterialGrade": {
            "value": ""
        },
        "price": {
            "value": "1,900 gp"
        },
        "quantity": {
            "value": "1"
        },
        "rules": [],
        "size": {
            "value": "med"
        },
        "source": {
            "value": ""
        },
        "stackGroup": {
            "value": ""
        },
        "traits": {
            "custom": "",
            "rarity": {
                "value": "common"
            },
            "usage": {
                "value": "held-in-one-hand"
            },
            "value": [
                "magical",
                "transmutation"
            ]
        },
        "usage": {
            "value": "held-in-one-hand"
        },
        "weight": {
            "value": "1"
        }
    },
    "effects": [],
    "flags": {},
    "img": "systems/pf2e/icons/equipment/held-items/broom-of-flying.webp",
    "name": "Broom of Flying",
    "permission": {
        "default": 0
    },
    "type": "equipment"
}
