{
    "_id": "VDMYyVQUWJAjVyru",
    "data": {
        "baseItem": null,
        "brokenThreshold": {
            "value": 0
        },
        "bulkCapacity": {
            "value": ""
        },
        "collapsed": {
            "value": false
        },
        "containerId": {
            "value": ""
        },
        "description": {
            "chat": "",
            "unidentified": "",
            "value": "<p>This polished crystal sphere enhances scrying magic. Any visual information received through a spell with the scrying trait that was cast by the <em>crystal ball</em> appears within the sphere, and any auditory information sounds out from the surface of the sphere. When you cast a @Compendium[pf2e.spells-srd.Scrying]{Scrying} spell by any other means while holding the sphere, you can relay any information you receive in the same way, allowing others to see or hear the target.</p>\n<p>The base version of a <em>crystal ball</em> is a sphere of clear quartz, but other versions are made of different stones.</p>\n<hr />\n<p><strong>Activate</strong> 1 minute (command, envision, Interact)</p>\n<p><strong>Frequency</strong> once per hour</p>\n<p><strong>Effect</strong> The <em>crystal ball</em> casts @Compendium[pf2e.spells-srd.Clairvoyance]{Clairvoyance} to your specifications.</p>\n<hr />\n<p><strong>Activate</strong> 10 minutes (command, envision, Interact)</p>\n<p><strong>Frequency</strong> twice per day</p>\n<p><strong>Effect</strong> The <em>crystal ball</em> casts a DC 36 @Compendium[pf2e.spells-srd.Scrying]{Scrying} spell to your specifications, and you gain the benefits of @Compendium[pf2e.spells-srd.See Invisibility]{See Invisibility} on the target.</p>"
        },
        "equipped": {
            "value": false
        },
        "equippedBulk": {
            "value": ""
        },
        "hardness": {
            "value": 0
        },
        "hp": {
            "value": 0
        },
        "identification": {
            "status": "identified"
        },
        "identified": {
            "value": true
        },
        "invested": {
            "value": false
        },
        "level": {
            "value": "15"
        },
        "maxHp": {
            "value": 0
        },
        "negateBulk": {
            "value": ""
        },
        "preciousMaterial": {
            "value": ""
        },
        "preciousMaterialGrade": {
            "value": ""
        },
        "price": {
            "value": "7,000 gp"
        },
        "quantity": {
            "value": "1"
        },
        "rules": [],
        "size": {
            "value": "med"
        },
        "source": {
            "value": ""
        },
        "stackGroup": {
            "value": ""
        },
        "traits": {
            "custom": "",
            "rarity": {
                "value": "uncommon"
            },
            "usage": {
                "value": "held-in-one-hand"
            },
            "value": [
                "divination",
                "magical",
                "scrying"
            ]
        },
        "usage": {
            "value": "held-in-one-hand"
        },
        "weight": {
            "value": "L"
        }
    },
    "effects": [],
    "flags": {},
    "img": "systems/pf2e/icons/equipment/held-items/crystal-ball-selenite.webp",
    "name": "Crystal Ball (Selenite)",
    "permission": {
        "default": 0
    },
    "type": "equipment"
}
