{
    "_id": "Q4o8pEdxSY0bnJQZ",
    "data": {
        "baseItem": null,
        "brokenThreshold": {
            "value": 0
        },
        "bulkCapacity": {
            "value": ""
        },
        "collapsed": {
            "value": false
        },
        "containerId": {
            "value": ""
        },
        "description": {
            "chat": "",
            "unidentified": "",
            "value": "<p><span>This glowing gem is harvested from a demilich and has an 8th-level spell magically bonded to it. This item has the traits of the spell it contains.<br /></span></p>\n<p><strong>Activate</strong> command, Interact; <strong>Frequency</strong> once per day; <strong>Effect</strong> The gem casts the 8th-level spell it contains. This activation uses the same number of actions as Casting the Spell. Once the spell is cast, the gem's glow fades, but returns 24 hours later, when the spell can be used once again.</p>\n<hr />\n<p><span><strong>Craft Requirements</strong> <em>Demilich eye gems</em> can't be crafted.</span></p>"
        },
        "equipped": {
            "value": false
        },
        "equippedBulk": {
            "value": ""
        },
        "hardness": {
            "value": 0
        },
        "hp": {
            "value": 0
        },
        "identification": {
            "status": "identified"
        },
        "identified": {
            "value": true
        },
        "invested": {
            "value": false
        },
        "level": {
            "value": "15"
        },
        "maxHp": {
            "value": 0
        },
        "negateBulk": {
            "value": ""
        },
        "preciousMaterial": {
            "value": ""
        },
        "preciousMaterialGrade": {
            "value": ""
        },
        "price": {
            "value": "3,000 gp"
        },
        "quantity": {
            "value": "1"
        },
        "rules": [],
        "size": {
            "value": "med"
        },
        "source": {
            "value": ""
        },
        "stackGroup": {
            "value": ""
        },
        "traits": {
            "custom": "",
            "rarity": {
                "value": "rare"
            },
            "usage": {
                "value": "held-in-one-hand"
            },
            "value": [
                "arcane"
            ]
        },
        "usage": {
            "value": "held-in-one-hand"
        },
        "weight": {
            "value": "-"
        }
    },
    "effects": [],
    "flags": {},
    "img": "systems/pf2e/icons/equipment/held-items/demilich-eye-gem.webp",
    "name": "Demilich Eye Gem",
    "permission": {
        "default": 0
    },
    "type": "equipment"
}
