{
    "_id": "98JIeYGEuE6pPV05",
    "data": {
        "baseItem": null,
        "brokenThreshold": {
            "value": 0
        },
        "bulkCapacity": {
            "value": ""
        },
        "collapsed": {
            "value": false
        },
        "containerId": {
            "value": ""
        },
        "description": {
            "chat": "",
            "unidentified": "",
            "value": "<p>This surprisingly sturdy 3-foot-by-3-foot clay tile resembles a thick pressure plate. It can support up to 500 pounds of weight atop it before it is destroyed. The<em>floorbell's</em>nature is obvious at a glance, but mundane or magical means can obscure or camouflage the tile (such as by covering it in scattered leaves or by casting an @Compendium[pf2e.spells-srd.Illusory Object]{Illusory Object} spell) to make it harder to detect.<br /><br /><strong>Activate</strong><span class=\"pf2-icon\">2</span>command, Interact;<strong>Effect</strong> The<em>floorbell</em>must be activated on level ground. When you do, specify the amount of weight that triggers the<em>floorbell's</em>alarm system. When the amount of weight you specify (or more) is placed on the<em>floorbell</em>, it emits an ear-piercing wail clearly audible to a range of 150 feet. A<em>floorbell</em>can also ring an alarm if a weight you specify is removed from the<em>floorbell</em>, such as if you activated it while a heavy sack was on it.</p>"
        },
        "equipped": {
            "value": false
        },
        "equippedBulk": {
            "value": ""
        },
        "hardness": {
            "value": 0
        },
        "hp": {
            "value": 0
        },
        "identification": {
            "status": "identified"
        },
        "identified": {
            "value": true
        },
        "invested": {
            "value": false
        },
        "level": {
            "value": "5"
        },
        "maxHp": {
            "value": 0
        },
        "negateBulk": {
            "value": "0"
        },
        "preciousMaterial": {
            "value": ""
        },
        "preciousMaterialGrade": {
            "value": ""
        },
        "price": {
            "value": "120 gp"
        },
        "quantity": {
            "value": "1"
        },
        "rules": [],
        "size": {
            "value": "med"
        },
        "source": {
            "value": ""
        },
        "stackGroup": {
            "value": ""
        },
        "traits": {
            "custom": "",
            "rarity": {
                "value": "uncommon"
            },
            "usage": {
                "value": "held-in-one-hand"
            },
            "value": [
                "abjuration",
                "magical"
            ]
        },
        "usage": {
            "value": "held-in-one-hand"
        },
        "weight": {
            "value": "1"
        }
    },
    "effects": [],
    "flags": {},
    "img": "systems/pf2e/icons/equipment/held-items/floorbell.webp",
    "name": "Floorbell",
    "permission": {
        "default": 0
    },
    "type": "equipment"
}
