{
    "_id": "qUnDHEXteUQGE8yp",
    "data": {
        "baseItem": null,
        "brokenThreshold": {
            "value": 0
        },
        "bulkCapacity": {
            "value": ""
        },
        "collapsed": {
            "value": false
        },
        "containerId": {
            "value": ""
        },
        "description": {
            "chat": "",
            "unidentified": "",
            "value": "<p><span>When your attack roll with this weapon is a critical hit and gains the critical specialization effect, you gain an additional benefit depending on the weapon group. <br /></span></p>\n<p><span><strong>Axe</strong> You can damage a third creature, with the same restrictions. <br /></span></p>\n<p><span><strong>Bow</strong> The Athletics check to pull the missile free is DC 20. <br /></span></p>\n<p><span><strong>Brawling</strong> The target takes a -4 circumstance penalty to its save. <br /></span></p>\n<p><span><strong>Club</strong> You can knock the target up to 15 feet away. <br /></span></p>\n<p><span><strong>Dart</strong> The base persistent bleed damage increases to 2d6. <br /></span></p>\n<p><span><strong>Flail</strong> You move the target 5 feet. You can't move it away from you, but you can move it in another direction of your choice. <br /></span></p>\n<p><span><strong>Hammer</strong> You can also knock the target 5 feet away from you. <br /></span></p>\n<p><span><strong>Knife</strong> The target takes a -5-foot status penalty to its Speed while it has the persistent bleed damage. <br /></span></p>\n<p><span><strong>Pick</strong> The extra damage from the critical specialization effect increases to 4 per weapon damage die. <br /></span></p>\n<p><span><strong>Polearm</strong> You can move the target up to 10 feet. <br /></span></p>\n<p><span><strong>Shield</strong> You can knock the target up to 10 feet away. <br /></span></p>\n<p><span><strong>Sling</strong> The target also takes a -10-foot status penalty to its Speed for 1 round if it fails the save. <br /></span></p>\n<p><span><strong>Spear</strong> The clumsy condition lasts for 2 rounds. <br /></span></p>\n<p><span><strong>Sword</strong> The target is flat-footed until the end of your next turn.</span></p>"
        },
        "equipped": {
            "value": false
        },
        "equippedBulk": {
            "value": ""
        },
        "hardness": {
            "value": 0
        },
        "hp": {
            "value": 0
        },
        "identification": {
            "status": "identified"
        },
        "identified": {
            "value": true
        },
        "invested": {
            "value": false
        },
        "level": {
            "value": "9"
        },
        "maxHp": {
            "value": 0
        },
        "negateBulk": {
            "value": "0"
        },
        "preciousMaterial": {
            "value": ""
        },
        "preciousMaterialGrade": {
            "value": ""
        },
        "price": {
            "value": "700 gp"
        },
        "quantity": {
            "value": "1"
        },
        "rules": [],
        "size": {
            "value": "med"
        },
        "source": {
            "value": ""
        },
        "stackGroup": {
            "value": ""
        },
        "traits": {
            "custom": "",
            "rarity": {
                "value": "common"
            },
            "usage": {
                "value": "etched-onto-a-weapon"
            },
            "value": [
                "enchantment",
                "magical"
            ]
        },
        "usage": {
            "value": "held-in-one-hand"
        },
        "weight": {
            "value": "-"
        }
    },
    "effects": [],
    "flags": {},
    "img": "systems/pf2e/icons/equipment/runes/weapon-property-runes/weapon-property-runes.webp",
    "name": "Grievous",
    "permission": {
        "default": 0
    },
    "type": "equipment"
}
