{
    "_id": "KrtZmC3qfZIGXu76",
    "data": {
        "activation": {
            "condition": "",
            "cost": 0,
            "type": ""
        },
        "autoDestroy": {
            "_deprecated": true,
            "value": true
        },
        "autoUse": {
            "_deprecated": true,
            "value": true
        },
        "baseItem": null,
        "brokenThreshold": {
            "value": 0
        },
        "bulkCapacity": {
            "value": ""
        },
        "charges": {
            "_deprecated": true,
            "max": 1,
            "value": 1
        },
        "collapsed": {
            "value": false
        },
        "consumableType": {
            "value": "talisman"
        },
        "consume": {
            "_deprecated": true,
            "value": ""
        },
        "containerId": {
            "value": ""
        },
        "description": {
            "chat": "",
            "unidentified": "",
            "value": "<p><strong>Activate</strong> <span class=\"pf2-icon\">A</span> @Compendium[pf2e.feats-srd.Certain Strike]{Certain Strike}</p>\n<p><strong>Requirements</strong> You are a master with the affixed weapon</p>\n<p>This small iron band has a shifting weight that helps equalize the affixed weapon's balance. When you activate it, you use Certain Strike, as the fighter feat. You must meet the normal requirements, including those of the press trait.</p>\n<p>If you have the Certain Strike feat, the failure effect increases to deal the weapon's normal damage.</p>"
        },
        "duration": {
            "units": "",
            "value": null
        },
        "equipped": {
            "value": false
        },
        "equippedBulk": {
            "value": ""
        },
        "hardness": {
            "value": 0
        },
        "hp": {
            "value": 0
        },
        "identification": {
            "status": "identified"
        },
        "identified": {
            "value": true
        },
        "invested": {
            "value": false
        },
        "level": {
            "value": 12
        },
        "maxHp": {
            "value": 0
        },
        "negateBulk": {
            "value": "0"
        },
        "preciousMaterial": {
            "value": ""
        },
        "preciousMaterialGrade": {
            "value": ""
        },
        "price": {
            "value": "400 gp"
        },
        "quantity": {
            "value": 1
        },
        "range": {
            "long": null,
            "units": "",
            "value": null
        },
        "rules": [],
        "size": {
            "value": "med"
        },
        "source": {
            "value": ""
        },
        "spell": {
            "data": null,
            "heightenedLevel": null
        },
        "stackGroup": {
            "value": ""
        },
        "target": {
            "type": "",
            "units": "",
            "value": null
        },
        "traits": {
            "custom": "",
            "rarity": {
                "value": "common"
            },
            "usage": {
                "value": "affixed-to-weapon"
            },
            "value": [
                "consumable",
                "evocation",
                "magical",
                "talisman"
            ]
        },
        "usage": {
            "value": "held-in-one-hand"
        },
        "uses": {
            "autoDestroy": true,
            "autoUse": true,
            "max": 0,
            "per": null,
            "value": 0
        },
        "weight": {
            "value": "-"
        }
    },
    "effects": [],
    "flags": {},
    "img": "systems/pf2e/icons/equipment/consumables/talismans/iron-equalizer.webp",
    "name": "Iron Equalizer",
    "permission": {
        "default": 0
    },
    "type": "consumable"
}
