{
    "_id": "Jp9K5Q9t9ZiDGSaI",
    "data": {
        "baseItem": null,
        "brokenThreshold": {
            "value": 0
        },
        "bulkCapacity": {
            "value": ""
        },
        "collapsed": {
            "value": false
        },
        "containerId": {
            "value": ""
        },
        "description": {
            "chat": "",
            "unidentified": "",
            "value": "<p>This pale gemstone grants its wearer a +2 item bonus to saving throws and the ability to discern a target's alignment (as @Compendium[pf2e.spells-srd.Detect Alignment]{Detect Alignment}, but can detect chaotic, evil, good, and lawful auras simultaneously) at will by peering through the gemstone.</p>\n<p>Like all hag <em>heartstones</em>, this gemstone is powered by Skarja's spirit. Skarja does not need to wear her <em>heartstone</em> to benefit from its powers, but she cannot use them if she hasn't touched her <em>heartstone</em> in the past 7 days. If Skarja's <em>heartstone</em> is separated from her for more than 7 days (or if she's been dead for 7 days), it becomes a non-magical gemstone.</p>\n<p>Skarja's <em>heartstone</em> allows her to use additional occult innate spells: @Compendium[pf2e.spells-srd.Ethereal Jaunt]{Ethereal Jaunt} (9th level) and @Compendium[pf2e.spells-srd.Bind Soul]{Bind Soul} at will, @Compendium[pf2e.spells-srd.Shadow Blast]{Shadow Blast} (6th level) twice per day, and @Compendium[pf2e.spells-srd.Spirit Blast]{Spirit Blast} once per day.</p>\n<p><strong>Activate</strong>: <span class=\"pf2-icon\">A</span>command;</p>\n<p><strong>Requirements</strong>: You must be touching the heartstone.</p>\n<p><strong>Effect</strong>: The <em>heartstone</em> attempts to counteract one disease affecting you (counteract level 7, counteract modifier [[/r 1d20+23]]).</p>\n<p><strong>Craft Requirements</strong> You must be a night hag.</p>\n<hr />\n<p>Automatically applied effects:</p>\n<ul>\n<li>+2 item bonus to saving throws</li>\n</ul>"
        },
        "equipped": {
            "value": false
        },
        "equippedBulk": {
            "value": ""
        },
        "hardness": {
            "value": 0
        },
        "hp": {
            "value": 0
        },
        "identification": {
            "status": "identified"
        },
        "identified": {
            "value": true
        },
        "invested": {
            "value": false
        },
        "level": {
            "value": "13"
        },
        "maxHp": {
            "value": 0
        },
        "negateBulk": {
            "value": "0"
        },
        "originalName": "",
        "preciousMaterial": {
            "value": ""
        },
        "preciousMaterialGrade": {
            "value": ""
        },
        "price": {
            "value": "2500 gp (1000 gp when non-magical)"
        },
        "quantity": {
            "value": "1"
        },
        "rules": [
            {
                "key": "PF2E.RuleElement.FlatModifier",
                "selector": "saving-throw",
                "type": "item",
                "value": 2
            }
        ],
        "size": {
            "value": "med"
        },
        "source": {
            "value": ""
        },
        "stackGroup": {
            "value": ""
        },
        "traits": {
            "custom": "",
            "rarity": {
                "value": "unique"
            },
            "usage": {
                "value": "held-in-one-hand"
            },
            "value": [
                "abjuration",
                "invested",
                "occult"
            ]
        },
        "usage": {
            "value": "held-in-one-hand"
        },
        "weight": {
            "value": "-"
        }
    },
    "effects": [],
    "flags": {},
    "img": "systems/pf2e/icons/equipment/worn-items/other-worn-items/heartstone.webp",
    "name": "Skarja's Heartstone",
    "permission": {
        "default": 0
    },
    "type": "equipment"
}
