{
    "_id": "EuEH4f3oDUQ4YFZS",
    "data": {
        "baseItem": null,
        "brokenThreshold": {
            "value": 0
        },
        "bulkCapacity": {
            "value": ""
        },
        "collapsed": {
            "value": false
        },
        "containerId": {
            "value": ""
        },
        "description": {
            "chat": "",
            "unidentified": "",
            "value": "<p>Also known as a loadstone, this small stone appears nonmagical and has a lovely sheen, giving the impression that it could be a valuable or a notable item or a magic stone of some kind. When you've carried the stone on your person for 1 minute, its curse activates: the stone's size does not change, but it suddenly increases in weight to 5 Bulk. This additional weight does not cause the stone to deal more damage if thrown or used as a weapon. It reappears in your possessions within 1 minute if you discard it, and can't be destroyed or thrown away permanently, or even placed in a container that would reduce or negate its Bulk (like a bag of holding), until it is subject to a remove curse spell or similar magic effect. Once the curse has activated for the first time, the stone fuses to you.</p>"
        },
        "equipped": {
            "value": false
        },
        "equippedBulk": {
            "value": ""
        },
        "hardness": {
            "value": 0
        },
        "hp": {
            "value": 0
        },
        "identification": {
            "status": "identified"
        },
        "identified": {
            "value": true
        },
        "invested": {
            "value": false
        },
        "level": {
            "value": "2"
        },
        "maxHp": {
            "value": 0
        },
        "negateBulk": {
            "value": ""
        },
        "preciousMaterial": {
            "value": ""
        },
        "preciousMaterialGrade": {
            "value": ""
        },
        "price": {
            "value": ""
        },
        "quantity": {
            "value": "1"
        },
        "rules": [],
        "size": {
            "value": "med"
        },
        "source": {
            "value": ""
        },
        "stackGroup": {
            "value": ""
        },
        "traits": {
            "custom": "",
            "rarity": {
                "value": "rare"
            },
            "usage": {
                "value": "held-in-one-hand"
            },
            "value": [
                "conjuration",
                "cursed",
                "magical"
            ]
        },
        "usage": {
            "value": "held-in-one-hand"
        },
        "weight": {
            "value": "L"
        }
    },
    "effects": [],
    "flags": {},
    "img": "systems/pf2e/icons/equipment/cursed-items/stone-of-weight.webp",
    "name": "Stone of Weight",
    "permission": {
        "default": 0
    },
    "type": "equipment"
}
