{
    "_id": "tnPteWjbm97bdTj5",
    "data": {
        "baseItem": null,
        "brokenThreshold": {
            "value": 0
        },
        "bulkCapacity": {
            "value": ""
        },
        "collapsed": {
            "value": false
        },
        "containerId": {
            "value": ""
        },
        "description": {
            "chat": "",
            "unidentified": "",
            "value": "<p>This thin leather cord bears delicate runic markings and threads through an item that can bear affixed talismans.</p>\n<p>When you Affix a Talisman to that item, you can thread the talisman onto the cord, activating the cord's preserving effects. The cord is attuned to a particular school of magic, chosen when the cord was created. It gains the corresponding trait for that school. When you activate a talisman threaded through a cord with the same magic school trait that's also the cord's level or lower, attempt a DC 16 flat check. On a success, that talisman is not consumed and can be used again.</p>"
        },
        "equipped": {
            "value": false
        },
        "equippedBulk": {
            "value": ""
        },
        "hardness": {
            "value": 0
        },
        "hp": {
            "value": 0
        },
        "identification": {
            "status": "identified"
        },
        "identified": {
            "value": true
        },
        "invested": {
            "value": false
        },
        "level": {
            "value": "4"
        },
        "maxHp": {
            "value": 0
        },
        "negateBulk": {
            "value": "0"
        },
        "preciousMaterial": {
            "value": ""
        },
        "preciousMaterialGrade": {
            "value": ""
        },
        "price": {
            "value": "85 gp"
        },
        "quantity": {
            "value": "1"
        },
        "rules": [],
        "size": {
            "value": "med"
        },
        "source": {
            "value": ""
        },
        "stackGroup": {
            "value": ""
        },
        "traits": {
            "custom": "",
            "rarity": {
                "value": "uncommon"
            },
            "usage": {
                "value": "worn"
            },
            "value": [
                "abjuration",
                "invested",
                "magical"
            ]
        },
        "usage": {
            "value": "held-in-one-hand"
        },
        "weight": {
            "value": "-"
        }
    },
    "effects": [],
    "flags": {},
    "img": "systems/pf2e/icons/equipment/worn-items/other-worn-items/talisman-cord.webp",
    "name": "Talisman Cord (Lesser)",
    "permission": {
        "default": 0
    },
    "type": "equipment"
}
