{
    "_id": "PphyArSCoxkaI6IS",
    "data": {
        "attributes": {
            "ac": {
                "value": 31
            },
            "hardness": 20,
            "hasHealth": true,
            "hp": {
                "details": "",
                "max": 32,
                "temp": 0,
                "value": 32
            },
            "stealth": {
                "details": "<p>+21 (expert) or DC 31 (expert) to notice the hidden override mechanism in the north wall</p>",
                "value": 21
            }
        },
        "creatureType": "",
        "details": {
            "description": "<p>Seven nozzles hidden within holes in the 15‑foot-high ceiling release a poison gas.</p>",
            "disable": "<p>DC 33 Thievery (master) to disable the hidden mechanism on the north wall, immediately sucking the gas from the room, or DC 29 Thievery (expert) to adequately plug one of the seven nozzles. When all seven nozzles are plugged or destroyed, the trap is deactivated.</p>",
            "isComplex": true,
            "level": 11,
            "reset": "<p>After an hour, the trap deactivates; the gas disperses slowly, and the doors can be opened again. After 24 hours, the gas builds up and the trap can be triggered again.</p>",
            "routine": "<p>(1 action) The gas intensifies. Each creature in the room must make a DC 30 Fortitude save.</p>\n<p><strong>Critical Success</strong> The creature is unaffected and becomes temporarily immune to the gas for 1 hour, though if the creature has already been stupefied by the trap, that condition remains for its normal duration.</p>\n<p><strong>Success</strong> The creature is unaffected.</p>\n<p><strong>Failure</strong> The creature becomes @Compendium[pf2e.conditionitems.Stupefied]{Stupefied 1} for 24 hours. If the target is already stupefied, the condition value increases by 1 (to a maximum of stupefied 4) and the target takes [[/r 8d6 #mental]] mental damage.</p>\n<p><strong>Critical Effect</strong> As failure, except the target takes double the mental damage.</p>"
        },
        "flavourText": "",
        "recallKnowledgeText": "",
        "saves": {
            "fortitude": {
                "rank": 0,
                "saveDetail": "",
                "value": 24
            },
            "reflex": {
                "rank": 0,
                "saveDetail": "",
                "value": 18
            },
            "will": {
                "rank": 0,
                "saveDetail": "",
                "value": null
            }
        },
        "schema": {
            "version": {
                "value": ""
            }
        },
        "sidebarText": "",
        "source": {
            "value": ""
        },
        "statusEffects": [],
        "traits": {
            "ci": [],
            "di": {
                "custom": "",
                "selected": {},
                "value": [
                    "critical-hits",
                    "object-immunities",
                    "precision"
                ]
            },
            "dr": [],
            "dv": [],
            "rarity": {
                "value": "common"
            },
            "size": {
                "value": "med"
            },
            "traits": {
                "custom": "",
                "value": [
                    "mechanical",
                    "trap"
                ]
            }
        }
    },
    "effects": [],
    "flags": {},
    "img": "systems/pf2e/icons/default-icons/hazard.svg",
    "items": [
        {
            "_id": "yCvj5N1H04hmAYuS",
            "data": {
                "actionCategory": {
                    "value": ""
                },
                "actionType": {
                    "value": "reaction"
                },
                "actions": {
                    "value": ""
                },
                "description": {
                    "value": "<p><strong>Trigger</strong> Both secret doors are closed and at least one creature is in the room;</p>\n<p><strong>Effect</strong> Gas fills the chamber. Creatures within the chamber must succeed on a <span data-pf2-saving-throw=\"fortitude\" data-pf2-dc=\"30\" data-pf2-traits=\"inhaled,mental,poison\" data-pf2-label=\"Gas Release DC\" data-pf2-show-dc=\"gm\">Fortitude</span> save or become @Compendium[pf2e.conditionitems.Stupefied]{Stupefied 1} (@Compendium[pf2e.conditionitems.Stupefied]{Stupefied 2} on a critical failure). The trap then rolls initiative.</p>"
                },
                "requirements": {
                    "value": ""
                },
                "rules": [],
                "slug": null,
                "source": {
                    "value": ""
                },
                "traits": {
                    "custom": "",
                    "rarity": {
                        "value": "common"
                    },
                    "value": [
                        "inhaled",
                        "mental",
                        "poison"
                    ]
                },
                "trigger": {
                    "value": ""
                },
                "weapon": {
                    "value": ""
                }
            },
            "effects": [],
            "flags": {},
            "img": "systems/pf2e/icons/actions/Reaction.webp",
            "name": "Gas Release",
            "sort": 100000,
            "type": "action"
        }
    ],
    "name": "Befuddling Gas Trap",
    "permission": {
        "default": 0
    },
    "token": {
        "actorId": "PphyArSCoxkaI6IS",
        "actorLink": false,
        "bar1": {
            "attribute": "attributes.hp"
        },
        "bar2": {},
        "brightLight": 0,
        "brightSight": 0,
        "dimLight": 0,
        "dimSight": 0,
        "displayBars": 20,
        "displayName": 20,
        "disposition": 0,
        "flags": {},
        "height": 1,
        "img": "systems/pf2e/icons/default-icons/hazard.svg",
        "lightAlpha": 1,
        "lightAngle": 360,
        "lightAnimation": {
            "intensity": 5,
            "speed": 5
        },
        "lockRotation": false,
        "name": "Befuddling Gas Trap",
        "randomImg": false,
        "rotation": 0,
        "scale": 1,
        "sightAngle": 360,
        "tint": null,
        "vision": false,
        "width": 1
    },
    "type": "hazard"
}
