{
    "_id": "Pnw71fJ41j6Wx62M",
    "data": {
        "abilities": {
            "cha": {
                "min": 3,
                "mod": 5,
                "value": 20
            },
            "con": {
                "min": 3,
                "mod": 3,
                "value": 16
            },
            "dex": {
                "min": 3,
                "mod": 6,
                "value": 22
            },
            "int": {
                "min": 3,
                "mod": 5,
                "value": 20
            },
            "str": {
                "min": 3,
                "mod": 0,
                "value": 10
            },
            "wis": {
                "min": 3,
                "mod": 7,
                "value": 24
            }
        },
        "attributes": {
            "ac": {
                "check": 0,
                "details": "",
                "dex": 0,
                "item": 0,
                "min": 0,
                "value": 30
            },
            "allSaves": {
                "value": null
            },
            "bonusEncumbranceBulk": 0,
            "bonusLimitBulk": 0,
            "flatbonushp": 0,
            "flatbonussp": 0,
            "hp": {
                "details": "",
                "max": 190,
                "min": 0,
                "temp": 0,
                "value": 190
            },
            "init": {
                "bonus": 0,
                "value": 0
            },
            "initiative": {
                "ability": "",
                "circumstance": 0,
                "status": 0
            },
            "levelbonushp": 0,
            "levelbonussp": 0,
            "perception": {
                "ability": "wis",
                "item": 0,
                "rank": 0,
                "value": 24
            },
            "resolve": {
                "value": 0
            },
            "shield": {
                "ac": 2,
                "brokenThreshold": 0,
                "hardness": 0,
                "max": 0,
                "min": 0,
                "value": 0
            },
            "sp": {
                "details": "",
                "max": 0,
                "min": 0,
                "value": 0
            },
            "speed": {
                "otherSpeeds": [
                    {
                        "exceptions": "",
                        "label": "Fly",
                        "type": "fly",
                        "value": "60"
                    }
                ],
                "special": "",
                "value": "10"
            }
        },
        "currency": {
            "cp": {
                "value": 0
            },
            "gp": {
                "value": 0
            },
            "pp": {
                "value": 0
            },
            "sp": {
                "value": 0
            }
        },
        "details": {
            "alignment": {
                "value": "CN"
            },
            "ancestry": {
                "value": ""
            },
            "biography": {
                "public": "",
                "value": ""
            },
            "class": {
                "value": ""
            },
            "creatureType": "",
            "deity": {
                "image": "systems/pf2e/assets/sheet/deity.webp",
                "value": ""
            },
            "flavorText": "<p>Catching a glimpse of a harmona is said to be lucky. Flying quickly, observing and scouting new areas, these brightly colored avian fey are all but hidden to the eye. A soft buzz accompanies them, discernible only to creatures with particularly keen hearing.</p>\n<p>Intelligent and curious, these tiny fey birds freely roam the First World, accompanying high-ranking fey creatures such as queens or their courts. In turn, companions who treat a harmona with respect for their knowledge and skill benefit from the harmona&rsquo;s aid in times of need.</p>\n<p>When these curious creatures find a natural gate between the planes, they glide through to explore and expand their knowledge. Those who find their&nbsp;way onto the Material Plane often choose to remain there in search of diverse and unusual places. This frequently leads them to the same locations that draw in curious adventurers. A harmona might befriend a non-fey adventurer as a companion, but they resent those who would treat them as pets and fight to the death to avoid capture.</p>",
            "flavourText": "",
            "heritage": {
                "value": ""
            },
            "keyability": {
                "value": "str"
            },
            "level": {
                "min": 1,
                "value": 11
            },
            "recallKnowledgeText": "",
            "sidebarText": "",
            "source": {
                "value": ""
            }
        },
        "items": {
            "0": {
                "data": {
                    "ability": {
                        "value": ""
                    },
                    "slots": {
                        "slot1": {
                            "max": 0,
                            "value": 0
                        },
                        "slot2": {
                            "max": 0,
                            "value": 0
                        },
                        "slot3": {
                            "max": 0,
                            "value": 0
                        },
                        "slot4": {
                            "max": 0,
                            "value": 0
                        },
                        "slot5": {
                            "max": 0,
                            "value": 0
                        },
                        "slot6": {
                            "max": 0,
                            "value": 0
                        }
                    },
                    "spelldc": {
                        "dc": 30,
                        "value": 20
                    }
                }
            }
        },
        "martial": {
            "advanced": {
                "rank": 0,
                "value": 0
            },
            "heavy": {
                "rank": 0,
                "value": 0
            },
            "light": {
                "rank": 0,
                "value": 0
            },
            "martial": {
                "rank": 0,
                "value": 0
            },
            "medium": {
                "rank": 0,
                "value": 0
            },
            "simple": {
                "rank": 0,
                "value": 0
            },
            "unarmed": {
                "rank": 0,
                "value": 0
            },
            "unarmored": {
                "rank": 0,
                "value": 0
            }
        },
        "saves": {
            "fortitude": {
                "ability": "con",
                "item": 0,
                "rank": 0,
                "saveDetail": "",
                "value": 18
            },
            "reflex": {
                "ability": "dex",
                "item": 0,
                "rank": 0,
                "saveDetail": "",
                "value": 21
            },
            "will": {
                "ability": "wis",
                "item": 0,
                "rank": 0,
                "saveDetail": "",
                "value": 24
            }
        },
        "schema": {
            "version": {
                "value": ""
            }
        },
        "spells": {
            "spell0": {
                "max": 0
            },
            "spell1": {
                "max": 0
            },
            "spell10": {
                "max": 0
            },
            "spell11": {
                "max": 0
            },
            "spell2": {
                "max": 0
            },
            "spell3": {
                "max": 0
            },
            "spell4": {
                "max": 0
            },
            "spell5": {
                "max": 0
            },
            "spell6": {
                "max": 0
            },
            "spell7": {
                "max": 0
            },
            "spell8": {
                "max": 0
            },
            "spell9": {
                "max": 0
            }
        },
        "statusEffects": [],
        "traits": {
            "attitude": {
                "value": "hostile"
            },
            "ci": [],
            "di": {
                "custom": "",
                "value": [
                    "sonic"
                ]
            },
            "dr": [],
            "dv": [
                {
                    "exceptions": "",
                    "label": "Cold Iron",
                    "type": "coldiron",
                    "value": "10"
                }
            ],
            "languages": {
                "custom": "",
                "selected": [],
                "value": [
                    "sylvan"
                ]
            },
            "rarity": {
                "value": "uncommon"
            },
            "senses": {
                "value": "low-light vision"
            },
            "size": {
                "value": "tiny"
            },
            "traits": {
                "custom": "",
                "value": [
                    "fey"
                ]
            }
        }
    },
    "effects": [],
    "flags": {},
    "img": "systems/pf2e/icons/default-icons/npc.svg",
    "items": [
        {
            "_id": "lyBxl6h5N2U5upj5",
            "data": {
                "ability": {
                    "value": ""
                },
                "description": {
                    "value": ""
                },
                "displayLevels": {},
                "focus": {
                    "points": 0,
                    "pool": 0
                },
                "item": {
                    "value": 0
                },
                "prepared": {
                    "value": "innate"
                },
                "proficiency": {
                    "value": 0
                },
                "rules": [],
                "showUnpreparedSpells": {
                    "value": false
                },
                "signatureSpells": {
                    "value": []
                },
                "slots": {
                    "slot0": {
                        "max": 1,
                        "prepared": {
                            "0": {
                                "id": "snc8ApBatgZhJVbd"
                            }
                        },
                        "value": 1
                    },
                    "slot1": {
                        "max": 0,
                        "prepared": {},
                        "value": 0
                    },
                    "slot10": {
                        "max": 0,
                        "prepared": {},
                        "value": 0
                    },
                    "slot11": {
                        "max": 0,
                        "prepared": {},
                        "value": 0
                    },
                    "slot2": {
                        "max": 0,
                        "prepared": {},
                        "value": 0
                    },
                    "slot3": {
                        "max": 0,
                        "prepared": {},
                        "value": 0
                    },
                    "slot4": {
                        "max": 0,
                        "prepared": {},
                        "value": 0
                    },
                    "slot5": {
                        "max": 0,
                        "prepared": {},
                        "value": 0
                    },
                    "slot6": {
                        "max": 0,
                        "prepared": {},
                        "value": 0
                    },
                    "slot7": {
                        "max": 0,
                        "prepared": {},
                        "value": 0
                    },
                    "slot8": {
                        "max": 0,
                        "prepared": {},
                        "value": 0
                    },
                    "slot9": {
                        "max": 0,
                        "prepared": {},
                        "value": 0
                    }
                },
                "slug": null,
                "source": {
                    "value": ""
                },
                "spelldc": {
                    "dc": 30,
                    "item": 0,
                    "mod": 0,
                    "value": 20
                },
                "tradition": {
                    "value": "divine"
                },
                "traits": {
                    "custom": "",
                    "rarity": {
                        "value": "common"
                    },
                    "value": []
                }
            },
            "effects": [],
            "flags": {},
            "img": "systems/pf2e/icons/default-icons/mystery-man.svg",
            "name": "Primal Innate Spells",
            "sort": 100000,
            "type": "spellcastingEntry"
        },
        {
            "_id": "snc8ApBatgZhJVbd",
            "data": {
                "ability": {
                    "value": ""
                },
                "area": {
                    "areaType": "emanation",
                    "value": 30
                },
                "areasize": {
                    "value": "30-foot emanation"
                },
                "category": {
                    "value": "spell"
                },
                "components": {
                    "value": "somatic, verbal"
                },
                "cost": {
                    "value": ""
                },
                "damage": {
                    "applyMod": false,
                    "value": ""
                },
                "damageType": {
                    "value": ""
                },
                "description": {
                    "chat": "",
                    "unidentified": "",
                    "value": "<p>You send out a pulse that registers the presence of magic. You receive no information beyond the presence or absence of magic. You can choose to ignore magic you're fully aware of, such as the magic items and ongoing spells of you and your allies.</p>\n<p>You detect illusion magic only if that magic's effect has a lower level than the level of your detect magic spell. However, items that have an illusion aura but aren't deceptive in appearance (such as an invisibility potion) typically are detected normally.</p>\n<p><strong>Heightened (3rd)</strong> You learn the school of magic for the highest-level effect within range that the spell detects. If multiple effects are equally strong, the GM determines which you learn.</p>\n<p><strong>Heightened (4th)</strong> As 3rd level, but you also pinpoint the source of the highest-level magic. Like for an imprecise sense, you don't learn the exact location, but can narrow down the source to within a 5-foot cube (or the nearest if larger than that).</p>"
                },
                "duration": {
                    "value": ""
                },
                "hasCounteractCheck": {
                    "value": false
                },
                "level": {
                    "value": 0
                },
                "location": {
                    "value": "lyBxl6h5N2U5upj5"
                },
                "materials": {
                    "value": ""
                },
                "prepared": {
                    "value": ""
                },
                "primarycheck": {
                    "value": ""
                },
                "range": {
                    "value": ""
                },
                "rules": [],
                "save": {
                    "basic": "",
                    "value": ""
                },
                "scaling": {
                    "formula": "",
                    "mode": "none"
                },
                "school": {
                    "value": "divination"
                },
                "secondarycasters": {
                    "value": ""
                },
                "secondarycheck": {
                    "value": ""
                },
                "slug": "detect-magic",
                "source": {
                    "value": ""
                },
                "spellType": {
                    "value": "utility"
                },
                "sustained": {
                    "value": false
                },
                "target": {
                    "value": ""
                },
                "time": {
                    "value": "2"
                },
                "traditions": {
                    "custom": "",
                    "value": [
                        "arcane",
                        "divine",
                        "occult",
                        "primal"
                    ]
                },
                "traits": {
                    "custom": "",
                    "rarity": {
                        "value": "common"
                    },
                    "value": [
                        "detection",
                        "cantrip",
                        "divination"
                    ]
                }
            },
            "effects": [],
            "flags": {
                "core": {
                    "sourceId": "Compendium.pf2e.spells-srd.gpzpAAAJ1Lza2JVl"
                }
            },
            "img": "systems/pf2e/icons/spells/detect-magic.webp",
            "name": "Detect Magic",
            "sort": 200000,
            "type": "spell"
        },
        {
            "_id": "rVdhm2xzR2AUjY4g",
            "data": {
                "attack": {
                    "value": ""
                },
                "attackEffects": {
                    "custom": "",
                    "value": []
                },
                "baseItem": null,
                "bonus": {
                    "value": 23
                },
                "brokenThreshold": {
                    "value": 0
                },
                "bulkCapacity": {
                    "value": ""
                },
                "collapsed": {
                    "value": false
                },
                "containerId": {
                    "value": ""
                },
                "damageRolls": {
                    "0": {
                        "damage": "2d6+6",
                        "damageType": "piercing"
                    },
                    "eroapbwbewgao6hhrcpk": {
                        "damage": "2d6",
                        "damageType": "sonic"
                    }
                },
                "description": {
                    "value": ""
                },
                "equipped": {
                    "value": false
                },
                "equippedBulk": {
                    "value": ""
                },
                "hardness": {
                    "value": 0
                },
                "hp": {
                    "value": 0
                },
                "identification": {
                    "status": "identified"
                },
                "identified": {
                    "value": true
                },
                "invested": {
                    "value": false
                },
                "maxHp": {
                    "value": 0
                },
                "negateBulk": {
                    "value": "0"
                },
                "preciousMaterial": {
                    "value": ""
                },
                "preciousMaterialGrade": {
                    "value": ""
                },
                "price": {
                    "value": 0
                },
                "quantity": {
                    "value": 1
                },
                "rules": [],
                "size": {
                    "value": "med"
                },
                "slug": null,
                "source": {
                    "value": ""
                },
                "stackGroup": {
                    "value": ""
                },
                "traits": {
                    "custom": "",
                    "rarity": {
                        "value": "common"
                    },
                    "value": [
                        "finesse",
                        "magical"
                    ]
                },
                "weaponType": {
                    "value": "melee"
                },
                "weight": {
                    "value": 0
                }
            },
            "effects": [],
            "flags": {},
            "img": "systems/pf2e/icons/default-icons/mystery-man.svg",
            "name": "Beak",
            "sort": 300000,
            "type": "melee"
        },
        {
            "_id": "wY1dx0xYE5qgM9aA",
            "data": {
                "attack": {
                    "value": ""
                },
                "attackEffects": {
                    "custom": "",
                    "value": [
                        "Push"
                    ]
                },
                "baseItem": null,
                "bonus": {
                    "value": 23
                },
                "brokenThreshold": {
                    "value": 0
                },
                "bulkCapacity": {
                    "value": ""
                },
                "collapsed": {
                    "value": false
                },
                "containerId": {
                    "value": ""
                },
                "damageRolls": {
                    "0": {
                        "damage": "2d12+6",
                        "damageType": "sonic"
                    }
                },
                "description": {
                    "value": ""
                },
                "equipped": {
                    "value": false
                },
                "equippedBulk": {
                    "value": ""
                },
                "hardness": {
                    "value": 0
                },
                "hp": {
                    "value": 0
                },
                "identification": {
                    "status": "identified"
                },
                "identified": {
                    "value": true
                },
                "invested": {
                    "value": false
                },
                "maxHp": {
                    "value": 0
                },
                "negateBulk": {
                    "value": "0"
                },
                "preciousMaterial": {
                    "value": ""
                },
                "preciousMaterialGrade": {
                    "value": ""
                },
                "price": {
                    "value": 0
                },
                "quantity": {
                    "value": 1
                },
                "rules": [],
                "size": {
                    "value": "med"
                },
                "slug": null,
                "source": {
                    "value": ""
                },
                "stackGroup": {
                    "value": ""
                },
                "traits": {
                    "custom": "",
                    "rarity": {
                        "value": "common"
                    },
                    "value": [
                        "magical",
                        "range-increment-60",
                        "sonic"
                    ]
                },
                "weaponType": {
                    "value": "ranged"
                },
                "weight": {
                    "value": 0
                }
            },
            "effects": [],
            "flags": {},
            "img": "systems/pf2e/icons/default-icons/mystery-man.svg",
            "name": "Sonic Pulse",
            "sort": 400000,
            "type": "melee"
        },
        {
            "_id": "liadzf6LKysC2rK8",
            "data": {
                "actionCategory": {
                    "value": "interaction"
                },
                "actionType": {
                    "value": "passive"
                },
                "actions": {
                    "value": ""
                },
                "description": {
                    "chat": "",
                    "unidentified": "",
                    "value": "<p>The monster can see in dim light as though it were bright light, so it ignores the @Compendium[pf2e.conditionitems.Concealed]{Concealed} condition due to dim light.</p>"
                },
                "requirements": {
                    "value": ""
                },
                "rules": [],
                "slug": "low-light-vision",
                "source": {
                    "value": ""
                },
                "traits": {
                    "custom": "",
                    "rarity": {
                        "value": "common"
                    },
                    "value": []
                },
                "trigger": {
                    "value": ""
                },
                "weapon": {
                    "value": ""
                }
            },
            "effects": [],
            "flags": {
                "core": {
                    "sourceId": "Compendium.pf2e.bestiary-ability-glossary-srd.fFu2sZz4KB01fVRc"
                }
            },
            "img": "systems/pf2e/icons/default-icons/action.svg",
            "name": "Low-Light Vision",
            "sort": 500000,
            "type": "action"
        },
        {
            "_id": "n8MOp28YVOpx7Eoq",
            "data": {
                "actionCategory": {
                    "value": "defensive"
                },
                "actionType": {
                    "value": "reaction"
                },
                "actions": {
                    "value": ""
                },
                "description": {
                    "value": "<p><strong>Trigger</strong> A creature enters the harmona’s space or an adjacent square;</p>\n<p><strong>Effect</strong> The harmona Flies 10 feet away from the triggering creature.</p>"
                },
                "requirements": {
                    "value": ""
                },
                "rules": [],
                "slug": null,
                "source": {
                    "value": ""
                },
                "traits": {
                    "custom": "",
                    "rarity": {
                        "value": "common"
                    },
                    "value": []
                },
                "trigger": {
                    "value": ""
                },
                "weapon": {
                    "value": ""
                }
            },
            "effects": [],
            "flags": {},
            "img": "systems/pf2e/icons/actions/Reaction.webp",
            "name": "Flit Back",
            "sort": 600000,
            "type": "action"
        },
        {
            "_id": "UuZpaLnXCCuS5ijA",
            "data": {
                "actionCategory": {
                    "value": "offensive"
                },
                "actionType": {
                    "value": "action"
                },
                "actions": {
                    "value": "2"
                },
                "description": {
                    "value": "<p>The harmona makes a beak Strike, channeling disruptive sound waves into the blow. On a hit, the target must succeed at a <span data-pf2-saving-throw=\"fortitude\" data-pf2-dc=\"30\" data-pf2-traits=\"evocation,primal,sonic\" data-pf2-label=\"Concussive Blow DC\" data-pf2-show-dc=\"gm\">Fortitude</span> save or become @Compendium[pf2e.conditionitems.Stunned]{Stunned 1} (@Compendium[pf2e.conditionitems.Stunned]{Stunned 2} on a critical failure).</p>\n<p>After this Strike, the harmona can @Compendium[pf2e.actionspf2e.Fly]{Fly} up to half their fly Speed.</p>"
                },
                "requirements": {
                    "value": ""
                },
                "rules": [],
                "slug": null,
                "source": {
                    "value": ""
                },
                "traits": {
                    "custom": "",
                    "rarity": {
                        "value": "common"
                    },
                    "value": [
                        "evocation",
                        "primal",
                        "sonic"
                    ]
                },
                "trigger": {
                    "value": ""
                },
                "weapon": {
                    "value": ""
                }
            },
            "effects": [],
            "flags": {},
            "img": "systems/pf2e/icons/actions/TwoActions.webp",
            "name": "Concussive Blow",
            "sort": 700000,
            "type": "action"
        },
        {
            "_id": "znaX5hWmLXH23ywJ",
            "data": {
                "actionCategory": {
                    "value": "offensive"
                },
                "actionType": {
                    "value": "action"
                },
                "actions": {
                    "value": "2"
                },
                "description": {
                    "value": "<p>The harmona beats their wings rapidly towards the ground, creating a nearly inaudible rumble and sending a wave of shaking earth to overwhelm their enemies.</p>\n<p>Each creature in a 15-foot emanation must succeed at a <span data-pf2-saving-throw=\"fortitude\" data-pf2-dc=\"30\" data-pf2-traits=\"evocation,primal,damaging-effect\" data-pf2-label=\"Subsonic Pulse DC\" data-pf2-show-dc=\"gm\">basic Fortitude</span> save or take [[/r 6d6 #sonic]] sonic damage. A creature that fails its save is knocked @Compendium[pf2e.conditionitems.Prone]{Prone} from the shaking ground.</p>"
                },
                "requirements": {
                    "value": ""
                },
                "rules": [],
                "slug": null,
                "source": {
                    "value": ""
                },
                "traits": {
                    "custom": "",
                    "rarity": {
                        "value": "common"
                    },
                    "value": [
                        "evocation",
                        "primal"
                    ]
                },
                "trigger": {
                    "value": ""
                },
                "weapon": {
                    "value": ""
                }
            },
            "effects": [],
            "flags": {},
            "img": "systems/pf2e/icons/actions/TwoActions.webp",
            "name": "Subsonic Pulse",
            "sort": 800000,
            "type": "action"
        },
        {
            "_id": "9iPQQuORbP2KlVOO",
            "data": {
                "actionCategory": {
                    "value": "offensive"
                },
                "actionType": {
                    "value": "action"
                },
                "actions": {
                    "value": "2"
                },
                "description": {
                    "value": "<p>The harmona beats their wings skyward, creating a spiraling vibration. Each creature in a 30-foot cone must attempt a <span data-pf2-saving-throw=\"reflex\" data-pf2-dc=\"30\" data-pf2-traits=\"evocation,primal,sonic,damaging-effect\" data-pf2-label=\"Ultrasonic Thrust DC\" data-pf2-show-dc=\"gm\">Reflex</span> save as the high-frequency blast flings them up and away.</p>\n<hr />\n<p><strong>Critical Success</strong> The creature is unaffected.</p>\n<p><strong>Success</strong> The creature is pushed 5 feet away and knocked off balance, becoming @Compendium[pf2e.conditionitems.Flat-Footed]{Flat-Footed} until the start of their next turn.</p>\n<p><strong>Failure</strong> Sonic waves fling the creature 15 feet back from the harmona. The creature takes [[/r 6d6 #bludgeoning]] bludgeoning damage from the fall and lands @Compendium[pf2e.conditionitems.Prone]{Prone}.</p>\n<p><strong>Critical Failure</strong> As failure, but the creature is flung 30 feet and takes double damage.</p>"
                },
                "requirements": {
                    "value": ""
                },
                "rules": [],
                "slug": null,
                "source": {
                    "value": ""
                },
                "traits": {
                    "custom": "",
                    "rarity": {
                        "value": "common"
                    },
                    "value": [
                        "evocation",
                        "primal",
                        "sonic"
                    ]
                },
                "trigger": {
                    "value": ""
                },
                "weapon": {
                    "value": ""
                }
            },
            "effects": [],
            "flags": {},
            "img": "systems/pf2e/icons/actions/TwoActions.webp",
            "name": "Ultrasonic Thrust",
            "sort": 900000,
            "type": "action"
        },
        {
            "_id": "LVNb1MU1A4uFDYSo",
            "data": {
                "actionCategory": {
                    "value": "offensive"
                },
                "actionType": {
                    "value": "action"
                },
                "actions": {
                    "value": "1"
                },
                "description": {
                    "chat": "",
                    "unidentified": "",
                    "value": "<p><strong>Requirements</strong> The monster's last action was a success with a Strike that lists Push in its damage entry.</p>\n<p><strong>Effect</strong> The monster automatically knocks the target away from the monster. Unless otherwise noted in the ability description, the creature is pushed 5 feet. If the attack was a critical hit, this distance is doubled.</p>"
                },
                "requirements": {
                    "value": ""
                },
                "rules": [],
                "slug": "push",
                "source": {
                    "value": ""
                },
                "traits": {
                    "custom": "",
                    "rarity": {
                        "value": "common"
                    },
                    "value": []
                },
                "trigger": {
                    "value": ""
                },
                "weapon": {
                    "value": ""
                }
            },
            "effects": [],
            "flags": {
                "core": {
                    "sourceId": "Compendium.pf2e.bestiary-ability-glossary-srd.t6cx9FOODmeZQNYl"
                }
            },
            "img": "systems/pf2e/icons/actions/OneAction.webp",
            "name": "Push",
            "sort": 1000000,
            "type": "action"
        },
        {
            "_id": "t9cFVOSlQS6aCC6N",
            "data": {
                "description": {
                    "value": ""
                },
                "item": {
                    "value": 0
                },
                "mod": {
                    "value": 23
                },
                "proficient": {
                    "value": 0
                },
                "rules": [],
                "slug": null,
                "source": {
                    "value": ""
                },
                "traits": {
                    "custom": "",
                    "rarity": {
                        "value": "common"
                    },
                    "value": []
                }
            },
            "effects": [],
            "flags": {},
            "img": "systems/pf2e/icons/default-icons/lore.svg",
            "name": "Acrobatics",
            "sort": 1100000,
            "type": "lore"
        },
        {
            "_id": "ZyaSQoUREwVnSwuG",
            "data": {
                "description": {
                    "value": ""
                },
                "item": {
                    "value": 0
                },
                "mod": {
                    "value": 20
                },
                "proficient": {
                    "value": 0
                },
                "rules": [],
                "slug": null,
                "source": {
                    "value": ""
                },
                "traits": {
                    "custom": "",
                    "rarity": {
                        "value": "common"
                    },
                    "value": []
                }
            },
            "effects": [],
            "flags": {},
            "img": "systems/pf2e/icons/default-icons/lore.svg",
            "name": "Arcana",
            "sort": 1200000,
            "type": "lore"
        },
        {
            "_id": "aZzefsTOAJZQUtCY",
            "data": {
                "description": {
                    "value": ""
                },
                "item": {
                    "value": 0
                },
                "mod": {
                    "value": 22
                },
                "proficient": {
                    "value": 0
                },
                "rules": [],
                "slug": null,
                "source": {
                    "value": ""
                },
                "traits": {
                    "custom": "",
                    "rarity": {
                        "value": "common"
                    },
                    "value": []
                }
            },
            "effects": [],
            "flags": {},
            "img": "systems/pf2e/icons/default-icons/lore.svg",
            "name": "Diplomacy",
            "sort": 1300000,
            "type": "lore"
        },
        {
            "_id": "4odBjlqyfb9YnabG",
            "data": {
                "description": {
                    "value": ""
                },
                "item": {
                    "value": 0
                },
                "mod": {
                    "value": 24
                },
                "proficient": {
                    "value": 0
                },
                "rules": [],
                "slug": null,
                "source": {
                    "value": ""
                },
                "traits": {
                    "custom": "",
                    "rarity": {
                        "value": "common"
                    },
                    "value": []
                }
            },
            "effects": [],
            "flags": {},
            "img": "systems/pf2e/icons/default-icons/lore.svg",
            "name": "Nature",
            "sort": 1400000,
            "type": "lore"
        },
        {
            "_id": "3rVM4RC5ejJfb17P",
            "data": {
                "description": {
                    "value": ""
                },
                "item": {
                    "value": 0
                },
                "mod": {
                    "value": 22
                },
                "proficient": {
                    "value": 0
                },
                "rules": [],
                "slug": null,
                "source": {
                    "value": ""
                },
                "traits": {
                    "custom": "",
                    "rarity": {
                        "value": "common"
                    },
                    "value": []
                }
            },
            "effects": [],
            "flags": {},
            "img": "systems/pf2e/icons/default-icons/lore.svg",
            "name": "Performance",
            "sort": 1500000,
            "type": "lore"
        },
        {
            "_id": "OTqn4vsCKT3U4jrb",
            "data": {
                "description": {
                    "value": ""
                },
                "item": {
                    "value": 0
                },
                "mod": {
                    "value": 23
                },
                "proficient": {
                    "value": 0
                },
                "rules": [],
                "slug": null,
                "source": {
                    "value": ""
                },
                "traits": {
                    "custom": "",
                    "rarity": {
                        "value": "common"
                    },
                    "value": []
                }
            },
            "effects": [],
            "flags": {},
            "img": "systems/pf2e/icons/default-icons/lore.svg",
            "name": "Stealth",
            "sort": 1600000,
            "type": "lore"
        }
    ],
    "name": "Harmona",
    "permission": {
        "default": 0
    },
    "token": {
        "actorId": "Pnw71fJ41j6Wx62M",
        "actorLink": false,
        "bar1": {
            "attribute": "attributes.hp"
        },
        "bar2": {},
        "brightLight": 0,
        "brightSight": 0,
        "dimLight": 0,
        "dimSight": 0,
        "displayBars": 20,
        "displayName": 20,
        "disposition": -1,
        "flags": {},
        "height": 0.5,
        "img": "systems/pf2e/icons/default-icons/npc.svg",
        "lightAlpha": 1,
        "lightAngle": 360,
        "lightAnimation": {
            "intensity": 5,
            "speed": 5
        },
        "lockRotation": false,
        "name": "Harmona",
        "randomImg": false,
        "rotation": 0,
        "scale": 1,
        "sightAngle": 360,
        "tint": null,
        "vision": false,
        "width": 0.5
    },
    "type": "npc"
}
