{
    "_id": "Z025dWgZtawbuRLI",
    "data": {
        "actionCategory": {
            "value": "offensive"
        },
        "actionType": {
            "value": "passive"
        },
        "actions": {
            "value": ""
        },
        "description": {
            "chat": "",
            "unidentified": "",
            "value": "<p>When a creature is exposed to a monster's disease, it attempts a Fortitude save or succumbs to the disease. The level of a disease is the level of the monster inflicting the disease. The disease follows the rules for afflictions.</p>"
        },
        "requirements": {
            "value": ""
        },
        "rules": [],
        "source": {
            "value": ""
        },
        "traits": {
            "custom": "",
            "rarity": {
                "value": "common"
            },
            "value": []
        },
        "trigger": {
            "value": ""
        },
        "weapon": {
            "value": ""
        }
    },
    "effects": [],
    "flags": {},
    "img": "systems/pf2e/icons/default-icons/action.svg",
    "name": "Disease",
    "permission": {
        "default": 0
    },
    "type": "action"
}
