{
    "_id": "jzbGs5lcds384DT5",
    "data": {
        "actionCategory": {
            "value": ""
        },
        "actionType": {
            "value": "passive"
        },
        "actions": {
            "value": ""
        },
        "description": {
            "value": "<p>A divine warden whose patron deity has any alignment components gains @Compendium[pf2e.spells-srd.Divine Lance]{Divine Lance} as an innate cantrip. A divine warden with a neutral patron deity instead gains @Compendium[pf2e.spells-srd.Daze]{Daze} as an innate cantrip.</p>"
        },
        "requirements": {
            "value": ""
        },
        "rules": [],
        "source": {
            "value": ""
        },
        "traits": {
            "custom": "",
            "rarity": {
                "value": "common"
            },
            "value": []
        },
        "trigger": {
            "value": ""
        },
        "weapon": {
            "value": ""
        }
    },
    "effects": [],
    "flags": {},
    "img": "systems/pf2e/icons/default-icons/mystery-man.svg",
    "name": "Divine Innate Spells (Divine Warden)",
    "permission": {
        "default": 0
    },
    "type": "action"
}
