{
    "_id": "BudeoAoJ4dOxjj0K",
    "data": {
        "attributes": {
            "ac": {
                "value": 0
            },
            "hardness": 0,
            "hasHealth": true,
            "hp": {
                "details": "",
                "max": 0,
                "temp": 0,
                "tempmax": 0,
                "value": 0
            },
            "stealth": {
                "details": "+0 or Detect Magic",
                "value": 0
            }
        },
        "creatureType": "",
        "customModifiers": {},
        "details": {
            "description": "A ring of eight dragon pillar replicas mark the border of a dome of magical prismatic energy that entirely contains the Fortress of Sorrow.",
            "disable": "Each dragon pillar that is destroyed removes the corresponding color's effect from Dahak's shell; as long as even one color remains active, the pillars marking the shell's border cannot be damaged themselves, but a successful DC 32 Thievery (master) check or a successful dispel magic (6th level; counteract DC 30) against one of the eight pillars can cause a randomly determined active color in the shell defense (below) to become deactivated for 1d4 rounds.",
            "isComplex": false,
            "level": 12,
            "reset": "",
            "routine": ""
        },
        "flavourText": "",
        "recallKnowledgeText": "",
        "saves": {
            "fortitude": {
                "rank": 0,
                "saveDetail": "",
                "value": 0
            },
            "reflex": {
                "rank": 0,
                "saveDetail": "",
                "value": 0
            },
            "will": {
                "rank": 0,
                "saveDetail": "",
                "value": null
            }
        },
        "schema": {
            "version": {
                "value": ""
            }
        },
        "sidebarText": "",
        "source": {
            "value": ""
        },
        "statusEffects": [],
        "traits": {
            "ci": [],
            "di": {
                "custom": "",
                "selected": {},
                "value": []
            },
            "dr": [],
            "dv": [],
            "rarity": {
                "value": "common"
            },
            "size": {
                "value": "med"
            },
            "traits": {
                "custom": "Unique",
                "value": [
                    "magical",
                    "custom"
                ]
            }
        }
    },
    "effects": [],
    "flags": {},
    "img": "systems/pf2e/icons/default-icons/hazard.svg",
    "items": [
        {
            "_id": "4icc49aRVqYcnJqC",
            "data": {
                "ability": {
                    "value": ""
                },
                "area": {
                    "areaType": "",
                    "value": null
                },
                "areasize": {
                    "value": ""
                },
                "category": {
                    "value": "spell"
                },
                "components": {
                    "value": "somatic, verbal"
                },
                "cost": {
                    "value": ""
                },
                "damage": {
                    "applyMod": false,
                    "value": ""
                },
                "damageType": {
                    "value": ""
                },
                "description": {
                    "chat": "",
                    "unidentified": "",
                    "value": "<p>You unravel the magic behind a spell or effect. Attempt a counteract check against the target. If you succeed against a spell effect, you counteract it. If you succeed against a magic item, the item becomes a mundane item of its type for 10 minutes. This doesn't change the item's non-magical properties. If the target is an artifact or similar item, you automatically fail.</p>"
                },
                "duration": {
                    "value": ""
                },
                "hasCounteractCheck": {
                    "value": false
                },
                "level": {
                    "value": 2
                },
                "location": {
                    "value": ""
                },
                "materials": {
                    "value": ""
                },
                "prepared": {
                    "value": ""
                },
                "primarycheck": {
                    "value": ""
                },
                "range": {
                    "value": "120 feet"
                },
                "rules": [],
                "save": {
                    "basic": "",
                    "value": ""
                },
                "scaling": {
                    "formula": "",
                    "mode": "none"
                },
                "school": {
                    "value": "abjuration"
                },
                "secondarycasters": {
                    "value": ""
                },
                "secondarycheck": {
                    "value": ""
                },
                "slug": null,
                "source": {
                    "value": "https://2e.aonprd.com/Spells.aspx?ID=78"
                },
                "spellType": {
                    "value": "utility"
                },
                "sustained": {
                    "value": false
                },
                "target": {
                    "value": "1 spell effect or unattended magic item"
                },
                "time": {
                    "value": "2"
                },
                "traditions": {
                    "value": [
                        "arcane",
                        "divine",
                        "occult",
                        "primal"
                    ]
                },
                "traits": {
                    "custom": "",
                    "rarity": {
                        "value": "common"
                    },
                    "value": [
                        "abjuration"
                    ]
                },
                "usage": {
                    "value": "held-in-one-hand"
                }
            },
            "effects": [],
            "flags": {},
            "img": "systems/pf2e/icons/spells/dispel-magic.webp",
            "name": "Dispel Magic",
            "sort": 1100000,
            "type": "spell"
        },
        {
            "_id": "HPLwJZH8RwLW9c13",
            "data": {
                "actionCategory": {
                    "value": ""
                },
                "actionType": {
                    "value": "passive"
                },
                "actions": {
                    "value": ""
                },
                "description": {
                    "chat": "",
                    "unidentified": "",
                    "value": "<p><span data-pf2-saving-throw=\"fortitude\" data-pf2-dc=\"32\" data-pf2-traits=\"divine,evocation,incapacitation,custom\" data-pf2-label=\"Black Eye Beam DC\" data-pf2-show-dc=\"gm\">Fortitude</span> save.</p>\n<hr />\n<p><strong>Critical Success</strong> The target is unaffected.</p>\n<p><strong>Success</strong> The target is @Compendium[pf2e.conditionitems.Blinded]{Blinded} for 1 round.</p>\n<p><strong>Failure</strong> The target is @Compendium[pf2e.conditionitems.Blinded]{Blinded} for 1 hour.</p>\n<p><strong>Critical Failure</strong> The target is @Compendium[pf2e.conditionitems.Blinded]{Blinded} for 24 hours.</p>"
                },
                "requirements": {
                    "value": ""
                },
                "rules": [],
                "slug": null,
                "source": {
                    "value": ""
                },
                "traits": {
                    "custom": "Range 120 feet",
                    "rarity": {
                        "value": "common"
                    },
                    "selected": {
                        "custom": "Range 120 feet",
                        "divine": "Divine",
                        "evocation": "Evocation",
                        "incapacitation": "Incapacitation"
                    },
                    "value": [
                        "divine",
                        "evocation",
                        "incapacitation",
                        "custom"
                    ]
                },
                "trigger": {
                    "value": ""
                },
                "usage": {
                    "value": "held-in-one-hand"
                },
                "weapon": {
                    "value": ""
                }
            },
            "effects": [],
            "flags": {},
            "img": "systems/pf2e/icons/default-icons/action.svg",
            "name": "Black Eye Beam",
            "sort": 1300000,
            "type": "action"
        },
        {
            "_id": "uapfpdQSjUz13nBn",
            "data": {
                "attack": {
                    "value": ""
                },
                "attackEffects": {
                    "custom": "",
                    "value": [
                        "Black Eye Beam",
                        "Blue Eye Beam",
                        "Green Eye Beam",
                        "Indigo Eye Beam",
                        "Orange Eye Beam",
                        "Red Eye Beam",
                        "Violet Eye Beam",
                        "Yellow Eye Beam"
                    ]
                },
                "baseItem": null,
                "bonus": {
                    "value": 20
                },
                "brokenThreshold": {
                    "value": 0
                },
                "bulkCapacity": {
                    "value": ""
                },
                "collapsed": {
                    "value": false
                },
                "containerId": {
                    "value": ""
                },
                "damageRolls": {},
                "description": {
                    "chat": "",
                    "unidentified": "",
                    "value": "<p><strong>Range</strong>: 120 feet.</p>\n<p><strong>Effect</strong>: The target is subjected to an effect determined by the pillar's color and summarized in the passive actions. On a critical hit, the target's save result is one degree worse.</p>"
                },
                "equipped": {
                    "value": false
                },
                "equippedBulk": {
                    "value": ""
                },
                "hardness": {
                    "value": 0
                },
                "hp": {
                    "value": 0
                },
                "identification": {
                    "status": "identified"
                },
                "identified": {
                    "value": false
                },
                "invested": {
                    "value": false
                },
                "maxHp": {
                    "value": 0
                },
                "negateBulk": {
                    "value": "0"
                },
                "preciousMaterial": {
                    "value": ""
                },
                "preciousMaterialGrade": {
                    "value": ""
                },
                "price": {
                    "value": 0
                },
                "property1": {
                    "critDamage": "",
                    "critDamageType": "",
                    "critDice": 0,
                    "critDie": "",
                    "damageType": "",
                    "dice": 0,
                    "die": "",
                    "value": ""
                },
                "property2": {
                    "critDamage": "",
                    "critDamageType": "",
                    "critDice": 0,
                    "critDie": "",
                    "damageType": "",
                    "dice": 0,
                    "die": "",
                    "value": ""
                },
                "property3": {
                    "critDamage": "",
                    "critDamageType": "",
                    "critDice": 0,
                    "critDie": "",
                    "damageType": "",
                    "dice": 0,
                    "die": "",
                    "value": ""
                },
                "quantity": {
                    "value": 1
                },
                "rules": [],
                "size": {
                    "value": "med"
                },
                "slug": null,
                "source": {
                    "value": ""
                },
                "stackGroup": {
                    "value": ""
                },
                "traits": {
                    "custom": "Divine, Range 120 feet",
                    "rarity": {
                        "value": "common"
                    },
                    "selected": {
                        "custom": "Divine, Range 120 feet",
                        "evocation": "Evocation"
                    },
                    "value": [
                        "evocation",
                        "custom"
                    ]
                },
                "usage": {
                    "value": "held-in-one-hand"
                },
                "weaponType": {
                    "value": "ranged"
                },
                "weight": {
                    "value": 0
                }
            },
            "effects": [],
            "flags": {},
            "img": "systems/pf2e/icons/default-icons/melee.svg",
            "name": "Eye Beam",
            "sort": 1400000,
            "type": "melee"
        },
        {
            "_id": "Od7nphkGvQM8Iv5L",
            "data": {
                "actionCategory": {
                    "value": ""
                },
                "actionType": {
                    "value": "passive"
                },
                "actions": {
                    "value": ""
                },
                "description": {
                    "chat": "",
                    "unidentified": "",
                    "value": "<p><span data-pf2-saving-throw=\"fortitude\" data-pf2-dc=\"32\" data-pf2-traits=\"divine,evocation,incapacitation,custom\" data-pf2-label=\"Blue Eye Beam DC\" data-pf2-show-dc=\"gm\">Fortitude</span> save.</p>\n<hr />\n<p><strong>Critical Success</strong>: The target is unaffected.</p>\n<p><strong>Success</strong>: The target is @Compendium[pf2e.conditionitems.Petrified]{Petrified} for 1 round.</p>\n<p><strong>Failure</strong>: The target is @Compendium[pf2e.conditionitems.Petrified]{Petrified} for 1 hour.</p>\n<p><strong>Critical Failure</strong>: The target is @Compendium[pf2e.conditionitems.Petrified]{Petrified} permanently.</p>"
                },
                "requirements": {
                    "value": ""
                },
                "rules": [],
                "slug": null,
                "source": {
                    "value": ""
                },
                "traits": {
                    "custom": "Range 120 feet",
                    "rarity": {
                        "value": "common"
                    },
                    "selected": {
                        "custom": "Range 120 feet",
                        "divine": "Divine",
                        "evocation": "Evocation",
                        "incapacitation": "Incapacitation"
                    },
                    "value": [
                        "divine",
                        "evocation",
                        "incapacitation",
                        "custom"
                    ]
                },
                "trigger": {
                    "value": ""
                },
                "usage": {
                    "value": "held-in-one-hand"
                },
                "weapon": {
                    "value": ""
                }
            },
            "effects": [],
            "flags": {},
            "img": "systems/pf2e/icons/default-icons/action.svg",
            "name": "Blue Eye Beam",
            "sort": 1500000,
            "type": "action"
        },
        {
            "_id": "SHZi101TqFOYWlIL",
            "data": {
                "actionCategory": {
                    "value": ""
                },
                "actionType": {
                    "value": "passive"
                },
                "actions": {
                    "value": ""
                },
                "description": {
                    "chat": "",
                    "unidentified": "",
                    "value": "<p>[[/r 6d6 #poison]] poison damage.</p>\n<p><span data-pf2-saving-throw=\"reflex\" data-pf2-dc=\"32\" data-pf2-traits=\"divine,evocation,poison,custom,damaging-effect\" data-pf2-label=\"Green Eye Beam DC\" data-pf2-show-dc=\"gm\">basic Reflex</span> save.</p>"
                },
                "requirements": {
                    "value": ""
                },
                "rules": [],
                "slug": null,
                "source": {
                    "value": ""
                },
                "traits": {
                    "custom": "Range 120 feet",
                    "rarity": {
                        "value": "common"
                    },
                    "selected": {
                        "custom": "Range 120 feet",
                        "divine": "Divine",
                        "evocation": "Evocation",
                        "poison": "Poison"
                    },
                    "value": [
                        "divine",
                        "evocation",
                        "poison",
                        "custom"
                    ]
                },
                "trigger": {
                    "value": ""
                },
                "usage": {
                    "value": "held-in-one-hand"
                },
                "weapon": {
                    "value": ""
                }
            },
            "effects": [],
            "flags": {},
            "img": "systems/pf2e/icons/default-icons/action.svg",
            "name": "Green Eye Beam",
            "sort": 1600000,
            "type": "action"
        },
        {
            "_id": "jI9GCbJaB0b3F4Kw",
            "data": {
                "actionCategory": {
                    "value": ""
                },
                "actionType": {
                    "value": "passive"
                },
                "actions": {
                    "value": ""
                },
                "description": {
                    "chat": "",
                    "unidentified": "",
                    "value": "<p><span data-pf2-saving-throw=\"will\" data-pf2-dc=\"32\" data-pf2-traits=\"divination,evocation,incapacitation,custom\" data-pf2-label=\"Indigo Eye Beam DC\" data-pf2-show-dc=\"gm\">Will</span> save.</p>\n<hr />\n<p><strong>Critical Success</strong>: The target is unaffected.</p>\n<p><strong>Success</strong>: The target is @Compendium[pf2e.conditionitems.Slowed]{Slowed} 1 for 1 round.</p>\n<p><strong>Failure</strong>: The target is @Compendium[pf2e.conditionitems.Confused]{Confused} for 1 round.</p>\n<p><strong>Critical Failure</strong>: The target is @Compendium[pf2e.conditionitems.Controlled]{Controlled} by the dragon pillar and remains within 60 feet of it at all times, defending the dragon pillar from all non-Cinderclaws. While a target is @Compendium[pf2e.conditionitems.Controlled]{Controlled}, it is treated as a Cinderclaw ally by the dragon pillar. The dragon pillar can control up to 3 targets at a time; any targets in excess who critically fail this saving throw are instead @Compendium[pf2e.conditionitems.Confused]{Confused} for [[/r1d4+1]] rounds. A @Compendium[pf2e.conditionitems.Controlled]{Controlled} creature can attempt a new Will save once every 24 hours to escape control, but doing so automatically causes the dragon pillar to attack it with a new eye beam to attempt to re-establish control. The control ends if the pillar is destroyed.</p>"
                },
                "requirements": {
                    "value": ""
                },
                "rules": [],
                "slug": null,
                "source": {
                    "value": ""
                },
                "traits": {
                    "custom": "Range 120 feet",
                    "rarity": {
                        "value": "common"
                    },
                    "selected": {
                        "custom": "Range 120 feet",
                        "divination": "Divination",
                        "evocation": "Evocation",
                        "incapacitation": "Incapacitation"
                    },
                    "value": [
                        "divination",
                        "evocation",
                        "incapacitation",
                        "custom"
                    ]
                },
                "trigger": {
                    "value": ""
                },
                "usage": {
                    "value": "held-in-one-hand"
                },
                "weapon": {
                    "value": ""
                }
            },
            "effects": [],
            "flags": {},
            "img": "systems/pf2e/icons/default-icons/action.svg",
            "name": "Indigo Eye Beam",
            "sort": 1700000,
            "type": "action"
        },
        {
            "_id": "Ari4IpvWQTIYV64K",
            "data": {
                "actionCategory": {
                    "value": ""
                },
                "actionType": {
                    "value": "passive"
                },
                "actions": {
                    "value": ""
                },
                "description": {
                    "chat": "",
                    "unidentified": "",
                    "value": "<p>[[/r 6d6 #electricity]] electricity damage.</p>\n<p><span data-pf2-saving-throw=\"reflex\" data-pf2-dc=\"32\" data-pf2-traits=\"divine,electricity,evocation,custom,damaging-effect\" data-pf2-label=\"Yellow Eye Beam DC\" data-pf2-show-dc=\"gm\">basic Reflex</span> save.</p>"
                },
                "requirements": {
                    "value": ""
                },
                "rules": [],
                "slug": null,
                "source": {
                    "value": ""
                },
                "traits": {
                    "custom": "Range 120 feet",
                    "rarity": {
                        "value": "common"
                    },
                    "selected": {
                        "custom": "Range 120 feet",
                        "divine": "Divine",
                        "electricity": "Electricity",
                        "evocation": "Evocation"
                    },
                    "value": [
                        "divine",
                        "electricity",
                        "evocation",
                        "custom"
                    ]
                },
                "trigger": {
                    "value": ""
                },
                "usage": {
                    "value": "held-in-one-hand"
                },
                "weapon": {
                    "value": ""
                }
            },
            "effects": [],
            "flags": {},
            "img": "systems/pf2e/icons/default-icons/action.svg",
            "name": "Yellow Eye Beam",
            "sort": 1800000,
            "type": "action"
        },
        {
            "_id": "sXWZxvJlU7LZrpHC",
            "data": {
                "actionCategory": {
                    "value": ""
                },
                "actionType": {
                    "value": "passive"
                },
                "actions": {
                    "value": ""
                },
                "description": {
                    "chat": "",
                    "unidentified": "",
                    "value": "<p>[[/r 6d6 #acid]] acid damage.</p>\n<p><span data-pf2-saving-throw=\"reflex\" data-pf2-dc=\"32\" data-pf2-traits=\"acid,divine,evocation,custom,damaging-effect\" data-pf2-label=\"Orange Eye Beam DC\" data-pf2-show-dc=\"gm\">basic Reflex</span> save.</p>"
                },
                "requirements": {
                    "value": ""
                },
                "rules": [],
                "slug": null,
                "source": {
                    "value": ""
                },
                "traits": {
                    "custom": "range 120 feet",
                    "rarity": {
                        "value": "common"
                    },
                    "selected": {
                        "acid": "Acid",
                        "custom": "range 120 feet",
                        "divine": "Divine",
                        "evocation": "Evocation"
                    },
                    "value": [
                        "acid",
                        "divine",
                        "evocation",
                        "custom"
                    ]
                },
                "trigger": {
                    "value": ""
                },
                "usage": {
                    "value": "held-in-one-hand"
                },
                "weapon": {
                    "value": ""
                }
            },
            "effects": [],
            "flags": {},
            "img": "systems/pf2e/icons/default-icons/action.svg",
            "name": "Orange Eye Beam",
            "sort": 1900000,
            "type": "action"
        },
        {
            "_id": "jNcUglLORusRcA4f",
            "data": {
                "actionCategory": {
                    "value": ""
                },
                "actionType": {
                    "value": "passive"
                },
                "actions": {
                    "value": ""
                },
                "description": {
                    "chat": "",
                    "unidentified": "",
                    "value": "<p>[[/r 6d6 #fire]] fire damage.</p>\n<p><span data-pf2-saving-throw=\"reflex\" data-pf2-dc=\"32\" data-pf2-traits=\"divine,evocation,fire,custom,damaging-effect\" data-pf2-label=\"Red Eye Beam DC\" data-pf2-show-dc=\"gm\">basic Reflex</span> save.</p>"
                },
                "requirements": {
                    "value": ""
                },
                "rules": [],
                "slug": null,
                "source": {
                    "value": ""
                },
                "traits": {
                    "custom": "range 120 feet",
                    "rarity": {
                        "value": "common"
                    },
                    "selected": {
                        "custom": "range 120 feet",
                        "divine": "Divine",
                        "evocation": "Evocation",
                        "fire": "Fire"
                    },
                    "value": [
                        "divine",
                        "evocation",
                        "fire",
                        "custom"
                    ]
                },
                "trigger": {
                    "value": ""
                },
                "usage": {
                    "value": "held-in-one-hand"
                },
                "weapon": {
                    "value": ""
                }
            },
            "effects": [],
            "flags": {},
            "img": "systems/pf2e/icons/default-icons/action.svg",
            "name": "Red Eye Beam",
            "sort": 2000000,
            "type": "action"
        },
        {
            "_id": "w5Yk889pfRGklcLm",
            "data": {
                "actionCategory": {
                    "value": ""
                },
                "actionType": {
                    "value": "passive"
                },
                "actions": {
                    "value": ""
                },
                "description": {
                    "chat": "",
                    "unidentified": "",
                    "value": "<p><span data-pf2-saving-throw=\"will\" data-pf2-dc=\"32\" data-pf2-traits=\"divine,evocation,incapacitation,custom\" data-pf2-label=\"Violet Eye Beam DC\" data-pf2-show-dc=\"gm\">Will</span> save.</p>\n<hr />\n<p><strong>Critical Success:</strong> The target is unaffected.</p>\n<p><strong>Success</strong>: The target is @Compendium[pf2e.conditionitems.Stunned]{Stunned} 1.</p>\n<p><strong>Failure</strong>: The target is @Compendium[pf2e.conditionitems.Stunned]{Stunned} 3.</p>\n<p><strong>Critical Failure</strong>: The target is @Compendium[pf2e.conditionitems.Stunned]{Stunned} 7.</p>"
                },
                "requirements": {
                    "value": ""
                },
                "rules": [],
                "slug": null,
                "source": {
                    "value": ""
                },
                "traits": {
                    "custom": "range 120 feet",
                    "rarity": {
                        "value": "common"
                    },
                    "selected": {
                        "custom": "range 120 feet",
                        "divine": "Divine",
                        "evocation": "Evocation",
                        "incapacitation": "Incapacitation"
                    },
                    "value": [
                        "divine",
                        "evocation",
                        "incapacitation",
                        "custom"
                    ]
                },
                "trigger": {
                    "value": ""
                },
                "usage": {
                    "value": "held-in-one-hand"
                },
                "weapon": {
                    "value": ""
                }
            },
            "effects": [],
            "flags": {},
            "img": "systems/pf2e/icons/default-icons/action.svg",
            "name": "Violet Eye Beam",
            "sort": 2100000,
            "type": "action"
        },
        {
            "_id": "wXqVDCpWmbgHRsvv",
            "data": {
                "actionCategory": {
                    "value": ""
                },
                "actionType": {
                    "value": "action"
                },
                "actions": {
                    "value": ""
                },
                "description": {
                    "chat": "",
                    "unidentified": "",
                    "value": "<p><strong>Trigger</strong>: a creature attempts and fails to disable one of the shell colors via Thievery or dispel magic;</p>\n<p><strong>Effect</strong>: Dahak's shell @Compendium[pf2e.actionspf2e.Strike]{Strikes} the triggering creature with a random eye beam. Roll [[/r 1d8]] to determine the color:</p>\n<ol>\n<li>Red</li>\n<li>Orange</li>\n<li>Yellow</li>\n<li>Green</li>\n<li>Blue</li>\n<li>Indigo</li>\n<li>Violet</li>\n<li>Black</li>\n</ol>"
                },
                "requirements": {
                    "value": ""
                },
                "rules": [],
                "slug": null,
                "source": {
                    "value": ""
                },
                "traits": {
                    "custom": "",
                    "rarity": {
                        "value": "common"
                    },
                    "selected": {},
                    "value": []
                },
                "trigger": {
                    "value": ""
                },
                "usage": {
                    "value": "held-in-one-hand"
                },
                "weapon": {
                    "value": ""
                }
            },
            "effects": [],
            "flags": {},
            "img": "systems/pf2e/icons/actions/OneAction.webp",
            "name": "Prismatic Beam",
            "sort": 2200000,
            "type": "action"
        },
        {
            "_id": "yBzadQTPzGdYAxAW",
            "data": {
                "actionCategory": {
                    "value": ""
                },
                "actionType": {
                    "value": "action"
                },
                "actions": {
                    "value": ""
                },
                "description": {
                    "chat": "",
                    "unidentified": "",
                    "value": "<p><strong>Effect</strong>: The target suffers an effect corresponding to the eye beam's color, as described on page 29, but with a save DC of 32. On a critical hit, the target's save result is one degree worse.</p>"
                },
                "requirements": {
                    "value": ""
                },
                "rules": [],
                "slug": null,
                "source": {
                    "value": ""
                },
                "traits": {
                    "custom": "",
                    "rarity": {
                        "value": "common"
                    },
                    "selected": {},
                    "value": []
                },
                "trigger": {
                    "value": ""
                },
                "usage": {
                    "value": "held-in-one-hand"
                },
                "weapon": {
                    "value": ""
                }
            },
            "effects": [],
            "flags": {},
            "img": "systems/pf2e/icons/actions/OneAction.webp",
            "name": "Eye Beam",
            "sort": 2300000,
            "type": "action"
        },
        {
            "_id": "qfAZ12H9DKd8pEad",
            "data": {
                "actionCategory": {
                    "value": ""
                },
                "actionType": {
                    "value": "passive"
                },
                "actions": {
                    "value": ""
                },
                "description": {
                    "chat": "",
                    "unidentified": "",
                    "value": "<p>When a creature physically passes through the shell, the creature is affected simultaneously by all colors of energy currently active in the shell; apply these effects in the following order: red, orange, yellow, green, blue, indigo, violet, black. These effects are the same as that of the eye beams described on page 29, but with a save DC of 32. Each effect requires its own save.</p>"
                },
                "requirements": {
                    "value": ""
                },
                "rules": [],
                "slug": null,
                "source": {
                    "value": ""
                },
                "traits": {
                    "custom": "",
                    "rarity": {
                        "value": "common"
                    },
                    "selected": {
                        "abjuration": "Abjuration",
                        "divine": "Divine",
                        "light": "Light"
                    },
                    "value": [
                        "abjuration",
                        "divine",
                        "light"
                    ]
                },
                "trigger": {
                    "value": ""
                },
                "usage": {
                    "value": "held-in-one-hand"
                },
                "weapon": {
                    "value": ""
                }
            },
            "effects": [],
            "flags": {},
            "img": "systems/pf2e/icons/default-icons/action.svg",
            "name": "Shell Defense",
            "sort": 2400000,
            "type": "action"
        }
    ],
    "name": "Dahak's Shell",
    "permission": {
        "default": 0
    },
    "token": {
        "actorId": "BudeoAoJ4dOxjj0K",
        "actorLink": false,
        "bar1": {
            "attribute": "attributes.hp"
        },
        "bar2": {
            "attribute": ""
        },
        "brightLight": 0,
        "brightSight": 0,
        "dimLight": 0,
        "dimSight": 0,
        "displayBars": 20,
        "displayName": 20,
        "disposition": 0,
        "flags": {},
        "height": 1,
        "img": "systems/pf2e/icons/default-icons/hazard.svg",
        "lightAlpha": 1,
        "lightAngle": 360,
        "lightAnimation": {
            "intensity": 5,
            "speed": 5
        },
        "lightColor": "",
        "lockRotation": false,
        "mirrorX": false,
        "mirrorY": false,
        "name": "Dahak's Shell",
        "randomImg": false,
        "rotation": 0,
        "scale": 1,
        "sightAngle": 360,
        "tint": "",
        "vision": false,
        "width": 1
    },
    "type": "hazard"
}
