{
    "_id": "KEbmwWwmpAmIoBcm",
    "data": {
        "attributes": {
            "ac": {
                "value": 0
            },
            "hardness": 0,
            "hasHealth": true,
            "hp": {
                "details": "",
                "max": 10,
                "temp": 0,
                "tempmax": 0,
                "value": 10
            },
            "stealth": {
                "details": "(Master)",
                "value": 43
            }
        },
        "creatureType": "",
        "details": {
            "description": "A psychic scream disorients creatures in the area.",
            "disable": "Arcana (DC 41) to suppress the magic or Thievery (DC 41) to scratch out the ward",
            "isComplex": false,
            "level": 19,
            "reset": "",
            "routine": ""
        },
        "flavourText": "",
        "recallKnowledgeText": "",
        "saves": {
            "fortitude": {
                "rank": 0,
                "saveDetail": "",
                "value": null
            },
            "reflex": {
                "rank": 0,
                "saveDetail": "",
                "value": null
            },
            "will": {
                "rank": 0,
                "saveDetail": "",
                "value": null
            }
        },
        "schema": {
            "version": {
                "value": ""
            }
        },
        "sidebarText": "",
        "source": {
            "value": ""
        },
        "statusEffects": [],
        "traits": {
            "ci": [],
            "di": {
                "custom": "",
                "selected": {},
                "value": []
            },
            "dr": [],
            "dv": [],
            "rarity": {
                "value": "common"
            },
            "size": {
                "value": "med"
            },
            "traits": {
                "custom": "",
                "value": [
                    "magical"
                ]
            }
        }
    },
    "effects": [],
    "flags": {},
    "img": "systems/pf2e/icons/default-icons/hazard.svg",
    "items": [
        {
            "_id": "LQ20lTeaoccMicH8",
            "data": {
                "actionCategory": {
                    "value": ""
                },
                "actionType": {
                    "value": "reaction"
                },
                "actions": {
                    "value": ""
                },
                "description": {
                    "chat": "",
                    "unidentified": "",
                    "value": "<p><strong>Trigger</strong>: A creature enters the marked area;</p>\n<p><strong>Effect</strong>: A psychic wail affects all creatures within 10 feet of the marked area, requiring them to attempt a <span data-pf2-saving-throw=\"will\" data-pf2-dc=\"41\" data-pf2-traits=\"arcane,enchantment,incapacitation,mental\" data-pf2-label=\"Psychic Screech DC\" data-pf2-show-dc=\"gm\">Will</span> save.</p>\n<hr />\n<p><strong>Critical Success</strong>: The target is unaffected.</p>\n<p><strong>Success</strong>: The target is @Compendium[pf2e.conditionitems.Stunned]{Stunned} 2.</p>\n<p><strong>Failure</strong>: The target is @Compendium[pf2e.conditionitems.Paralyzed]{Paralyzed} for 1 round, then @Compendium[pf2e.conditionitems.Stunned]{Stunned} 2 when the paralysis ends.</p>\n<p><strong>Critical Failure</strong>: The target is paralyzed for 4 rounds. At the end of each of its turns, it can attempt a new Will save to reduce the remaining duration by 1 round, or end it entirely on a critical success.</p>"
                },
                "requirements": {
                    "value": ""
                },
                "rules": [],
                "slug": null,
                "source": {
                    "value": ""
                },
                "traits": {
                    "custom": "",
                    "rarity": {
                        "value": "common"
                    },
                    "selected": {
                        "arcane": "Arcane",
                        "enchantment": "Enchantment",
                        "incapacitation": "Incapacitation",
                        "mental": "Mental"
                    },
                    "value": [
                        "arcane",
                        "enchantment",
                        "incapacitation",
                        "mental"
                    ]
                },
                "trigger": {
                    "value": ""
                },
                "usage": {
                    "value": "held-in-one-hand"
                },
                "weapon": {
                    "value": ""
                }
            },
            "effects": [],
            "flags": {},
            "img": "systems/pf2e/icons/actions/Reaction.webp",
            "name": "Psychic Screech",
            "sort": 100000,
            "type": "action"
        }
    ],
    "name": "Mental Scream Trap",
    "permission": {
        "default": 0
    },
    "token": {
        "actorId": "KEbmwWwmpAmIoBcm",
        "actorLink": false,
        "bar1": {
            "attribute": "attributes.hp"
        },
        "bar2": {},
        "brightLight": 0,
        "brightSight": 0,
        "dimLight": 0,
        "dimSight": 0,
        "displayBars": 20,
        "displayName": 20,
        "disposition": 0,
        "flags": {},
        "height": 1,
        "img": "systems/pf2e/icons/default-icons/hazard.svg",
        "lightAlpha": 1,
        "lightAngle": 360,
        "lightAnimation": {
            "intensity": 5,
            "speed": 5
        },
        "lockRotation": false,
        "name": "Mental Scream Trap",
        "randomImg": false,
        "rotation": 0,
        "scale": 1,
        "sightAngle": 360,
        "tint": null,
        "vision": false,
        "width": 1
    },
    "type": "hazard"
}
