{
    "_id": "ltUT288ryJyBTyPv",
    "data": {
        "attributes": {
            "ac": {
                "value": 10
            },
            "hp": {
                "value": "5"
            },
            "perception": {
                "value": 0
            },
            "speed": {
                "otherSpeeds": []
            }
        },
        "details": {
            "creature": {
                "value": "Nine-Tailed Fox"
            },
            "level": {
                "value": 0
            }
        },
        "master": {
            "ability": "int",
            "id": "4z5dbU5grPK9XSYg",
            "level": 0,
            "name": "",
            "updated": "2021-03-26T16:19:03.179Z"
        },
        "saves": {
            "fortitude": {
                "value": 0
            },
            "reflex": {
                "value": 0
            },
            "will": {
                "value": 0
            }
        },
        "skills": {},
        "traits": {
            "rarity": {
                "value": "common"
            },
            "size": {
                "value": "tiny"
            },
            "traits": {
                "custom": "",
                "value": [
                    "minion"
                ]
            }
        }
    },
    "effects": [],
    "flags": {},
    "img": "systems/pf2e/icons/iconics/DajiFull.webp",
    "items": [
        {
            "_id": "6XzISl0XQUGTa8l0",
            "data": {
                "description": {
                    "chat": "",
                    "unidentified": "",
                    "value": "<p>It gains scent (imprecise, 30 feet).</p>"
                },
                "duration": {
                    "expiry": "turn-start",
                    "sustained": false,
                    "unit": "rounds",
                    "value": 0
                },
                "level": {
                    "value": 1
                },
                "rules": [
                    {
                        "acuity": "imprecise",
                        "key": "PF2E.RuleElement.Sense",
                        "label": "PF2E.SensesScent",
                        "range": 30,
                        "selector": "scent"
                    }
                ],
                "slug": "scent",
                "source": {
                    "value": ""
                },
                "start": {
                    "initiative": null,
                    "value": 0
                },
                "target": null,
                "traits": {
                    "custom": "",
                    "rarity": {
                        "value": "common"
                    },
                    "value": []
                }
            },
            "effects": [],
            "flags": {
                "core": {
                    "sourceId": "Compendium.pf2e.familiar-abilities.FlRUb8U13Crj3NaA"
                }
            },
            "img": "systems/pf2e/icons/default-icons/mystery-man.svg",
            "name": "Scent",
            "sort": 100000,
            "type": "effect"
        }
    ],
    "name": "Daji (Level 1)",
    "permission": {
        "default": 0
    },
    "token": {
        "actorId": "ltUT288ryJyBTyPv",
        "actorLink": true,
        "bar1": {
            "attribute": "attributes.hp"
        },
        "bar2": {
            "attribute": ""
        },
        "brightLight": 0,
        "brightSight": 0,
        "dimLight": 0,
        "dimSight": 0,
        "displayBars": 20,
        "displayName": 30,
        "disposition": 1,
        "flags": {},
        "height": 0.5,
        "img": "systems/pf2e/icons/iconics/Daji.webp",
        "lightAlpha": 1,
        "lightAngle": 360,
        "lightAnimation": {
            "intensity": 5,
            "speed": 5,
            "type": ""
        },
        "lightColor": "",
        "lockRotation": false,
        "mirrorX": false,
        "mirrorY": false,
        "name": "Daji",
        "randomImg": false,
        "rotation": 0,
        "scale": 1,
        "sightAngle": 360,
        "tint": "",
        "vision": true,
        "width": 0.5
    },
    "type": "familiar"
}
