{
    "_id": "wwvPiG2kET2rkSAG",
    "data": {
        "actionCategory": {
            "value": ""
        },
        "actionType": {
            "value": "action"
        },
        "actions": {
            "value": "1"
        },
        "description": {
            "value": "<p>You transform into a specific alternate form determined by your heritage. If your heritage doesn’t list a form, your alternate form is a tailless form, which is a common Medium humanoid ancestry prevalent where you grew up (typically human). This form is the same age and body type as your true form and has roughly analogous physical traits, such as hair color. Using Change Shape counts as creating a disguise for the Impersonate use of Deception. You lose any unarmed Strikes you gained from a kitsune heritage or ancestry feat in this form. You can remain in your alternate form indefinitely, and you can shift back to your true kitsune form by using this action again.</p>"
        },
        "requirements": {
            "value": ""
        },
        "rules": [],
        "source": {
            "value": ""
        },
        "traits": {
            "custom": "",
            "rarity": {
                "value": "common"
            },
            "value": [
                "concentrate",
                "divine",
                "kitsune",
                "polymorph",
                "transmutation"
            ]
        },
        "trigger": {
            "value": ""
        },
        "weapon": {
            "value": ""
        }
    },
    "effects": [],
    "flags": {},
    "img": "systems/pf2e/icons/actions/OneAction.webp",
    "name": "Change Shape (Kitsune)",
    "permission": {
        "default": 0
    },
    "type": "action"
}
