{
    "_id": "fJImDBQfqfjKJOhk",
    "data": {
        "actionCategory": {
            "value": ""
        },
        "actionType": {
            "value": "passive"
        },
        "actions": {
            "value": ""
        },
        "description": {
            "chat": "",
            "unidentified": "",
            "value": "<p>Using the stars, the position of the sun, traits of the geography or flora, or the behavior of fauna, you can stay oriented in the wild. Typically, you attempt a Survival check only once per day, but some environments or changes might necessitate rolling more often. The GM determines the DC and how long this activity takes (usually just a minute or so). More unusual locales or those you're unfamiliar with might require you to have a minimum proficiency rank to Sense Direction. Without a @Compendium[pf2e.equipment-srd.Compass]{Compass}, you take a -2 item penalty to checks to Sense Direction.</p>\n<hr />\n<p><strong>Critical Success</strong> You get an excellent sense of where you are. If you are in an environment with cardinal directions, you know them exactly.</p>\n<p><strong>Success</strong> You gain enough orientation to avoid becoming hopelessly lost. If you are in an environment with cardinal directions, you have a sense of those directions.</p><h2 class=\"title\">Sample Sense Direction Tasks</h2>\n<ul>\n<li><strong>Untrained</strong> determine a cardinal direction using the sun</li>\n<li><strong>Trained</strong> find an overgrown path in a forest</li>\n<li><strong>Expert</strong> navigate a hedge maze</li>\n<li><strong>Master</strong> navigate a byzantine labyrinth or relatively featureless desert</li>\n<li><strong>Legendary</strong> navigate an ever-changing dream realm</li>\n</ul>"
        },
        "requirements": {
            "value": ""
        },
        "rules": [],
        "source": {
            "value": ""
        },
        "traits": {
            "custom": "",
            "rarity": {
                "value": "common"
            },
            "value": [
                "skill",
                "secret",
                "exploration"
            ]
        },
        "trigger": {
            "value": ""
        },
        "weapon": {
            "value": ""
        }
    },
    "effects": [],
    "flags": {},
    "img": "systems/pf2e/icons/default-icons/mystery-man.svg",
    "name": "Sense Direction",
    "permission": {
        "default": 0
    },
    "type": "action"
}
