{
    "_id": "iEkH8BKLMUa2wxLX",
    "data": {
        "description": {
            "chat": "",
            "unidentified": "",
            "value": "<p>Granted by @Compendium[pf2e.equipment-srd.Glamorous Buckler]{Glamorous Buckler}.</p>\n<p>Automatically applied effects:</p>\n<ul>\n<li>+1 item bonus to Deception checks to Feint</li>\n</ul>"
        },
        "duration": {
            "expiry": "turn-start",
            "sustained": false,
            "unit": "rounds",
            "value": 0
        },
        "level": {
            "value": 2
        },
        "rules": [
            {
                "key": "PF2E.RuleElement.FlatModifier",
                "label": "Glamorous Buckler (Feint)",
                "predicate": {
                    "all": [
                        "action:feint"
                    ]
                },
                "selector": "deception",
                "type": "item",
                "value": 1
            },
            {
                "key": "PF2E.RuleElement.TokenEffectIcon"
            }
        ],
        "source": {
            "value": ""
        },
        "start": {
            "initiative": null,
            "value": 0
        },
        "traits": {
            "custom": "",
            "rarity": {
                "value": "common"
            },
            "value": []
        }
    },
    "effects": [],
    "flags": {},
    "img": "systems/pf2e/icons/equipment/shields/specific-shields/glamorous-buckler.webp",
    "name": "Effect: Glamorous Buckler",
    "permission": {
        "default": 0
    },
    "type": "effect"
}
