{
    "_id": "dWTfO5WbLkD5mw2H",
    "data": {
        "description": {
            "chat": "",
            "unidentified": "",
            "value": "<p>It gains a climb Speed of 25 feet.</p>"
        },
        "level": {
            "value": 1
        },
        "rules": [
            {
                "key": "PF2E.RuleElement.BaseSpeed",
                "selector": "climb",
                "value": 25
            }
        ],
        "source": {
            "value": ""
        },
        "traits": {
            "custom": "",
            "rarity": {
                "value": "common"
            },
            "value": []
        }
    },
    "effects": [],
    "flags": {},
    "img": "systems/pf2e/icons/default-icons/mystery-man.svg",
    "name": "Climber",
    "permission": {
        "default": 0
    },
    "type": "effect"
}
