{
    "_id": "BXssJhTJjKrfojwG",
    "data": {
        "description": {
            "chat": "",
            "unidentified": "",
            "value": "<p>Increase the familiar's land Speed from 25 feet to 40 feet.</p>"
        },
        "level": {
            "value": 1
        },
        "rules": [
            {
                "key": "PF2E.RuleElement.FlatModifier",
                "selector": "land-speed",
                "value": 15
            }
        ],
        "source": {
            "value": ""
        },
        "traits": {
            "custom": "",
            "rarity": {
                "value": "common"
            },
            "value": []
        }
    },
    "effects": [],
    "flags": {},
    "img": "systems/pf2e/icons/default-icons/mystery-man.svg",
    "name": "Fast Movement: Land",
    "permission": {
        "default": 0
    },
    "type": "effect"
}
