{
    "_id": "nVa7a7fBFa3gEEN9",
    "data": {
        "attributes": {
            "ac": {
                "value": 0
            },
            "hardness": 0,
            "hasHealth": true,
            "hp": {
                "details": "",
                "max": 10,
                "temp": 0,
                "tempmax": 0,
                "value": 10
            },
            "stealth": {
                "details": "(Expert)",
                "value": 25
            }
        },
        "creatureType": "",
        "details": {
            "description": "A blast of energy damages all creatures within\r\n20 feet, with particularly severe damage to fiends.",
            "disable": "<p>Thievery DC 27 (expert) to identify the proper sequence of buttons in the divots, or @Compendium[pf2e.spells-srd.Dispel Magic]{Dispel Magic} (4th level; counteract DC 25) to suppress the magical effect for 1 hour</p>",
            "isComplex": false,
            "level": 7,
            "reset": "The trap resets after 1 hour.",
            "routine": ""
        },
        "flavourText": "",
        "recallKnowledgeText": "",
        "saves": {
            "fortitude": {
                "rank": 0,
                "saveDetail": "",
                "value": null
            },
            "reflex": {
                "rank": 0,
                "saveDetail": "",
                "value": null
            },
            "will": {
                "rank": 0,
                "saveDetail": "",
                "value": null
            }
        },
        "schema": {
            "version": {
                "value": ""
            }
        },
        "sidebarText": "",
        "source": {
            "value": ""
        },
        "statusEffects": [],
        "traits": {
            "ci": [],
            "di": {
                "custom": "",
                "selected": {},
                "value": []
            },
            "dr": [],
            "dv": [],
            "rarity": {
                "value": "uncommon"
            },
            "size": {
                "value": "med"
            },
            "traits": {
                "custom": "",
                "value": [
                    "magical",
                    "mechanical",
                    "trap"
                ]
            }
        }
    },
    "effects": [],
    "flags": {},
    "img": "systems/pf2e/icons/default-icons/hazard.svg",
    "items": [
        {
            "_id": "qnGVlOvfyHP5LeK0",
            "data": {
                "actionCategory": {
                    "value": ""
                },
                "actionType": {
                    "value": "reaction"
                },
                "actions": {
                    "value": ""
                },
                "description": {
                    "chat": "",
                    "unidentified": "",
                    "value": "<p><strong>Trigger</strong>: The door is touched without first pressing the correct sequence of buttons;</p>\n<p><strong>Effect</strong>: A blast of energy ripples outward from the door, dealing [[/r 4d10 #force]] force damage to all creatures within 20 feet and forcing them to make a <span data-pf2-saving-throw=\"fortitude\" data-pf2-label=\"Forceful Blast DC\" data-pf2-dc=\"25\" data-pf2-show-dc=\"gm\">Fortitude</span> save. <em data-visibility=\"gm\">Fiends treat the result of their saving throw as one degree worse.</em></p>\n<hr />\n<p><em data-visibility=\"gm\"><strong>Critical Success</strong> The creature is unaffected.</em></p>\n<p><em data-visibility=\"gm\"><strong>Success</strong> The creature takes half damage.</em></p>\n<p><em data-visibility=\"gm\"><strong>Failure</strong> The creature takes full damage and is@Compendium[pf2e.conditionitems.Sickened]{Sickened 1}.</em></p>\n<p><em data-visibility=\"gm\"><strong>Critical Failure</strong> The creature takes double damage and is@Compendium[pf2e.conditionitems.Sickened]{Sickened 2}; while it is sickened, it's also @Compendium[pf2e.conditionitems.Slowed]{Slowed 1}.</em></p>"
                },
                "requirements": {
                    "value": ""
                },
                "rules": [],
                "slug": null,
                "source": {
                    "value": ""
                },
                "traits": {
                    "custom": "",
                    "rarity": {
                        "value": "common"
                    },
                    "value": [
                        "divine",
                        "evocation"
                    ]
                },
                "trigger": {
                    "value": ""
                },
                "usage": {
                    "value": "held-in-one-hand"
                },
                "weapon": {
                    "value": ""
                }
            },
            "effects": [],
            "flags": {},
            "img": "systems/pf2e/icons/actions/Reaction.webp",
            "name": "Forceful Blast",
            "sort": 100000,
            "type": "action"
        }
    ],
    "name": "Fiendripping Blast Trap",
    "permission": {
        "default": 0
    },
    "token": {
        "actorId": "nVa7a7fBFa3gEEN9",
        "actorLink": false,
        "bar1": {
            "attribute": "attributes.hp"
        },
        "bar2": {},
        "brightLight": 0,
        "brightSight": 0,
        "dimLight": 0,
        "dimSight": 0,
        "displayBars": 20,
        "displayName": 20,
        "disposition": 0,
        "flags": {},
        "height": 1,
        "img": "systems/pf2e/icons/default-icons/hazard.svg",
        "lightAlpha": 1,
        "lightAngle": 360,
        "lightAnimation": {
            "intensity": 5,
            "speed": 5
        },
        "lockRotation": false,
        "name": "Fiendripping Blast Trap",
        "randomImg": false,
        "rotation": 0,
        "scale": 1,
        "sightAngle": 360,
        "tint": null,
        "vision": false,
        "width": 1
    },
    "type": "hazard"
}
