{
    "_id": "2PNo8u4wxSbz5WEs",
    "data": {
        "description": {
            "chat": "",
            "unidentified": "",
            "value": "<p>Granted by @Compendium[pf2e.equipment-srd.Juggernaut Mutagen (Major)]{Juggernaut Mutagen (Major)}</p>\n<p>Implemented effects:</p>\n<ul>\n<li>+4 item bonus to Fortitude saves</li>\n<li>Gain 45 temporary Hit Points</li>\n<li>-2 penalty to Will saves</li>\n<li>-2 penalty to Perception checks</li>\n<li>-2 penalty to initiative rolls</li>\n</ul>\n<p>Unimplemented effects:</p>\n<ul>\n<li>Whenever you are at maximum Hit Points for at least 1 full minute, you regain the temporary Hit Points.</li>\n</ul>"
        },
        "duration": {
            "expiry": "turn-start",
            "sustained": false,
            "unit": "hours",
            "value": 1
        },
        "level": {
            "value": 17
        },
        "rules": [
            {
                "key": "PF2E.RuleElement.FlatModifier",
                "label": "Juggernaut Mutagen (Major)",
                "selector": "fortitude",
                "type": "item",
                "value": 4
            },
            {
                "key": "PF2E.RuleElement.FlatModifier",
                "label": "Juggernaut Mutagen (Major)",
                "selector": "will",
                "type": "untyped",
                "value": -2
            },
            {
                "key": "PF2E.RuleElement.FlatModifier",
                "label": "Juggernaut Mutagen (Major)",
                "selector": "perception",
                "type": "untyped",
                "value": -2
            },
            {
                "key": "PF2E.RuleElement.FlatModifier",
                "label": "Juggernaut Mutagen (Major)",
                "selector": "initiative",
                "type": "untyped",
                "value": -2
            },
            {
                "key": "PF2E.RuleElement.TempHP",
                "value": 45
            },
            {
                "key": "PF2E.RuleElement.TokenEffectIcon"
            }
        ],
        "source": {
            "value": ""
        },
        "start": {
            "initiative": null,
            "value": 0
        },
        "traits": {
            "custom": "",
            "rarity": {
                "value": "common"
            },
            "value": []
        }
    },
    "effects": [],
    "flags": {},
    "img": "systems/pf2e/icons/equipment/alchemical-items/alchemical-elixirs/juggernaut-mutagen.webp",
    "name": "Effect: Juggernaut Mutagen (Major)",
    "permission": {
        "default": 0
    },
    "type": "effect"
}
