{
    "_id": "vFOr2JAJxiVvvn2E",
    "data": {
        "description": {
            "chat": "",
            "unidentified": "",
            "value": "<p>Granted by @Compendium[pf2e.equipment-srd.Drakeheart Mutagen (Major)]{Drakeheart Mutagen (Major)}</p>\n<p><strong>Implemented effects:</strong></p>\n<ul>\n<li>+7 item bonus to AC</li>\n<li>Dexterity cap of +2</li>\n<li>+4 item bonus to Perception checks</li>\n<li>-1 penalty to Will saves</li>\n<li>-1 penalty to Reflex saves</li>\n<li>-1 penalty to all Recall Knowledge checks</li>\n</ul>\n<p><strong>Unimplemented effects:</strong></p>\n<ul>\n<li>Gain the Final Surge action</li>\n</ul>"
        },
        "duration": {
            "expiry": "turn-start",
            "sustained": false,
            "unit": "hours",
            "value": 1
        },
        "level": {
            "value": 17
        },
        "rules": [
            {
                "key": "PF2E.RuleElement.DexterityModifierCap",
                "label": "Drakeheart Mutagen (Major)",
                "value": 2
            },
            {
                "key": "PF2E.RuleElement.FlatModifier",
                "label": "Drakeheart Mutagen (Major)",
                "selector": "ac",
                "type": "item",
                "value": 7
            },
            {
                "key": "PF2E.RuleElement.FlatModifier",
                "label": "Drakeheart Mutagen (Major)",
                "selector": "perception",
                "type": "item",
                "value": 4
            },
            {
                "key": "PF2E.RuleElement.FlatModifier",
                "label": "Drakeheart Mutagen (Major)",
                "selector": "will",
                "type": "untyped",
                "value": -1
            },
            {
                "key": "PF2E.RuleElement.FlatModifier",
                "label": "Drakeheart Mutagen (Major)",
                "selector": "reflex",
                "type": "untyped",
                "value": -1
            },
            {
                "key": "PF2E.RuleElement.TokenEffectIcon"
            },
            {
                "key": "PF2E.RuleElement.FlatModifier",
                "label": "Drakeheart Mutagen (Recall Knowledge)",
                "predicate": {
                    "all": [
                        "action:recall-knowledge"
                    ]
                },
                "selector": "skill-check",
                "value": -1
            }
        ],
        "source": {
            "value": ""
        },
        "start": {
            "initiative": null,
            "value": 0
        },
        "target": null,
        "traits": {
            "custom": "",
            "rarity": {
                "value": "common"
            },
            "value": []
        }
    },
    "effects": [],
    "flags": {},
    "img": "systems/pf2e/icons/equipment/alchemical-items/alchemical-elixirs/drakeheart-mutagen.webp",
    "name": "Effect: Drakeheart Mutagen (Major)",
    "permission": {
        "default": 0
    },
    "type": "effect"
}
