{
    "_id": "f0faBEUPtspdutKx",
    "data": {
        "actionCategory": {
            "value": ""
        },
        "actionType": {
            "value": "passive"
        },
        "actions": {
            "value": ""
        },
        "description": {
            "chat": "",
            "unidentified": "",
            "value": "<p>You're an incredible acrobat, evoking wonder and enrapturing audiences with your prowess. It's almost a performance!</p>\n<p>You can roll an Acrobatics check instead of a Performance check when using the @Compendium[pf2e.actionspf2e.Perform]{Perform} action.</p>"
        },
        "featType": {
            "value": "skill"
        },
        "level": {
            "value": "1"
        },
        "prerequisites": {
            "value": [
                {
                    "value": "trained in Acrobatics"
                }
            ]
        },
        "rules": [],
        "source": {
            "value": ""
        },
        "traits": {
            "custom": "",
            "rarity": {
                "value": "common"
            },
            "value": [
                "general",
                "skill"
            ]
        }
    },
    "effects": [],
    "flags": {},
    "img": "systems/pf2e/icons/features/feats/feats.webp",
    "name": "Acrobatic Performer",
    "permission": {
        "default": 0
    },
    "type": "feat"
}
