{
    "_id": "Ugw1zZStQhg6iz8h",
    "data": {
        "actionCategory": {
            "value": ""
        },
        "actionType": {
            "value": "passive"
        },
        "actions": {
            "value": ""
        },
        "description": {
            "chat": "",
            "unidentified": "",
            "value": "<p><strong>Access</strong> Mihrini ethnicity</p>\n<hr />\n<p>You've fiddled with knots, locks, and blacksmith's puzzles since you were a child to give your hands something to do. You gain the trained proficiency rank in <a href=\"https://2e.aonprd.com/Skills.aspx?ID=17\">Thievery</a> (or another skill of your choice, if you're already trained in Thievery). If you roll a success on a Thievery check to Pick a Lock, you get a critical success instead.</p>"
        },
        "featType": {
            "value": "ancestry"
        },
        "level": {
            "value": 1
        },
        "location": "",
        "prerequisites": {
            "value": []
        },
        "rules": [],
        "source": {
            "value": ""
        },
        "traits": {
            "custom": "",
            "rarity": {
                "value": "uncommon"
            },
            "value": [
                "halfling"
            ]
        }
    },
    "effects": [],
    "flags": {},
    "img": "systems/pf2e/icons/features/feats/feats.webp",
    "name": "Adroit Manipulation",
    "permission": {
        "default": 0
    },
    "type": "feat"
}
