{
    "_id": "wqAdzjRUOvTpKFKq",
    "data": {
        "actionCategory": {
            "value": ""
        },
        "actionType": {
            "value": "reaction"
        },
        "actions": {
            "value": ""
        },
        "description": {
            "chat": "",
            "unidentified": "",
            "value": "<p><strong>Trigger</strong> You would take damage from a @Compendium[pf2e.actionspf2e.Strike]{Strike} or spell that doesn't have the death trait or otherwise cause instant death (such as <em>@Compendium[pf2e.spells-srd.Disintegrate]{Disintegrate}</em>).</p>\n<hr />\n<p>Using your occult connections and incredible powers of persuasion, you convince yourself that the triggering damage is a figment of your imagination.</p>\n<p>The damage changes from its usual damage type to mental damage, and the damaging effect gains the nonlethal trait. You can't use this reaction if you are immune to mental effects or mental damage.</p>"
        },
        "featType": {
            "value": "class"
        },
        "level": {
            "value": "18"
        },
        "prerequisites": {
            "value": []
        },
        "rules": [],
        "source": {
            "value": ""
        },
        "traits": {
            "custom": "",
            "rarity": {
                "value": "common"
            },
            "value": [
                "bard",
                "illusion",
                "mental"
            ]
        }
    },
    "effects": [],
    "flags": {},
    "img": "systems/pf2e/icons/features/feats/feats.webp",
    "name": "All In My Head",
    "permission": {
        "default": 0
    },
    "type": "feat"
}
