{
    "_id": "QrShJGrvmWPBj4oN",
    "data": {
        "actionCategory": {
            "value": ""
        },
        "actionType": {
            "value": "passive"
        },
        "actions": {
            "value": ""
        },
        "description": {
            "chat": "",
            "unidentified": "",
            "value": "<p>Select one arcane school of magic. You gain the school's initial school spell. If you don't already have one, you gain a focus pool of 1 Focus Point, which you can Refocus by studying. (For more on arcane schools, see page 204.).</p>"
        },
        "featType": {
            "value": "archetype"
        },
        "level": {
            "value": 4
        },
        "prerequisites": {
            "value": [
                {
                    "value": "Wizard Dedication"
                }
            ]
        },
        "rules": [],
        "source": {
            "value": ""
        },
        "traits": {
            "custom": "",
            "rarity": {
                "value": "common"
            },
            "value": [
                "archetype"
            ]
        }
    },
    "effects": [],
    "flags": {},
    "img": "systems/pf2e/icons/features/feats/feats.webp",
    "name": "Arcane School Spell",
    "permission": {
        "default": 0
    },
    "type": "feat"
}
