{
    "_id": "wsq8nncD25Q1fRn2",
    "data": {
        "actionCategory": {
            "value": ""
        },
        "actionType": {
            "value": "passive"
        },
        "actions": {
            "value": ""
        },
        "description": {
            "chat": "",
            "unidentified": "",
            "value": "<p>Your patron grants you a special lesson, revealing a hidden facet of its nature. Choose a @Compendium[pf2e.classfeatures.Witch Lessons]{Basic Lesson}. You gain its associated hex, and your familiar learns the associated spell. Increase the number of Focus Points in your focus pool by 1.</p>\n<hr />"
        },
        "featType": {
            "value": "class"
        },
        "level": {
            "value": "2"
        },
        "prerequisites": {
            "value": []
        },
        "rules": [],
        "source": {
            "value": ""
        },
        "traits": {
            "custom": "",
            "rarity": {
                "value": "common"
            },
            "value": [
                "witch"
            ]
        }
    },
    "effects": [],
    "flags": {},
    "img": "systems/pf2e/icons/features/feats/feats.webp",
    "name": "Basic Lesson",
    "permission": {
        "default": 0
    },
    "type": "feat"
}
