{
    "_id": "xM8IWff5yfbQGk4s",
    "data": {
        "actionCategory": {
            "value": ""
        },
        "actionType": {
            "value": "passive"
        },
        "actions": {
            "value": ""
        },
        "description": {
            "chat": "",
            "unidentified": "",
            "value": "<p>You’ve learned to use roots, crevices, uneven ground, and dense underbrush to your advantage. When you’re in difficult terrain from an environmental feature, you can Take Cover, even if the feature wouldn’t ordinarily be large enough for you to Take Cover.</p>"
        },
        "featType": {
            "value": "ancestry"
        },
        "level": {
            "value": 9
        },
        "location": "",
        "prerequisites": {
            "value": []
        },
        "rules": [],
        "source": {
            "value": ""
        },
        "traits": {
            "custom": "",
            "rarity": {
                "value": "common"
            },
            "value": [
                "kobold"
            ]
        },
        "usage": {
            "value": ""
        }
    },
    "effects": [],
    "flags": {},
    "img": "systems/pf2e/icons/features/feats/feats.webp",
    "name": "Briar Battler",
    "permission": {
        "default": 0
    },
    "type": "feat"
}
