{
    "_id": "iMh9Ve8Kt8ZcdKU0",
    "data": {
        "actionCategory": {
            "value": ""
        },
        "actionType": {
            "value": "passive"
        },
        "actions": {
            "value": ""
        },
        "description": {
            "chat": "",
            "unidentified": "",
            "value": "<p><strong>Archetype</strong>@Compendium[pf2e.archetypes.Staff Acrobat]{Staff Acrobat}<br /><strong>Requirements</strong> You are wielding your staff.</p>\n<hr />\n<p>You can attempt to @Compendium[pf2e.actionspf2e.Shove]{Shove} or @Compendium[pf2e.actionspf2e.Trip]{Trip} creatures up to two sizes larger than you. If you have master proficiency with your staff, you can attempt to Shove or Trip creatures up to three sizes larger than you.</p>"
        },
        "featType": {
            "value": "archetype"
        },
        "level": {
            "value": "4"
        },
        "prerequisites": {
            "value": [
                {
                    "value": "Staff Acrobat Dedication"
                }
            ]
        },
        "rules": [],
        "source": {
            "value": ""
        },
        "traits": {
            "custom": "",
            "rarity": {
                "value": "uncommon"
            },
            "value": [
                "archetype"
            ]
        }
    },
    "effects": [],
    "flags": {},
    "img": "systems/pf2e/icons/features/feats/feats.webp",
    "name": "Bullying Staff",
    "permission": {
        "default": 0
    },
    "type": "feat"
}
