{
    "_id": "swsMURQBMXZpjWl8",
    "data": {
        "actionCategory": {
            "value": ""
        },
        "actionType": {
            "value": "passive"
        },
        "actions": {
            "value": ""
        },
        "description": {
            "chat": "",
            "unidentified": "",
            "value": "<p>Whether you are climbing a ship's rigging, a jungle tree, or a clock tower, you have an uncanny knack for finding footholds and handholds where larger creatures can't. You gain a climb Speed of 10 feet. You can take the Legendary Climber feat even if you don't have the @Compendium[pf2e.feats-srd.Quick Climb]{Quick Climb} feat, provided you meet its other prerequisites.</p>"
        },
        "featType": {
            "value": "ancestry"
        },
        "level": {
            "value": "9"
        },
        "prerequisites": {
            "value": []
        },
        "rules": [],
        "source": {
            "value": ""
        },
        "traits": {
            "custom": "",
            "rarity": {
                "value": "common"
            },
            "value": [
                "halfling"
            ]
        }
    },
    "effects": [],
    "flags": {},
    "img": "systems/pf2e/icons/features/feats/feats.webp",
    "name": "Cunning Climber",
    "permission": {
        "default": 0
    },
    "type": "feat"
}
