{
    "_id": "1Bt7uCW2WI4sM84P",
    "data": {
        "actionCategory": {
            "value": ""
        },
        "actionType": {
            "value": "passive"
        },
        "actions": {
            "value": ""
        },
        "description": {
            "chat": "",
            "unidentified": "",
            "value": "<p>You're a treasure trove of information, but not all of it comes from reputable sources. When you fail (but don't critically fail) a Recall Knowledge check using any skill, you learn a bit of true knowledge and a bit of erroneous knowledge, but you don't have any way to differentiate which is which.</p>"
        },
        "featType": {
            "value": "skill"
        },
        "level": {
            "value": 1
        },
        "location": "",
        "prerequisites": {
            "value": [
                {
                    "value": "trained in a skill with the Recall Knowledge action"
                }
            ]
        },
        "rules": [
            {
                "key": "PF2E.RuleElement.Note",
                "predicate": {
                    "any": [
                        "action:recall-knowledge"
                    ]
                },
                "selector": "skill-check",
                "text": "<p class='compact-text'><strong>{item|name}</strong> When you fail (but don't critically fail) a Recall Knowledge check using any skill, you learn a bit of true knowledge and a bit of erroneous knowledge.</p>"
            }
        ],
        "source": {
            "value": ""
        },
        "traits": {
            "custom": "",
            "rarity": {
                "value": "common"
            },
            "value": [
                "general",
                "skill"
            ]
        }
    },
    "effects": [],
    "flags": {},
    "img": "systems/pf2e/icons/features/feats/feats.webp",
    "name": "Dubious Knowledge",
    "permission": {
        "default": 0
    },
    "type": "feat"
}
