{
    "_id": "5op3m0gwZjL4udit",
    "data": {
        "actionCategory": {
            "value": ""
        },
        "actionType": {
            "value": "action"
        },
        "actions": {
            "value": "1"
        },
        "description": {
            "chat": "",
            "unidentified": "",
            "value": "<p>Select one foe that you can see and proclaim a challenge. That foe is your dueling opponent until they are defeated, flee, or the encounter ends.</p>\n<p>Any time you hit that enemy using a single one-handed melee weapon while your other hand or hands are free, you gain a circumstance bonus to the @Compendium[pf2e.actionspf2e.Strike]{Strike's} damage equal to the number of damage dice your weapon deals.</p>\n<p>If you attack a creature other than your dueling opponent, you take a circumstance penalty to damage equal to the number of damage dice your weapon deals.</p>"
        },
        "featType": {
            "value": "archetype"
        },
        "level": {
            "value": "4"
        },
        "prerequisites": {
            "value": [
                {
                    "value": "Duelist Dedication"
                }
            ]
        },
        "rules": [],
        "source": {
            "value": ""
        },
        "traits": {
            "custom": "",
            "rarity": {
                "value": "common"
            },
            "value": [
                "archetype",
                "open"
            ]
        }
    },
    "effects": [],
    "flags": {},
    "img": "systems/pf2e/icons/features/feats/feats.webp",
    "name": "Duelist's Challenge",
    "permission": {
        "default": 0
    },
    "type": "feat"
}
