{
    "_id": "lG4dYrnkE42IgnGG",
    "data": {
        "actionCategory": {
            "value": ""
        },
        "actionType": {
            "value": "free"
        },
        "actions": {
            "value": ""
        },
        "description": {
            "chat": "",
            "unidentified": "",
            "value": "<p><strong>Frequency</strong> once per turn</p>\n<p><strong>Requirements</strong> Your most recent action was to cast a <br />non-cantrip spell that dealt energy damage.</p>\n<hr />\n<p>You trap energy from the last spell you cast within your body, coating your flesh in a protective ward. Until the start of your next turn, you gain resistance 5 to one type of energy damage dealt by the spell you just cast.</p>"
        },
        "featType": {
            "value": "class"
        },
        "level": {
            "value": "10"
        },
        "prerequisites": {
            "value": []
        },
        "rules": [],
        "source": {
            "value": ""
        },
        "traits": {
            "custom": "",
            "rarity": {
                "value": "common"
            },
            "value": [
                "abjuration",
                "sorcerer"
            ]
        }
    },
    "effects": [],
    "flags": {},
    "img": "systems/pf2e/icons/features/feats/feats.webp",
    "name": "Energy Ward",
    "permission": {
        "default": 0
    },
    "type": "feat"
}
