{
    "_id": "YgbcLfAEdi4xxvX5",
    "data": {
        "actionCategory": {
            "value": ""
        },
        "actionType": {
            "value": "action"
        },
        "actions": {
            "value": "1"
        },
        "description": {
            "chat": "",
            "unidentified": "",
            "value": "<p>You point out a detail that incontrovertibly supports your faith, causing a listener's mind to whirl. Attempt a Diplomacy check and compare the result to the Will DC of a single target that can hear you and understands your language; that target is then temporarily immune to Evangelize with respect to your deity or philosophy for 1 day. A creature that already agrees with you is unaffected, and at the GM's discretion, a target that genuinely changes its perspective to support your faith as a result of the argument is also otherwise unaffected.</p>\n<hr />\n<p><strong>Critical Success</strong> The target is @Compendium[pf2e.conditionitems.Stupefied]{Stupefied 2} for 1 round.</p>\n<p><strong>Success</strong> The target is @Compendium[pf2e.conditionitems.Stupefied]{Stupefied 1} for 1 round.</p>\n<p><strong>Failure</strong> The target is unaffected.</p>"
        },
        "featType": {
            "value": "skill"
        },
        "level": {
            "value": 7
        },
        "prerequisites": {
            "value": [
                {
                    "value": "master in Diplomacy"
                },
                {
                    "value": "you follow a deity of philosophy"
                }
            ]
        },
        "rules": [],
        "source": {
            "value": ""
        },
        "traits": {
            "custom": "",
            "rarity": {
                "value": "common"
            },
            "value": [
                "auditory",
                "general",
                "linguistic",
                "mental",
                "skill"
            ]
        }
    },
    "effects": [],
    "flags": {},
    "img": "systems/pf2e/icons/features/feats/feats.webp",
    "name": "Evangelize",
    "permission": {
        "default": 0
    },
    "type": "feat"
}
