{
    "_id": "Twhkz2FfzaZezVnG",
    "data": {
        "actionCategory": {
            "value": ""
        },
        "actionType": {
            "value": "passive"
        },
        "actions": {
            "value": ""
        },
        "description": {
            "chat": "",
            "unidentified": "",
            "value": "<p>You have grown more comfortable with your penchant for supernatural disappearance. The flat check DC of your Fortuitous Shift feat decreases to 11, and you are no longer @Compendium[pf2e.conditionitems.Dazzled]{Dazzled} if you succeed.</p>"
        },
        "featType": {
            "value": "ancestry"
        },
        "level": {
            "value": "9"
        },
        "prerequisites": {
            "value": [
                {
                    "value": "Unexpected Shift"
                }
            ]
        },
        "rules": [],
        "source": {
            "value": ""
        },
        "traits": {
            "custom": "",
            "rarity": {
                "value": "common"
            },
            "value": [
                "gnome"
            ]
        }
    },
    "effects": [],
    "flags": {},
    "img": "systems/pf2e/icons/features/feats/feats.webp",
    "name": "Fortutious Shift",
    "permission": {
        "default": 0
    },
    "type": "feat"
}
