{
    "_id": "IHFqUHxNChCPZPml",
    "data": {
        "actionCategory": {
            "value": ""
        },
        "actionType": {
            "value": "passive"
        },
        "actions": {
            "value": ""
        },
        "description": {
            "value": "<p>You are descended from the wondrous garudas, and their keen senses manifest in your magical prowess. You can cast @Compendium[pf2e.spells-srd.Blur]{Blur} and @Compendium[pf2e.spells-srd.See Invisibility]{See Invisibility} each once per day as 2nd-level divine innate spells.</p>"
        },
        "featType": {
            "value": "ancestry"
        },
        "level": {
            "value": 9
        },
        "location": "",
        "prerequisites": {
            "value": [
                {
                    "value": "Plumekith"
                }
            ]
        },
        "rules": [],
        "source": {
            "value": ""
        },
        "traits": {
            "custom": "",
            "rarity": {
                "value": "common"
            },
            "value": [
                "aasimar"
            ]
        }
    },
    "effects": [],
    "flags": {},
    "img": "systems/pf2e/icons/features/feats/feats.webp",
    "name": "Garuda Magic",
    "permission": {
        "default": 0
    },
    "type": "feat"
}
