{
    "_id": "O1qdoz5N3G4yvHcH",
    "data": {
        "actionCategory": {
            "value": ""
        },
        "actionType": {
            "value": "passive"
        },
        "actions": {
            "value": ""
        },
        "description": {
            "chat": "",
            "unidentified": "",
            "value": "<p>You hold a deep understanding of the innate fundamental structures of the physical world, and you can enforce your will upon that structure as far as your own blood is concerned.</p>\n<p>Once per day, you can use a sorcerer spell slot to cast any common polymorph battle form spell of the spell slot's level as if it were a signature spell in your repertoire.</p>\n<p>If you have Arcane Evolution, you can also choose from any battle form spell in your spellbook. If you have Primal Evolution, you can @Compendium[pf2e.actionspf2e.Cast a Spell]{Cast a Spell} listed in that feat using the extra spell slot the feat grants (instead of a sorcerer spell slot).</p>"
        },
        "featType": {
            "value": "class"
        },
        "level": {
            "value": "12"
        },
        "prerequisites": {
            "value": [
                {
                    "value": "Arcane Evolution or Primal Evolution"
                }
            ]
        },
        "rules": [],
        "source": {
            "value": ""
        },
        "traits": {
            "custom": "",
            "rarity": {
                "value": "common"
            },
            "value": [
                "sorcerer"
            ]
        }
    },
    "effects": [],
    "flags": {},
    "img": "systems/pf2e/icons/features/feats/feats.webp",
    "name": "Greater Physical Evolution",
    "permission": {
        "default": 0
    },
    "type": "feat"
}
