{
    "_id": "4Jwtl2FvxskruHQv",
    "data": {
        "actionCategory": {
            "value": ""
        },
        "actionType": {
            "value": "action"
        },
        "actions": {
            "value": "2"
        },
        "description": {
            "chat": "",
            "unidentified": "",
            "value": "<p><strong>Frequency</strong> once per day</p>\n<hr />\n<p>You summon an aura of shimmering heat, flurrying snow, crashing waves, or swirling wind and lightning. For 1 minute, you gain @Compendium[pf2e.conditionitems.Concealed]{Concealment} against creatures more than 5 feet away, and any creature that ends its turn within 5 feet of you suffers [[/r 1d12]] damage (basic Reflex save using your class DC or spell DC, whichever is higher). At 13th and 17th level, this damage increases by 1d12. A veil may changeling deals fire damage, a snow may changeling deals cold damage, a brine may changeling deals bludgeoning damage and the effect gains the water trait, and a virga may changeling deals electricity damage.</p>"
        },
        "featType": {
            "value": "ancestry"
        },
        "level": {
            "value": 9
        },
        "location": "",
        "prerequisites": {
            "value": [
                {
                    "value": "Brine May, Snow May, Veil May, or Virga May"
                }
            ]
        },
        "rules": [],
        "source": {
            "value": ""
        },
        "traits": {
            "custom": "",
            "rarity": {
                "value": "common"
            },
            "value": [
                "changeling",
                "evocation",
                "primal"
            ]
        },
        "usage": {
            "value": ""
        }
    },
    "effects": [],
    "flags": {},
    "img": "systems/pf2e/icons/features/feats/feats.webp",
    "name": "Invoke The Elements",
    "permission": {
        "default": 0
    },
    "type": "feat"
}
