{
    "_id": "6WwxTbX8KvU3Xxak",
    "data": {
        "actionCategory": {
            "value": ""
        },
        "actionType": {
            "value": "passive"
        },
        "actions": {
            "value": ""
        },
        "description": {
            "chat": "",
            "unidentified": "",
            "value": "<p>You can use magic to show others desert hospitality. You can cast 2nd-level @Compendium[pf2e.spells-srd.Create Food]{Create Food} once per day and @Compendium[pf2e.spells-srd.Create Water]{Create Water} twice per day as arcane innate spells.</p>"
        },
        "featType": {
            "value": "ancestry"
        },
        "level": {
            "value": 9
        },
        "location": "",
        "prerequisites": {
            "value": []
        },
        "rules": [],
        "source": {
            "value": ""
        },
        "traits": {
            "custom": "",
            "rarity": {
                "value": "common"
            },
            "value": [
                "suli"
            ]
        },
        "usage": {
            "value": ""
        }
    },
    "effects": [],
    "flags": {},
    "img": "systems/pf2e/icons/features/feats/feats.webp",
    "name": "Janni Hospitality",
    "permission": {
        "default": 0
    },
    "type": "feat"
}
