{
    "_id": "ZfycfbXlPXZlSqw5",
    "data": {
        "actionCategory": {
            "value": ""
        },
        "actionType": {
            "value": "passive"
        },
        "actions": {
            "value": ""
        },
        "description": {
            "chat": "",
            "unidentified": "",
            "value": "<p>You fundamentally understand everything to the point where your research can't possibly be wrong.</p>\n<p>You are permanently @Compendium[pf2e.conditionitems.Quickened]{Quickened} and can use the extra action to @Compendium[pf2e.actionspf2e.Recall Knowledge (Lore)]{Recall Knowledge}.</p>\n<p>Your checks to Recall Knowledge are no longer secret. When you Recall Knowledge, you use the outcome for one degree of success better than the result of your check, and if an effect (such as @Compendium[pf2e.feats-srd.Dubious Knowledge]{Dubious Knowledge}) would give you inaccurate information from your Recall Knowledge check, you know which information is inaccurate.</p>\n<p>When one of your allies Recalls Knowledge and gains false information, you also know that information is inaccurate if they share it with you.</p>"
        },
        "featType": {
            "value": "class"
        },
        "level": {
            "value": "20"
        },
        "prerequisites": {
            "value": [
                {
                    "value": "Thorough Research"
                }
            ]
        },
        "rules": [],
        "source": {
            "value": ""
        },
        "traits": {
            "custom": "",
            "rarity": {
                "value": "common"
            },
            "value": [
                "investigator"
            ]
        }
    },
    "effects": [],
    "flags": {},
    "img": "systems/pf2e/icons/features/feats/feats.webp",
    "name": "Just The Facts",
    "permission": {
        "default": 0
    },
    "type": "feat"
}
