{
    "_id": "OzvvsyjAWWij4mmm",
    "data": {
        "actionCategory": {
            "value": ""
        },
        "actionType": {
            "value": "reaction"
        },
        "actions": {
            "value": ""
        },
        "description": {
            "chat": "",
            "unidentified": "",
            "value": "<p><strong>Trigger</strong> Your prey is within reach and attempts to move away from you.</p>\n<hr />\n<p>Your prey can't escape. @Compendium[pf2e.actionspf2e.Stride]{Stride} up to your Speed, following the foe and keeping it in reach throughout its movement until it stops moving or you've moved your full Speed.</p>\n<p>You can use Keep Pace to @Compendium[pf2e.actionspf2e.Burrow]{Burrow}, @Compendium[pf2e.actionspf2e.Climb]{Climb}, @Compendium[pf2e.actionspf2e.Fly]{Fly}, or @Compendium[pf2e.actionspf2e.Swim]{Swim} instead of Stride if you have the corresponding movement type.</p>"
        },
        "featType": {
            "value": "archetype"
        },
        "level": {
            "value": "6"
        },
        "prerequisites": {
            "value": []
        },
        "rules": [],
        "source": {
            "value": ""
        },
        "traits": {
            "custom": "",
            "rarity": {
                "value": "common"
            },
            "value": [
                "archetype"
            ]
        }
    },
    "effects": [],
    "flags": {},
    "img": "systems/pf2e/icons/features/feats/feats.webp",
    "name": "Keep Pace",
    "permission": {
        "default": 0
    },
    "type": "feat"
}
