{
    "_id": "H86VNC6cNWhBI8Ed",
    "data": {
        "actionCategory": {
            "value": ""
        },
        "actionType": {
            "value": "passive"
        },
        "actions": {
            "value": ""
        },
        "description": {
            "chat": "",
            "unidentified": "",
            "value": "<div> </div>\n<p>You have sworn the Crimson Oath and become a full member of the Crimson Reclaimers. You gain expert proficiency in Stealth and Survival. Whenever you roll a success on a saving throw against an undead's special ability, you get a critical success instead. This applies to any abilities that come from being undead, including an undead's innate spells (but not its prepared or spontaneous spells).</p>\n<p><strong>Special</strong> You cannot select another dedication feat until you have gained two other feats from the Knight Reclaimant archetype.</p>"
        },
        "featType": {
            "value": "archetype"
        },
        "level": {
            "value": 6
        },
        "prerequisites": {
            "value": [
                {
                    "value": "trained in Survival"
                },
                {
                    "value": "trained in Stealth"
                },
                {
                    "value": "any non-evil alignment"
                },
                {
                    "value": "member of the Knights of Lastwall of knight rank"
                }
            ]
        },
        "rules": [],
        "source": {
            "value": ""
        },
        "traits": {
            "custom": "",
            "rarity": {
                "value": "uncommon"
            },
            "value": [
                "archetype",
                "dedication"
            ]
        }
    },
    "effects": [],
    "flags": {},
    "img": "systems/pf2e/icons/features/feats/feats.webp",
    "name": "Knight Reclaimant Dedication",
    "permission": {
        "default": 0
    },
    "type": "feat"
}
