{
    "_id": "OrNcWu1Y7c2O5zU6",
    "data": {
        "actionCategory": {
            "value": ""
        },
        "actionType": {
            "value": "passive"
        },
        "actions": {
            "value": ""
        },
        "description": {
            "chat": "",
            "unidentified": "",
            "value": "<p>You can rig a trap with incredible speed. When you create a snare that normally takes 1 minute to Craft, you can Craft it using a single Interact action instead.</p>"
        },
        "featType": {
            "value": "class"
        },
        "level": {
            "value": 12
        },
        "prerequisites": {
            "value": [
                {
                    "value": "master in Crafting"
                },
                {
                    "value": "Snare Specialist"
                },
                {
                    "value": "Quick Snares"
                }
            ]
        },
        "rules": [],
        "source": {
            "value": ""
        },
        "traits": {
            "custom": "",
            "rarity": {
                "value": "common"
            },
            "value": [
                "ranger"
            ]
        }
    },
    "effects": [],
    "flags": {},
    "img": "systems/pf2e/icons/features/feats/feats.webp",
    "name": "Lightning Snares",
    "permission": {
        "default": 0
    },
    "type": "feat"
}
