{
    "_id": "lF5B49zbDG61sxXa",
    "data": {
        "actionCategory": {
            "value": ""
        },
        "actionType": {
            "value": "passive"
        },
        "actions": {
            "value": ""
        },
        "description": {
            "chat": "",
            "unidentified": "",
            "value": "<p>You catch yourself as you make a mistake. You can trigger Cat’s Luck when you fail or critically fail on an Athletics or Acrobatics skill check, in addition to its normal trigger. When you do, you reroll the triggering skill check and use the better result. This still counts against Cat’s Luck’s frequency, as normal.</p>"
        },
        "featType": {
            "value": "ancestry"
        },
        "level": {
            "value": 5
        },
        "location": "",
        "prerequisites": {
            "value": [
                {
                    "value": "Cat's Luck"
                }
            ]
        },
        "rules": [],
        "source": {
            "value": ""
        },
        "traits": {
            "custom": "",
            "rarity": {
                "value": "common"
            },
            "value": [
                "catfolk"
            ]
        },
        "usage": {
            "value": ""
        }
    },
    "effects": [],
    "flags": {},
    "img": "systems/pf2e/icons/features/feats/feats.webp",
    "name": "Lucky Break",
    "permission": {
        "default": 0
    },
    "type": "feat"
}
