{
    "_id": "B4nuabUvA1rk7Hej",
    "data": {
        "actionCategory": {
            "value": ""
        },
        "actionType": {
            "value": "passive"
        },
        "actions": {
            "value": ""
        },
        "description": {
            "chat": "",
            "unidentified": "",
            "value": "<p>You use multiple languages to create and break codes. You gain a +1 circumstance bonus to @Compendium[pf2e.actionspf2e.Decipher Writing]{Decipher Writing}.</p>\n<p>If another creature attempts to Decipher Writing you encoded, they take a -2 circumstance penalty unless they speak all the languages you used when you created the writing.</p>"
        },
        "featType": {
            "value": "archetype"
        },
        "level": {
            "value": 4
        },
        "prerequisites": {
            "value": [
                {
                    "value": "Linguist Dedication"
                },
                {
                    "value": "expert in Society"
                }
            ]
        },
        "rules": [],
        "source": {
            "value": ""
        },
        "traits": {
            "custom": "",
            "rarity": {
                "value": "common"
            },
            "value": [
                "archetype",
                "skill"
            ]
        }
    },
    "effects": [],
    "flags": {},
    "img": "systems/pf2e/icons/features/feats/feats.webp",
    "name": "Multilingual Cipher",
    "permission": {
        "default": 0
    },
    "type": "feat"
}
