{
    "_id": "zPJ2NyMv97AfkN3P",
    "data": {
        "actionCategory": {
            "value": ""
        },
        "actionType": {
            "value": "passive"
        },
        "actions": {
            "value": ""
        },
        "description": {
            "chat": "",
            "unidentified": "",
            "value": "<p>Your study of occult practices has shown you how to best defend against them. You gain a +1 circumstance bonus to all saving throws against occult effects.</p>"
        },
        "featType": {
            "value": "ancestry"
        },
        "level": {
            "value": "9"
        },
        "prerequisites": {
            "value": [
                {
                    "value": "expert in Occultism"
                }
            ]
        },
        "rules": [],
        "source": {
            "value": ""
        },
        "traits": {
            "custom": "",
            "rarity": {
                "value": "common"
            },
            "value": [
                "changeling"
            ]
        }
    },
    "effects": [],
    "flags": {},
    "img": "systems/pf2e/icons/features/feats/feats.webp",
    "name": "Occult Resistance",
    "permission": {
        "default": 0
    },
    "type": "feat"
}
