{
    "_id": "9CaaU5szcf3mtJXD",
    "data": {
        "actionCategory": {
            "value": ""
        },
        "actionType": {
            "value": "passive"
        },
        "actions": {
            "value": ""
        },
        "description": {
            "chat": "",
            "unidentified": "",
            "value": "<p>When you trick a foe, instead of catching them off guard, you goad them into overextending their next attack.</p>\n<p>On a successful @Compendium[pf2e.actionspf2e.Feint]{Feint}, you can use the following success and critical success effects instead of any other effects that would occur when you Feint. You can choose a different effect each time you Feint against a given foe.</p>\n<hr />\n<p><strong>Critical Success</strong> The target takes a -2 circumstance penalty to <br />all attack rolls against you before the end of its next turn.</p>\n<p><strong>Success</strong> The target takes a -2 circumstance penalty to its next <br />attack roll against you before the end of its next turn.</p>"
        },
        "featType": {
            "value": "class"
        },
        "level": {
            "value": "1"
        },
        "prerequisites": {
            "value": [
                {
                    "value": "trained in Deception"
                }
            ]
        },
        "rules": [],
        "source": {
            "value": ""
        },
        "traits": {
            "custom": "",
            "rarity": {
                "value": "common"
            },
            "value": [
                "rogue"
            ]
        }
    },
    "effects": [],
    "flags": {},
    "img": "systems/pf2e/icons/features/feats/feats.webp",
    "name": "Overextending Feint",
    "permission": {
        "default": 0
    },
    "type": "feat"
}
