{
    "_id": "2h8a6pKhXTXwpJjP",
    "data": {
        "actionCategory": {
            "value": ""
        },
        "actionType": {
            "value": "reaction"
        },
        "actions": {
            "value": ""
        },
        "description": {
            "chat": "",
            "unidentified": "",
            "value": "<p><strong>Frequency</strong> once per hour</p>\n<p><strong>Trigger</strong> You fail a saving throw against a mental effect.</p>\n<hr />\n<p>Your deity sends you a vision of faith to steel you against mental attacks. Reroll the triggering saving throw with a +2 circumstance bonus. You must use the second result, even if it's worse.</p>"
        },
        "featType": {
            "value": "class"
        },
        "level": {
            "value": 14
        },
        "location": "",
        "prerequisites": {
            "value": []
        },
        "rules": [
            {
                "key": "PF2E.RuleElement.FlatModifier",
                "predicate": {
                    "all": [
                        "premonition-of-clarity",
                        "mental"
                    ]
                },
                "selector": "saving-throw",
                "type": "circumstance",
                "value": 2
            }
        ],
        "source": {
            "value": ""
        },
        "traits": {
            "custom": "",
            "rarity": {
                "value": "common"
            },
            "value": [
                "cleric",
                "fortune"
            ]
        }
    },
    "effects": [],
    "flags": {},
    "img": "systems/pf2e/icons/features/feats/feats.webp",
    "name": "Premonition Of Clarity",
    "permission": {
        "default": 0
    },
    "type": "feat"
}
