{
    "_id": "XseJI9XhKNtZN8pv",
    "data": {
        "actionCategory": {
            "value": ""
        },
        "actionType": {
            "value": "passive"
        },
        "actions": {
            "value": ""
        },
        "description": {
            "chat": "",
            "unidentified": "",
            "value": "<p>Your fury fills your foes with fear. While you are raging, your Demoralize and Scare to Death actions (from the Intimidation skill and an Intimidation skill feat, respectively) gain the rage trait, allowing you to use them while raging. As soon as you meet the prerequisites for the skill feats Intimidating Glare and Scare to Death, you gain these feats.</p>"
        },
        "featType": {
            "value": "class"
        },
        "level": {
            "value": 1
        },
        "prerequisites": {
            "value": []
        },
        "rules": [],
        "source": {
            "value": ""
        },
        "traits": {
            "custom": "",
            "rarity": {
                "value": "common"
            },
            "value": [
                "barbarian"
            ]
        }
    },
    "effects": [],
    "flags": {},
    "img": "systems/pf2e/icons/features/feats/feats.webp",
    "name": "Raging Intimidation",
    "permission": {
        "default": 0
    },
    "type": "feat"
}
