{
    "_id": "VIjI8PtkTFjeAA6a",
    "data": {
        "actionCategory": {
            "value": ""
        },
        "actionType": {
            "value": "passive"
        },
        "actions": {
            "value": ""
        },
        "description": {
            "chat": "",
            "unidentified": "",
            "value": "<p>While in Ricochet Stance, you can bounce a thrown weapon off a foe to distract them. You can attempt a @Compendium[pf2e.actionspf2e.Feint]{Feint} against a creature within the first range increment of a thrown weapon you are wielding, rather than only creatures within your melee reach.</p>"
        },
        "featType": {
            "value": "class"
        },
        "level": {
            "value": "12"
        },
        "prerequisites": {
            "value": [
                {
                    "value": "Ricochet Stance"
                }
            ]
        },
        "rules": [],
        "source": {
            "value": ""
        },
        "traits": {
            "custom": "",
            "rarity": {
                "value": "common"
            },
            "value": [
                "rogue"
            ]
        }
    },
    "effects": [],
    "flags": {},
    "img": "systems/pf2e/icons/features/feats/feats.webp",
    "name": "Ricochet Feint",
    "permission": {
        "default": 0
    },
    "type": "feat"
}
