{
    "_id": "u5DBg0LrBUKP0JsJ",
    "data": {
        "actionCategory": {
            "value": ""
        },
        "actionType": {
            "value": "passive"
        },
        "actions": {
            "value": ""
        },
        "description": {
            "chat": "",
            "unidentified": "",
            "value": "<p>During your daily preparations, you can create two temporary scrolls containing arcane spells from your spellbook. These scrolls follow the normal rules for scrolls, with some additional restrictions. Each scroll must be of a different spell level, and both spell levels must be 2 or more levels lower than your highest-level spell. Any scrolls you create this way become non-magical the next time you make your daily preparations. A temporary scroll has no value. If you have master proficiency in arcane spell DCs, you can create three temporary scrolls during your daily preparations, and if you have legendary proficiency, you can create four temporary scrolls.</p>"
        },
        "featType": {
            "value": "class"
        },
        "level": {
            "value": 10
        },
        "prerequisites": {
            "value": [
                {
                    "value": "expert in Crafting"
                }
            ]
        },
        "rules": [],
        "source": {
            "value": ""
        },
        "traits": {
            "custom": "",
            "rarity": {
                "value": "common"
            },
            "value": [
                "wizard"
            ]
        }
    },
    "effects": [],
    "flags": {},
    "img": "systems/pf2e/icons/features/feats/feats.webp",
    "name": "Scroll Savant",
    "permission": {
        "default": 0
    },
    "type": "feat"
}
