{
    "_id": "Aqhsx5duEpBgaPB0",
    "data": {
        "actionCategory": {
            "value": ""
        },
        "actionType": {
            "value": "passive"
        },
        "actions": {
            "value": ""
        },
        "description": {
            "chat": "",
            "unidentified": "",
            "value": "<p>Hunting as a duo, you and your ally both single out your prey. When you use Hunt Prey and select only one prey, you can grant your Hunt Prey benefits and hunter's edge to an ally in addition to gaining them yourself. The ally retains these benefits until you use Hunt Prey again.</p>"
        },
        "featType": {
            "value": "class"
        },
        "level": {
            "value": 14
        },
        "prerequisites": {
            "value": [
                {
                    "value": "Double Prey"
                },
                {
                    "value": "Warden's Boon"
                }
            ]
        },
        "rules": [],
        "source": {
            "value": ""
        },
        "traits": {
            "custom": "",
            "rarity": {
                "value": "common"
            },
            "value": [
                "ranger"
            ]
        }
    },
    "effects": [],
    "flags": {},
    "img": "systems/pf2e/icons/features/feats/feats.webp",
    "name": "Shared Prey",
    "permission": {
        "default": 0
    },
    "type": "feat"
}
