{
    "_id": "qZUdGd2khS9cq4hJ",
    "data": {
        "actionCategory": {
            "value": ""
        },
        "actionType": {
            "value": "passive"
        },
        "actions": {
            "value": ""
        },
        "description": {
            "chat": "",
            "unidentified": "",
            "value": "<p><strong>Frequency</strong> once per day</p>\n<hr />\n<p>You wear many faces, even those that don’t belong to you. When you Change Shape into your tailless form, you gain the effects of 3rd-level @Compendium[pf2e.spells-srd.Illusory Disguise]{Illusory Disguise} for 1 hour or until you shift back, except it’s a transmutation effect rather than an illusion.</p>"
        },
        "featType": {
            "value": "ancestry"
        },
        "level": {
            "value": 5
        },
        "location": "",
        "prerequisites": {
            "value": [
                {
                    "value": "tailless alternate form"
                }
            ]
        },
        "rules": [],
        "source": {
            "value": ""
        },
        "traits": {
            "custom": "",
            "rarity": {
                "value": "common"
            },
            "value": [
                "kitsune"
            ]
        },
        "usage": {
            "value": ""
        }
    },
    "effects": [],
    "flags": {},
    "img": "systems/pf2e/icons/features/feats/feats.webp",
    "name": "Shifting Faces",
    "permission": {
        "default": 0
    },
    "type": "feat"
}
