{
    "_id": "rNPeOwFZE5Ma18JJ",
    "data": {
        "actionCategory": {
            "value": ""
        },
        "actionType": {
            "value": "passive"
        },
        "actions": {
            "value": ""
        },
        "description": {
            "chat": "",
            "unidentified": "",
            "value": "<p>You have built a reputation for yourself in your social identity. Choose one archetype that you meet the prerequisites for. You gain that archetype's dedication feat and can select feats from that archetype, even if you haven't yet gained enough feats in the vigilante archetype to take another dedication feat.</p>\n<p>These feats become part of your social identity and gain the social trait-for instance, a fighter vigilante could take the wizard dedication feat and have a wizard social identity. Using these feats in your social identity doesn't risk exposing your vigilante identity, but using them in your vigilante identity could put you at risk for exposure.</p>"
        },
        "featType": {
            "value": "archetype"
        },
        "level": {
            "value": "4"
        },
        "prerequisites": {
            "value": [
                {
                    "value": "Vigilante Dedication"
                }
            ]
        },
        "rules": [],
        "source": {
            "value": ""
        },
        "traits": {
            "custom": "",
            "rarity": {
                "value": "common"
            },
            "value": [
                "archetype"
            ]
        }
    },
    "effects": [],
    "flags": {},
    "img": "systems/pf2e/icons/features/feats/feats.webp",
    "name": "Social Purview",
    "permission": {
        "default": 0
    },
    "type": "feat"
}
