{
    "_id": "d1FTY5ai9KjpkX59",
    "data": {
        "actionCategory": {
            "value": ""
        },
        "actionType": {
            "value": "passive"
        },
        "actions": {
            "value": ""
        },
        "description": {
            "chat": "",
            "unidentified": "",
            "value": "<p>Your magic has crystallized into a spherical stone. You gain a familiar, except it’s a star orb: a Tiny stone of light Bulk. The familiar has no Speeds and must select a Speed familiar ability before it can move, animating in a way appropriate to the chosen Speed and using the statistics of a normal familiar for that day; when it‘s an immobile stone, it can’t select any familiar or master abilities that require it to move. It always has the innate surge master ability.</p>"
        },
        "featType": {
            "value": "ancestry"
        },
        "level": {
            "value": 1
        },
        "location": "",
        "prerequisites": {
            "value": []
        },
        "rules": [],
        "source": {
            "value": ""
        },
        "traits": {
            "custom": "",
            "rarity": {
                "value": "common"
            },
            "value": [
                "kitsune"
            ]
        },
        "usage": {
            "value": ""
        }
    },
    "effects": [],
    "flags": {},
    "img": "systems/pf2e/icons/features/feats/feats.webp",
    "name": "Star Orb",
    "permission": {
        "default": 0
    },
    "type": "feat"
}
