{
    "_id": "8INrcMUv5vzWMG3X",
    "data": {
        "actionCategory": {
            "value": ""
        },
        "actionType": {
            "value": "action"
        },
        "actions": {
            "value": "2"
        },
        "description": {
            "chat": "",
            "unidentified": "",
            "value": "<p>You draw upon your superstitious fury to destroy a spell. Make a @Compendium[pf2e.actionspf2e.Strike]{Strike} with a melee weapon or an unarmed attack against a creature, object, or a spell manifestation (such as the wall created by @Compendium[pf2e.spells-srd.Wall of Fire]{Wall of Fire} or the guardian from @Compendium[pf2e.spells-srd.Spiritual Guardian]{Spiritual Guardian}).</p>\n<p>If your Strike hits, you can attempt to counteract a single spell or magical effect on the target. Your counteract level for this attempt is equal to half your level rounded up, and you use the result of your attack roll for the counteract check.</p>\n<p>Whether or not you succeed at your Strike, the target becomes temporarily immune to your Sunder Spell for 24 hours.</p>"
        },
        "featType": {
            "value": "class"
        },
        "level": {
            "value": "12"
        },
        "prerequisites": {
            "value": [
                {
                    "value": "superstition instinct"
                }
            ]
        },
        "rules": [],
        "source": {
            "value": ""
        },
        "traits": {
            "custom": "",
            "rarity": {
                "value": "common"
            },
            "value": [
                "attack",
                "barbarian",
                "concentrate",
                "rage"
            ]
        }
    },
    "effects": [],
    "flags": {},
    "img": "systems/pf2e/icons/features/feats/feats.webp",
    "name": "Sunder Spell",
    "permission": {
        "default": 0
    },
    "type": "feat"
}
