{
    "_id": "eXuCYDzj0UJOxNu9",
    "data": {
        "actionCategory": {
            "value": ""
        },
        "actionType": {
            "value": "passive"
        },
        "actions": {
            "value": ""
        },
        "description": {
            "chat": "",
            "unidentified": "",
            "value": "<p><strong>Requirements</strong> You are wielding two melee weapons, each in <br />a different hand.</p>\n<hr />\n<p>Your movements with two weapons are so swift and disorienting that they befuddle your opponent. When using Twin Feint, if both your @Compendium[pf2e.actionspf2e.Strike]{Strikes} deal damage to a targeted creature, the target must succeed at a Will saving throw against your class DC or become @Compendium[pf2e.conditionitems.Stupefied]{Stupefied} 1 until the end of your next turn.</p>"
        },
        "featType": {
            "value": "class"
        },
        "level": {
            "value": "4"
        },
        "prerequisites": {
            "value": [
                {
                    "value": "Twin Feint"
                }
            ]
        },
        "rules": [],
        "source": {
            "value": ""
        },
        "traits": {
            "custom": "",
            "rarity": {
                "value": "common"
            },
            "value": [
                "rogue"
            ]
        }
    },
    "effects": [],
    "flags": {},
    "img": "systems/pf2e/icons/features/feats/feats.webp",
    "name": "Twin Distraction",
    "permission": {
        "default": 0
    },
    "type": "feat"
}
