{
    "_id": "KaCpXuYuho3nnDUy",
    "data": {
        "actionCategory": {
            "value": ""
        },
        "actionType": {
            "value": "passive"
        },
        "actions": {
            "value": ""
        },
        "description": {
            "chat": "",
            "unidentified": "",
            "value": "<p>While your vengeance is painful for both you and your foe, none can doubt that your enemies suffer more. You gain a circumstance bonus to the damage you deal from @Compendium[pf2e.actionspf2e.Destructive Vengeance]{Destructive Vengeance} equal to the number of damage dice from the reaction. This only applies to the damage the enemy takes, not the damage to yourself or the extra damage you gain after using the reaction.</p>"
        },
        "featType": {
            "value": "class"
        },
        "level": {
            "value": 1
        },
        "location": "",
        "prerequisites": {
            "value": [
                {
                    "value": "antipaladin cause"
                }
            ]
        },
        "rules": [],
        "source": {
            "value": ""
        },
        "traits": {
            "custom": "",
            "rarity": {
                "value": "uncommon"
            },
            "value": [
                "champion"
            ]
        }
    },
    "effects": [],
    "flags": {},
    "img": "systems/pf2e/icons/features/feats/feats.webp",
    "name": "Vicious Vengeance",
    "permission": {
        "default": 0
    },
    "type": "feat"
}
