{
    "_id": "5VkVWZq7ZqH6RaAW",
    "data": {
        "actionCategory": {
            "value": ""
        },
        "actionType": {
            "value": "passive"
        },
        "actions": {
            "value": ""
        },
        "description": {
            "chat": "",
            "unidentified": "",
            "value": "<p>You hear and understand the words of creatures you share the darkness with. You can ask questions of, receive answers from, and use Diplomacy with bats, rats, and wolves. You also gain a +1 circumstance bonus to @Compendium[pf2e.actionspf2e.Make an Impression]{Make an Impression} on such animals.</p>"
        },
        "featType": {
            "value": "ancestry"
        },
        "level": {
            "value": "1"
        },
        "prerequisites": {
            "value": []
        },
        "rules": [],
        "source": {
            "value": ""
        },
        "traits": {
            "custom": "",
            "rarity": {
                "value": "common"
            },
            "value": [
                "dhampir"
            ]
        }
    },
    "effects": [],
    "flags": {},
    "img": "systems/pf2e/icons/features/feats/feats.webp",
    "name": "Voice Of The Night",
    "permission": {
        "default": 0
    },
    "type": "feat"
}
