{
    "_id": "oHra9QanDFpAZ4hh",
    "data": {
        "actionCategory": {
            "value": ""
        },
        "actionType": {
            "value": "action"
        },
        "actions": {
            "value": "1"
        },
        "description": {
            "chat": "",
            "unidentified": "",
            "value": "<p>By pointing out vulnerabilities, you grant the benefits listed in Hunt Prey and your hunter's edge benefit to an ally until the end of their next turn. Depending on whether you call out or use gestures, this action gains either the auditory or visual trait.</p>"
        },
        "featType": {
            "value": "class"
        },
        "level": {
            "value": 8
        },
        "prerequisites": {
            "value": []
        },
        "rules": [],
        "source": {
            "value": ""
        },
        "traits": {
            "custom": "",
            "rarity": {
                "value": "common"
            },
            "value": [
                "ranger"
            ]
        }
    },
    "effects": [],
    "flags": {},
    "img": "systems/pf2e/icons/features/feats/feats.webp",
    "name": "Warden's Boon",
    "permission": {
        "default": 0
    },
    "type": "feat"
}
