{
    "_id": "z4GfG3GatAOELKyA",
    "data": {
        "actionCategory": {
            "value": ""
        },
        "actionType": {
            "value": "passive"
        },
        "actions": {
            "value": ""
        },
        "description": {
            "chat": "",
            "unidentified": "",
            "value": "<p><strong>Major Curse</strong>: The stars rebuke you for your ways. You are @Compendium[pf2e.conditionitems.Sickened]{Sickened} 4 and @Compendium[pf2e.conditionitems.Slowed]{Slowed} 1 whenever you are exposed to starlight.</p>"
        },
        "featType": {
            "value": "curse"
        },
        "level": {
            "value": "0"
        },
        "prerequisites": {
            "value": []
        },
        "rules": [],
        "source": {
            "value": ""
        },
        "traits": {
            "custom": "",
            "rarity": {
                "value": "common"
            },
            "selected": {},
            "value": []
        }
    },
    "effects": [],
    "flags": {},
    "img": "systems/pf2e/icons/deity/Desna.webp",
    "name": "Desna - Major Curse",
    "permission": {
        "default": 0
    },
    "type": "feat"
}
