{
    "_id": "e9bdt8UH7ZvpRrLz",
    "data": {
        "actionCategory": {
            "value": ""
        },
        "actionType": {
            "value": "passive"
        },
        "actions": {
            "value": ""
        },
        "description": {
            "chat": "",
            "unidentified": "",
            "value": "<p><strong>Minor Boon (Single-Use)</strong>: Your healing hands are blessed with a warm flame.</p>\n<p>Once, when you heal another creature, instead of healing it for the normal amount, you heal the creature to full Hit Points, no matter how much damage it has taken.</p>\n<p>Sarenrae typically grants this boon in extremely consequential circumstances.</p>"
        },
        "featType": {
            "value": "deityboon"
        },
        "level": {
            "value": "0"
        },
        "prerequisites": {
            "value": []
        },
        "rules": [],
        "source": {
            "value": ""
        },
        "traits": {
            "custom": "",
            "rarity": {
                "value": "common"
            },
            "selected": {},
            "value": []
        }
    },
    "effects": [],
    "flags": {},
    "img": "systems/pf2e/icons/deity/Sarenrae.webp",
    "name": "Saranrae - Minor Boon",
    "permission": {
        "default": 0
    },
    "type": "feat"
}
