{
    "_id": "mDtlRBBUWqUzYSHs",
    "data": {
        "additionalLanguages": {
            "count": 0,
            "custom": "",
            "value": []
        },
        "boosts": {
            "0": {
                "value": []
            },
            "1": {
                "value": []
            },
            "2": {
                "value": [
                    "str",
                    "dex",
                    "con",
                    "int",
                    "wis",
                    "cha"
                ]
            }
        },
        "description": {
            "value": "<p>This is a blank ancestry for homebrew. <span style=\"color: var(--body);\">This provides no inherent automation but can be used as a drag and drop template on an actor.</span></p>"
        },
        "flaws": {
            "0": {
                "value": []
            }
        },
        "hp": 6,
        "items": {},
        "languages": {
            "custom": "",
            "value": [
                "common"
            ]
        },
        "reach": 5,
        "rules": [],
        "size": "med",
        "source": {
            "value": ""
        },
        "speed": 25,
        "traits": {
            "custom": "",
            "rarity": {
                "value": "common"
            },
            "value": []
        },
        "vision": "normal"
    },
    "effects": [],
    "flags": {},
    "img": "systems/pf2e/icons/default-icons/alternatives/ancestries/human.svg",
    "name": "[Empty Ancestry]",
    "permission": {
        "default": 0
    },
    "type": "ancestry"
}
