{
    "_id": "0gv9D5RlrF5cKA3I",
    "data": {
        "description": {
            "value": "<p>Granted by @Compendium[pf2e.spells-srd.Adapt Self]{Adapt Self}.</p>\n<p>You gain Darkvision.</p>"
        },
        "duration": {
            "expiry": "turn-start",
            "sustained": false,
            "unit": "minutes",
            "value": 1
        },
        "level": {
            "value": 1
        },
        "rules": [
            {
                "key": "PF2E.RuleElement.TokenEffectIcon"
            },
            {
                "key": "PF2E.RuleElement.Sense",
                "label": "PF2E.SensesDarkvision",
                "selector": "darkvision"
            }
        ],
        "source": {
            "value": ""
        },
        "start": {
            "initiative": null,
            "value": 0
        },
        "target": null,
        "traits": {
            "custom": "",
            "rarity": {
                "value": "common"
            },
            "value": []
        }
    },
    "effects": [],
    "flags": {},
    "img": "systems/pf2e/icons/spells/adapt-self.webp",
    "name": "Spell Effect: Adapt Self (Darkvision)",
    "permission": {
        "default": 0
    },
    "type": "effect"
}
