{
    "_id": "0R42NyuEZMVALjQs",
    "data": {
        "description": {
            "value": "<p>Granted by @Compendium[pf2e.spells-srd.Traveler's Transit]{Traveler's Transit}.</p>\n<p>You gain a swim speed equal to your land speed.</p>"
        },
        "duration": {
            "expiry": "turn-start",
            "sustained": false,
            "unit": "minutes",
            "value": 1
        },
        "level": {
            "value": 1
        },
        "rules": [
            {
                "key": "PF2E.RuleElement.BaseSpeed",
                "selector": "swim",
                "value": "@attributes.speed.value"
            },
            {
                "key": "PF2E.RuleElement.TokenEffectIcon"
            }
        ],
        "source": {
            "value": ""
        },
        "start": {
            "initiative": null,
            "value": 0
        },
        "target": null,
        "traits": {
            "custom": "",
            "rarity": {
                "value": "common"
            },
            "value": []
        }
    },
    "effects": [],
    "flags": {},
    "img": "systems/pf2e/icons/spells/travelers-transit.webp",
    "name": "Spell Effect: Traveler's Transit (Swim)",
    "permission": {
        "default": 0
    },
    "type": "effect"
}
