{
    "_id": "DLwTvjjnqs2sNGuG",
    "data": {
        "description": {
            "value": "<p>Granted by @Compendium[pf2e.spells-srd.Inspire Defense]{Inspire Defense}</p>\n<p>You inspire your allies to protect themselves more effectively. You and all allies in the area gain a +1 status bonus to AC and saving throws, as well as resistance equal to half the spell's level to physical damage.</p>\n<p><em>Note: resistance is not automatically added.</em></p>"
        },
        "duration": {
            "expiry": "turn-start",
            "sustained": false,
            "unit": "rounds",
            "value": 1
        },
        "level": {
            "value": 1
        },
        "rules": [
            {
                "key": "PF2E.RuleElement.FlatModifier",
                "label": "Inspire Defense",
                "selector": "ac",
                "type": "status",
                "value": 1
            },
            {
                "key": "PF2E.RuleElement.FlatModifier",
                "label": "Inspire Defense",
                "selector": "saving-throw",
                "type": "status",
                "value": 1
            },
            {
                "key": "PF2E.RuleElement.TokenEffectIcon"
            }
        ],
        "source": {
            "value": ""
        },
        "start": {
            "initiative": null,
            "value": 0
        },
        "target": null,
        "traits": {
            "custom": "",
            "rarity": {
                "value": "common"
            },
            "value": []
        }
    },
    "effects": [],
    "flags": {},
    "img": "systems/pf2e/icons/spells/inspire-defense.webp",
    "name": "Spell Effect: Inspire Defense",
    "permission": {
        "default": 0
    },
    "type": "effect"
}
