{
    "_id": "rHxkPijLnQ9O9AGV",
    "data": {
        "actionCategory": {
            "value": ""
        },
        "actionType": {
            "value": "passive"
        },
        "actions": {
            "value": ""
        },
        "description": {
            "chat": "",
            "unidentified": "",
            "value": "<p>As a transmuter, you alter the physical properties of things, transforming creatures, objects, the natural world, and even yourself at your whim. You understand that change is inevitable. You add one 1st-level transmutation spell (such as @Compendium[pf2e.spells-srd.Magic Weapon]{Magic Weapon}) to your spellbook. You learn the @Compendium[pf2e.spells-srd.Physical Boost]{Physical Boost} school spell.</p>"
        },
        "featType": {
            "value": "classfeature"
        },
        "level": {
            "value": "1"
        },
        "prerequisites": {
            "value": []
        },
        "rules": [],
        "source": {
            "value": ""
        },
        "traits": {
            "custom": "",
            "rarity": {
                "value": "common"
            },
            "value": [
                "wizard"
            ]
        }
    },
    "effects": [],
    "flags": {},
    "img": "systems/pf2e/icons/features/classes/transmutation.webp",
    "name": "Arcane School: Transmutation",
    "permission": {
        "default": 0
    },
    "type": "feat"
}
