{
    "_id": "ypfT3iybew6ZSIUl",
    "data": {
        "actionCategory": {
            "value": ""
        },
        "actionType": {
            "value": "passive"
        },
        "actions": {
            "value": ""
        },
        "description": {
            "chat": "",
            "unidentified": "",
            "value": "<p>As a swashbuckler at the peak of your skill, you swell with confidence and bravado in every attack. Your proficiency rank for your swashbuckler class DC increases to master.</p>\n<p>When you @Compendium[pf2e.actionspf2e.Strike]{Strike} as part of a finisher or @Compendium[pf2e.actionspf2e.Opportune Riposte]{Opportune Riposte}, you can give the Strike the failure effect from the @Compendium[pf2e.classfeatures.Confident Finisher]{Confident Finisher} action, including the increase from @Compendium[pf2e.feats-srd.Precise Finisher]{Precise Finisher} if you have that feat. You can do so only if the Strike uses a weapon or unarmed attack that you could use for Confident Finisher.</p>"
        },
        "featType": {
            "value": "classfeature"
        },
        "level": {
            "value": 19
        },
        "location": "",
        "prerequisites": {
            "value": []
        },
        "rules": [],
        "source": {
            "value": ""
        },
        "traits": {
            "custom": "",
            "rarity": {
                "value": "common"
            },
            "value": [
                "swashbuckler"
            ]
        }
    },
    "effects": [
        {
            "_id": "GWxVZbP57CdWxswz",
            "changes": [
                {
                    "key": "data.attributes.classDC.rank",
                    "mode": 4,
                    "value": 3
                }
            ],
            "disabled": false,
            "duration": {
                "rounds": null,
                "seconds": null,
                "startRound": null,
                "startTime": null,
                "startTurn": null,
                "turns": null
            },
            "flags": {},
            "icon": "systems/pf2e/icons/features/classes/eternal-confidence.webp",
            "label": "Eternal Confidence",
            "origin": "",
            "tint": "",
            "transfer": true
        }
    ],
    "flags": {},
    "img": "systems/pf2e/icons/features/classes/eternal-confidence.webp",
    "name": "Eternal Confidence",
    "permission": {
        "default": 0
    },
    "type": "feat"
}
