{
    "_id": "DFQDtT1Van4fFEHi",
    "data": {
        "actionCategory": {
            "value": ""
        },
        "actionType": {
            "value": "passive"
        },
        "actions": {
            "value": ""
        },
        "description": {
            "chat": "",
            "unidentified": "",
            "value": "<p>You have learned how to create perpetual alchemical infusions that can provide a near-infinite supply of certain simple items. You gain the ability to create two 1st-level alchemical items using Quick Alchemy without spending a batch of infused reagents. The items you can select depend on your research field and must be in your formula book.</p>\n<hr />\n<p>Choose two of the following formulas:</p>\n<ul>\n<li>@Compendium[pf2e.equipment-srd.Acid Flask (Lesser)]{Acid Flask (Lesser)},</li>\n<li>@Compendium[pf2e.equipment-srd.Alchemist's Fire (Lesser)]{Alchemist's Fire (Lesser)},</li>\n<li>@Compendium[pf2e.equipment-srd.Bottled Lightning (Lesser)]{Bottled Lightning (Lesser)},</li>\n<li>@Compendium[pf2e.equipment-srd.Frost Vial (Lesser)]{Frost Vial (Lesser)},</li>\n<li>@Compendium[pf2e.equipment-srd.Tanglefoot Bag (Lesser)]{Tanglefoot Bag (Lesser)}, or</li>\n<li>@Compendium[pf2e.equipment-srd.Thunderstone (Lesser)]{Thunderstone (Lesser)}.</li>\n</ul>"
        },
        "featType": {
            "value": "classfeature"
        },
        "level": {
            "value": 7
        },
        "prerequisites": {
            "value": []
        },
        "rules": [],
        "source": {
            "value": ""
        },
        "traits": {
            "custom": "",
            "rarity": {
                "value": "common"
            },
            "value": [
                "alchemist"
            ]
        }
    },
    "effects": [],
    "flags": {},
    "img": "systems/pf2e/icons/features/classes/perpetual-infusions-bomber.webp",
    "name": "Perpetual Infusions (Bomber)",
    "permission": {
        "default": 0
    },
    "type": "feat"
}
