{
    "_id": "ruRAfGJnik7lRavk",
    "data": {
        "description": {
            "chat": "",
            "unidentified": "",
            "value": "<p>Nymph grace accentuates your movements and distracts your foes, imposing a -1 status bonus to Will saves for 1 round.</p>"
        },
        "duration": {
            "expiry": "turn-start",
            "sustained": false,
            "unit": "rounds",
            "value": 1
        },
        "level": {
            "value": 1
        },
        "rules": [
            {
                "key": "PF2E.RuleElement.FlatModifier",
                "selector": "will",
                "type": "status",
                "value": -1
            },
            {
                "key": "PF2E.RuleElement.TokenEffectIcon"
            }
        ],
        "source": {
            "value": ""
        },
        "start": {
            "initiative": null,
            "value": 0
        },
        "traits": {
            "custom": "",
            "rarity": {
                "value": "common"
            },
            "value": []
        }
    },
    "effects": [],
    "flags": {},
    "img": "systems/pf2e/icons/features/classes/nymph.webp",
    "name": "Effect: Nymph Blood Magic (Target)",
    "permission": {
        "default": 0
    },
    "type": "effect"
}
