{
    "_id": "T4QKmtYPeCgYxVGe",
    "data": {
        "ability": {
            "value": ""
        },
        "area": {
            "areaType": "cone",
            "value": 30
        },
        "areasize": {
            "value": "30-foot cone"
        },
        "category": {
            "value": "spell"
        },
        "components": {
            "value": "somatic, verbal"
        },
        "cost": {
            "value": ""
        },
        "damage": {
            "applyMod": false,
            "value": "6d6"
        },
        "damageType": {
            "value": ""
        },
        "description": {
            "chat": "",
            "unidentified": "",
            "value": "<p>You summon a crashing wave that sweeps away from you. You deal <a class=\"inline-roll roll\" data-mode=\"roll\" data-flavor=\"bludgeoning\" data-formula=\"6d6\" title=\"bludgeoning\"><i class=\"fas fa-dice-d20\"></i> 6d6</a> bludgeoning damage to creatures in the area. The water also extinguishes non-magical fires in the area.</p>\n<hr />\n<p><strong>Heightened (+1)</strong> The damage increases by <a class=\"inline-roll roll\" data-mode=\"roll\" data-flavor=\"bludgeoning\" data-formula=\"2d6\" title=\"bludgeoning\"><i class=\"fas fa-dice-d20\"></i> 2d6</a>.</p>"
        },
        "duration": {
            "value": ""
        },
        "hasCounteractCheck": {
            "value": false
        },
        "level": {
            "value": 3
        },
        "location": {
            "value": ""
        },
        "materials": {
            "value": ""
        },
        "prepared": {
            "value": false
        },
        "primarycheck": {
            "value": ""
        },
        "range": {
            "value": ""
        },
        "rules": [],
        "save": {
            "basic": "basic",
            "value": "reflex"
        },
        "scaling": {
            "formula": "2d6",
            "mode": "level1"
        },
        "school": {
            "value": "evocation"
        },
        "secondarycasters": {
            "value": ""
        },
        "secondarycheck": {
            "value": ""
        },
        "source": {
            "value": ""
        },
        "spellType": {
            "value": "save"
        },
        "sustained": {
            "value": false
        },
        "target": {
            "value": ""
        },
        "time": {
            "value": "2"
        },
        "traditions": {
            "value": [
                "arcane",
                "primal"
            ]
        },
        "traits": {
            "custom": "",
            "rarity": {
                "value": "common"
            },
            "value": [
                "evocation",
                "water"
            ]
        }
    },
    "effects": [],
    "flags": {},
    "img": "systems/pf2e/icons/spells/crashing-wave.webp",
    "name": "Crashing Wave",
    "permission": {
        "default": 0
    },
    "type": "spell"
}
