{
    "_id": "06pzGkKTyPE3tHR8",
    "data": {
        "ability": {
            "value": ""
        },
        "area": {
            "areaType": "burst",
            "value": 30
        },
        "areasize": {
            "value": "30-foot-radius burst"
        },
        "category": {
            "value": "spell"
        },
        "components": {
            "value": "somatic, verbal"
        },
        "cost": {
            "value": ""
        },
        "damage": {
            "applyMod": false,
            "value": ""
        },
        "damageType": {
            "value": ""
        },
        "description": {
            "chat": "",
            "unidentified": "",
            "value": "<p>You create a sphere of altered gravity. All creatures and unsecured objects in the area move towards the center, depending on their Reflex saving throws. This follows the rules for forced movement. If there's not enough space near the center of the sphere, creatures and objects nearer to the center move first, and others move as far as they can without being blocked, up to the amount set by their saving throw outcomes.</p>\n<hr />\n<p><span><strong>Critical Success</strong> The creature is unaffected.</span></p>\n<p><span><strong>Success</strong> The creature moves 5 feet toward the center.</span></p>\n<p><span><strong>Failure</strong> The creature moves 15 feet toward the center.</span></p>\n<p><span><strong>Critical Failure</strong> The creature moves 30 feet toward the center. </span></p>"
        },
        "duration": {
            "value": ""
        },
        "hasCounteractCheck": {
            "value": false
        },
        "level": {
            "value": 3
        },
        "location": {
            "value": ""
        },
        "materials": {
            "value": ""
        },
        "prepared": {
            "value": ""
        },
        "primarycheck": {
            "value": ""
        },
        "range": {
            "value": "120 feet"
        },
        "rules": [],
        "save": {
            "basic": "",
            "value": "reflex"
        },
        "scaling": {
            "formula": "",
            "mode": "none"
        },
        "school": {
            "value": "evocation"
        },
        "secondarycasters": {
            "value": ""
        },
        "secondarycheck": {
            "value": ""
        },
        "source": {
            "value": ""
        },
        "spellType": {
            "value": "save"
        },
        "sustained": {
            "value": false
        },
        "target": {
            "value": ""
        },
        "time": {
            "value": "2"
        },
        "traditions": {
            "custom": "",
            "value": [
                "arcane",
                "occult"
            ]
        },
        "traits": {
            "custom": "",
            "rarity": {
                "value": "common"
            },
            "value": [
                "evocation"
            ]
        }
    },
    "effects": [],
    "flags": {},
    "img": "systems/pf2e/icons/spells/gravity-well.webp",
    "name": "Gravity Well",
    "permission": {
        "default": 0
    },
    "type": "spell"
}
