{
    "_id": "XI6Lzd2B5pernkPd",
    "data": {
        "ability": {
            "value": ""
        },
        "area": {
            "areaType": "",
            "value": null
        },
        "areasize": {
            "value": ""
        },
        "category": {
            "value": "spell"
        },
        "components": {
            "value": "somatic, verbal"
        },
        "cost": {
            "value": ""
        },
        "damage": {
            "applyMod": false,
            "value": ""
        },
        "damageType": {
            "value": ""
        },
        "description": {
            "chat": "",
            "unidentified": "",
            "value": "<p>You envision a simple bug and transform into a Medium animal battle form. When you cast this spell, choose ant, beetle, centipede, mantis, scorpion, or spider. You can decide the specific type of animal (such as such as a ladybug or scarab for beetle), but this has no effect on the form's Size or statistics. While in this form, you gain the animal trait. You can Dismiss this spell.</p>\n<p>You gain the following statistics and abilities regardless of which battle form you choose:</p>\n<ul>\n<li>AC = 18 + your level. Ignore your armor's check penalty and Speed reduction.</li>\n<li>10 temporary Hit Points.</li>\n<li>Low-light vision.</li>\n<li>One or more attacks specific to the battle form you choose, which are the only attacks you can use. You're trained with them. Your attack modifier is +13, and your damage bonus is +2. These attacks are Strength based (for the purpose of the @Compendium[pf2e.conditionitems.Enfeebled]{Enfeebled} condition). If your unarmed attack modifier is higher, you can use it instead.</li>\n<li>Athletics modifier of +13, unless your own is higher.</li>\n</ul>\n<p>You also gain specific abilities based on the form you choose:</p>\n<ul>\n<li><strong>@Compendium[pf2e.spell-effects.Spell Effect: Insect Form (Ant)]{Ant}</strong>\n<ul>\n<li>Speed 30 feet, climb Speed 30 feet;</li>\n<li><strong>Melee</strong> <span class=\"pf2-icon\">1 </span>mandibles, <strong>Damage</strong> 2d6 bludgeoning.</li>\n</ul>\n</li>\n<li><strong>@Compendium[pf2e.spell-effects.Spell Effect: Insect Form (Beetle)]{Beetle}</strong>\n<ul>\n<li>Speed 25 feet;</li>\n<li><strong>Melee</strong> <span class=\"pf2-icon\">1 </span>mandibles, <strong>Damage</strong> 2d10 bludgeoning.</li>\n</ul>\n</li>\n<li><strong>@Compendium[pf2e.spell-effects.Spell Effect: Insect Form (Centipede)]{Centipede}</strong>\n<ul>\n<li>Speed 25 feet, climb Speed 25 feet; darkvision;</li>\n<li><strong>Melee</strong> <span class=\"pf2-icon\">1 </span>mandibles, <strong>Damage</strong> 1d8 piercing plus 1d4 persistent poison.</li>\n</ul>\n</li>\n<li><strong>@Compendium[pf2e.spell-effects.Spell Effect: Insect Form (Mantis)]{Mantis}</strong>\n<ul>\n<li>Speed 40 feet; imprecise scent 30 feet;</li>\n<li><strong>Melee</strong> <span class=\"pf2-icon\">1 </span>foreleg, <strong>Damage</strong> 2d8 bludgeoning.</li>\n</ul>\n</li>\n<li><strong>@Compendium[pf2e.spell-effects.Spell Effect: Insect Form (Scorpion)]{Scorpion}</strong>\n<ul>\n<li>Speed 40 feet; darkvision, imprecise tremorsense 60 feet;</li>\n<li><strong>Melee</strong> <span class=\"pf2-icon\">1 </span>stinger, <strong>Damage</strong> 1d8 piercing plus 1d4 persistent poison;</li>\n<li><strong>Melee</strong> <span class=\"pf2-icon\">1 </span>pincer (agile), <strong>Damage</strong> 1d6 bludgeoning.</li>\n</ul>\n</li>\n<li><strong>@Compendium[pf2e.spell-effects.Spell Effect: Insect Form (Spider)]{Spider}</strong>\n<ul>\n<li>Speed 25 feet, climb Speed 25 feet; darkvision;</li>\n<li><strong>Melee</strong> <span class=\"pf2-icon\">1 </span>fangs, <strong>Damage</strong> 1d6 piercing plus 1d4 persistent poison;</li>\n<li><strong>Ranged <span class=\"pf2-icon\">1 </span></strong> web (range increment 20 feet), <strong>Damage</strong> entangles the target for 1 round.</li>\n</ul>\n</li>\n</ul>\n<hr />\n<p><strong>Heightened (4th)</strong> Your battle form is Large, and your attacks have 10-foot reach. You must have enough space to expand into or the spell is lost. You instead gain 15 temporary HP, attack modifier +16, damage bonus +6, and Athletics +16.</p>\n<p><strong>Heightened (5th)</strong> Your battle form is Huge, and your attacks have 15-foot reach. You must have enough space to expand into or the spell is lost. You instead gain 20 temporary HP, attack modifier +18, damage bonus +2 and double damage dice (including @Compendium[pf2e.conditionitems.Persistent Damage]{Persistent Damage}), and Athletics +20.</p>"
        },
        "duration": {
            "value": "1 minute"
        },
        "hasCounteractCheck": {
            "value": false
        },
        "level": {
            "value": 3
        },
        "location": {
            "value": 147
        },
        "materials": {
            "value": ""
        },
        "prepared": {
            "value": ""
        },
        "primarycheck": {
            "value": ""
        },
        "range": {
            "value": ""
        },
        "rules": [],
        "save": {
            "basic": "",
            "value": ""
        },
        "scaling": {
            "formula": "",
            "mode": "none"
        },
        "school": {
            "value": "transmutation"
        },
        "secondarycasters": {
            "value": ""
        },
        "secondarycheck": {
            "value": ""
        },
        "source": {
            "value": ""
        },
        "spellType": {
            "value": "utility"
        },
        "sustained": {
            "value": false
        },
        "target": {
            "value": ""
        },
        "time": {
            "value": "2"
        },
        "traditions": {
            "value": [
                "primal"
            ]
        },
        "traits": {
            "custom": "",
            "rarity": {
                "value": "common"
            },
            "value": [
                "polymorph",
                "transmutation"
            ]
        }
    },
    "effects": [],
    "flags": {},
    "img": "systems/pf2e/icons/spells/insect-form.webp",
    "name": "Insect Form",
    "permission": {
        "default": 0
    },
    "type": "spell"
}
