{
    "_id": "8XuNn0h0rHE24m3B",
    "data": {
        "ability": {
            "value": ""
        },
        "area": {
            "areaType": "",
            "value": null
        },
        "areasize": {
            "value": ""
        },
        "category": {
            "value": "focus"
        },
        "components": {
            "value": "somatic"
        },
        "cost": {
            "value": ""
        },
        "damage": {
            "applyMod": false,
            "value": ""
        },
        "damageType": {
            "value": ""
        },
        "description": {
            "chat": "",
            "unidentified": "",
            "value": "<p><span>Drawing life force into yourself, you become a beacon of positive energy. You glow with bright light in a 10-foot emanation, and you gain an internal pool of light called a luminance reservoir, which begins with a value of 4. At the start of each of your turns, you can use a free action to increase the luminance reservoir by 4. If you do, the radius of your light increases by 10 feet.<br /></span></p>\n<p><span>If an undead creature damages you with an attack or spell while it's within the area of your light, that creature takes positive damage equal to half your luminance reservoir value. It takes this damage only the first time it damages you in a round.<br /></span></p>\n<p><span>You can Dismiss this Spell. When you do, you can target a creature within your light and direct the positive energy into it. The target must be a willing living creature or an undead creature. This heals a living target or damages an undead target by an amount equal to your luminance reservoir's value.<br /></span></p>\n<p><span>When you cast <em>positive luminance</em>, any other <em>positive luminance</em> spell you already had in effect ends.</span></p>\n<hr />\n<p><strong>Heightened (+1)</strong> Both the initial value of your luminance reservoir and the amount you gain each turn increase by 1.</p>"
        },
        "duration": {
            "value": "1 minute"
        },
        "hasCounteractCheck": {
            "value": false
        },
        "level": {
            "value": 4
        },
        "location": {
            "value": ""
        },
        "materials": {
            "value": ""
        },
        "prepared": {
            "value": ""
        },
        "primarycheck": {
            "value": ""
        },
        "range": {
            "value": ""
        },
        "rules": [],
        "save": {
            "basic": "",
            "value": ""
        },
        "scaling": {
            "formula": "",
            "mode": "none"
        },
        "school": {
            "value": "necromancy"
        },
        "secondarycasters": {
            "value": ""
        },
        "secondarycheck": {
            "value": ""
        },
        "source": {
            "value": ""
        },
        "spellType": {
            "value": "utility"
        },
        "sustained": {
            "value": false
        },
        "target": {
            "value": ""
        },
        "time": {
            "value": "1"
        },
        "traditions": {
            "value": []
        },
        "traits": {
            "custom": "",
            "rarity": {
                "value": "uncommon"
            },
            "value": [
                "cleric",
                "light",
                "necromancy",
                "positive"
            ]
        }
    },
    "effects": [],
    "flags": {},
    "img": "systems/pf2e/icons/spells/positive-luminance.webp",
    "name": "Positive Luminance",
    "permission": {
        "default": 0
    },
    "type": "spell"
}
