{
    "_id": "MLNeD5sAunV0E23j",
    "data": {
        "ability": {
            "value": ""
        },
        "area": {
            "areaType": "",
            "value": null
        },
        "areasize": {
            "value": ""
        },
        "category": {
            "value": "spell"
        },
        "components": {
            "value": "material, somatic, verbal"
        },
        "cost": {
            "value": ""
        },
        "damage": {
            "applyMod": false,
            "value": ""
        },
        "damageType": {
            "value": ""
        },
        "description": {
            "chat": "",
            "unidentified": "",
            "value": "<p><span>You request a direct intercession from the natural world. Nature always refuses unnatural requests and might grant a different request (potentially more powerful or better fitting its character) than the one you asked for. A <em>primal phenomenon</em> spell can do any of the following things. </span></p>\n<ul>\n<li>Duplicate any primal spell of 9th level or lower.</li>\n<li>Duplicate any non-primal spell of 7th level or lower.</li>\n<li>Produce any effect whose power level is in line with the above effects.</li>\n<li>Reverse certain effects that refer to the <em>wish</em> spell.</li>\n</ul>\n<p>At the GM's discretion, you can try to use <em>primal phenomenon</em> to produce greater effects than these, but doing so may be dangerous, or the spell may have only a partial effect.</p>"
        },
        "duration": {
            "value": ""
        },
        "hasCounteractCheck": {
            "value": false
        },
        "level": {
            "value": 10
        },
        "location": {
            "value": ""
        },
        "materials": {
            "value": ""
        },
        "prepared": {
            "value": ""
        },
        "primarycheck": {
            "value": ""
        },
        "range": {
            "value": ""
        },
        "rules": [],
        "save": {
            "basic": "",
            "value": ""
        },
        "scaling": {
            "formula": "",
            "mode": "none"
        },
        "school": {
            "value": "divination"
        },
        "secondarycasters": {
            "value": ""
        },
        "secondarycheck": {
            "value": ""
        },
        "source": {
            "value": ""
        },
        "spellType": {
            "value": "utility"
        },
        "sustained": {
            "value": false
        },
        "target": {
            "value": ""
        },
        "time": {
            "value": "3"
        },
        "traditions": {
            "value": [
                "primal"
            ]
        },
        "traits": {
            "custom": "",
            "rarity": {
                "value": "common"
            },
            "value": [
                "divination"
            ]
        }
    },
    "effects": [],
    "flags": {},
    "img": "systems/pf2e/icons/spells/primal-phenomenon.webp",
    "name": "Primal Phenomenon",
    "permission": {
        "default": 0
    },
    "type": "spell"
}
