{
    "_id": "pCvJ4yoZJxDtgUMI",
    "data": {
        "ability": {
            "value": ""
        },
        "area": {
            "value": ""
        },
        "areasize": {
            "value": ""
        },
        "category": {
            "value": "focus"
        },
        "components": {
            "value": "Somatic, Verbal"
        },
        "cost": {
            "value": ""
        },
        "damage": {
            "applyMod": false,
            "value": ""
        },
        "damageType": {
            "value": ""
        },
        "description": {
            "chat": "",
            "unidentified": "",
            "value": "<p>You manipulate the threads of time around the target, giving them some of the benefits of a day's passage. The target decreases the values of any @Compendium[pf2e.conditionitems.Doomed]{Doomed} and @Compendium[pf2e.conditionitems.Drained]{Drained} conditions it has by 1 and can immediately attempt one saving throw against each affliction it has with a stage length of 1 day or less. The target is then temporarily immune for 1 day.</p>"
        },
        "duration": {
            "value": ""
        },
        "hasCounteractCheck": {
            "value": false
        },
        "level": {
            "value": 5
        },
        "location": {
            "value": "gj8uSdGt5Fbk1fGz"
        },
        "materials": {
            "value": ""
        },
        "prepared": {
            "value": ""
        },
        "primarycheck": {
            "value": ""
        },
        "range": {
            "value": "30 feet"
        },
        "rules": [],
        "save": {
            "basic": "",
            "value": ""
        },
        "scaling": {
            "formula": "",
            "mode": "none"
        },
        "school": {
            "value": "necromancy"
        },
        "secondarycasters": {
            "value": ""
        },
        "secondarycheck": {
            "value": ""
        },
        "source": {
            "value": ""
        },
        "spellType": {
            "value": "attack"
        },
        "sustained": {
            "value": false
        },
        "target": {
            "value": "1 creature"
        },
        "time": {
            "value": "2"
        },
        "traditions": {
            "value": []
        },
        "traits": {
            "custom": "Hex",
            "rarity": {
                "value": "uncommon"
            },
            "selected": {
                "custom": "",
                "necromancy": "Necromancy",
                "witch": "Witch"
            },
            "value": [
                "necromancy",
                "witch",
                "hex"
            ]
        }
    },
    "effects": [],
    "flags": {},
    "img": "systems/pf2e/icons/spells/restorative-moment.webp",
    "name": "Restorative Moment",
    "permission": {
        "default": 0
    },
    "type": "spell"
}
