{
    "_id": "G56DJkxlUjFv0C4Z",
    "data": {
        "ability": {
            "value": ""
        },
        "area": {
            "areaType": "",
            "value": null
        },
        "areasize": {
            "value": ""
        },
        "category": {
            "value": "spell"
        },
        "components": {
            "value": "material"
        },
        "cost": {
            "value": ""
        },
        "damage": {
            "applyMod": false,
            "value": ""
        },
        "damageType": {
            "value": ""
        },
        "description": {
            "chat": "",
            "unidentified": "",
            "value": "<p><span>You create a beacon in time, intending to return to it if things go wrong. You can cast <em>time beacon</em> on only your turn. Keep careful track of everything that happens this turn after you cast <em>time beacon</em>. At the end of your turn, you can choose to rewind time back to just after you cast <em>time beacon</em>, removing all effects of your turn since then. Curses, traps, and other harmful effects that happen during your turn might prevent you from returning to the beacon if they are powerful enough. If you suffered any harmful effects during your turn after casting <em>time beacon</em>, to return to your beacon, <em>time beacon</em> attempts a counteract check against each such effect. If it fails at any of these checks, you can't return. </span></p>"
        },
        "duration": {
            "value": "until the end of your next turn"
        },
        "hasCounteractCheck": {
            "value": true
        },
        "level": {
            "value": 7
        },
        "location": {
            "value": ""
        },
        "materials": {
            "value": ""
        },
        "prepared": {
            "value": ""
        },
        "primarycheck": {
            "value": ""
        },
        "range": {
            "value": ""
        },
        "rules": [],
        "save": {
            "basic": "",
            "value": ""
        },
        "scaling": {
            "formula": "",
            "mode": "none"
        },
        "school": {
            "value": "divination"
        },
        "secondarycasters": {
            "value": ""
        },
        "secondarycheck": {
            "value": ""
        },
        "source": {
            "value": ""
        },
        "spellType": {
            "value": "utility"
        },
        "sustained": {
            "value": false
        },
        "target": {
            "value": ""
        },
        "time": {
            "value": "1"
        },
        "traditions": {
            "custom": "",
            "value": [
                "arcane",
                "occult"
            ]
        },
        "traits": {
            "custom": "",
            "rarity": {
                "value": "common"
            },
            "value": [
                "divination"
            ]
        }
    },
    "effects": [],
    "flags": {},
    "img": "systems/pf2e/icons/spells/time-beacon.webp",
    "name": "Time Beacon",
    "permission": {
        "default": 0
    },
    "type": "spell"
}
