{
    "_id": "xqmHD8JIjak15lRk",
    "data": {
        "ability": {
            "value": ""
        },
        "area": {
            "areaType": "",
            "value": null
        },
        "areasize": {
            "value": ""
        },
        "category": {
            "value": "spell"
        },
        "components": {
            "value": "material, somatic, verbal"
        },
        "cost": {
            "value": ""
        },
        "damage": {
            "applyMod": false,
            "value": ""
        },
        "damageType": {
            "value": ""
        },
        "description": {
            "chat": "",
            "unidentified": "",
            "value": "<p>You summon an unseen servant, which you can command as part of Sustaining the Spell. It serves you until its Hit Points are reduced to 0, at which point the spell ends, or until you stop Sustaining the Spell. The unseen servant gains the summoned trait.</p>\n<p><strong>Unseen Servant</strong> [Creature] [-1] [No Alignment] [Medium]</p>\n<hr />\n<p><strong>AC</strong> 13, <strong>Fort</strong> +0, <strong>Ref</strong> +4, <strong>Will</strong> +0 <strong>HP</strong> 4;</p>\n<p><strong>Immunities</strong> disease, mental, non-magical attacks, paralysis, poison, precision, unconscious;</p>\n<p><strong>Resistances</strong> all damage 5 (except force or ghost touch)</p>\n<p><strong>Speed</strong> fly 30 feet</p>\n<p><strong>Force Body</strong> An unseen servant's physical body is made of force. It can't use attack actions. It can move and use Interact actions to do things such as fetch objects, open unstuck or unlocked doors, hold chairs, and clean. It can't pass through solid objects.</p>"
        },
        "duration": {
            "value": "sustained"
        },
        "hasCounteractCheck": {
            "value": false
        },
        "level": {
            "value": 1
        },
        "location": {
            "value": ""
        },
        "materials": {
            "value": ""
        },
        "prepared": {
            "value": ""
        },
        "primarycheck": {
            "value": ""
        },
        "range": {
            "value": "60 feet"
        },
        "rules": [],
        "save": {
            "basic": "",
            "value": ""
        },
        "scaling": {
            "formula": "",
            "mode": "none"
        },
        "school": {
            "value": "conjuration"
        },
        "secondarycasters": {
            "value": ""
        },
        "secondarycheck": {
            "value": ""
        },
        "source": {
            "value": ""
        },
        "spellType": {
            "value": "utility"
        },
        "sustained": {
            "value": false
        },
        "target": {
            "value": ""
        },
        "time": {
            "value": "3"
        },
        "traditions": {
            "value": [
                "arcane",
                "occult"
            ]
        },
        "traits": {
            "custom": "",
            "rarity": {
                "value": "common"
            },
            "value": [
                "conjuration",
                "mindless"
            ]
        }
    },
    "effects": [],
    "flags": {},
    "img": "systems/pf2e/icons/spells/unseen-servant.webp",
    "name": "Unseen Servant",
    "permission": {
        "default": 0
    },
    "type": "spell"
}
