{
    "_id": "GAn2cdhBE9Bqa85s",
    "data": {
        "actionCategory": {
            "value": ""
        },
        "actionType": {
            "value": "passive"
        },
        "actions": {
            "value": ""
        },
        "description": {
            "value": "<p>The blood of a beast flows through your veins, granting you the ferocity and might of animals. Only creatures with the humanoid trait can take the beastkin versatile heritage. Choose a type of animal such as bat, eagle, shark, spider, tyrannosaurus, wasp, or wolf. This is the type of animal tied to your heritage and is known as your inherent animal. You gain the beast and beastkin traits, in addition to the traits from your ancestry.</p>\n<p>You gain the @Compendium[pf2e.actionspf2e.Change Shape (Beastkin)]{Change Shape (Beastkin)} ability. You can choose from beastkin feats and feats from your ancestry whenever you gain an ancestry feat.</p>"
        },
        "featType": {
            "value": "heritage"
        },
        "level": {
            "value": 1
        },
        "location": "",
        "prerequisites": {
            "value": []
        },
        "rules": [],
        "source": {
            "value": ""
        },
        "traits": {
            "custom": "",
            "rarity": {
                "value": "common"
            },
            "value": [
                "beastkin",
                "versatile heritage"
            ]
        }
    },
    "effects": [],
    "flags": {},
    "img": "systems/pf2e/icons/default-icons/feat.svg",
    "name": "Beastkin",
    "permission": {
        "default": 0
    },
    "type": "feat"
}
