{
    "_id": "egpiSWBrNBb1Fmig",
    "data": {
        "actionCategory": {
            "value": ""
        },
        "actionType": {
            "value": "passive"
        },
        "actions": {
            "value": ""
        },
        "description": {
            "chat": "",
            "unidentified": "",
            "value": "<p>You draw minor powers from your draconic exemplar. Choose a type of chromatic or metallic dragon to be your exemplar. This determines your scale color and appearance, and dragons sometimes look more favorably upon those kobolds who resemble them, at the GM's discretion. Your exemplar may also determine details of other abilities you have, using the Draconic Exemplars table.</p>\n<h3><strong>Table 1-1 Draconic Exemplars</strong></h3>\n<table class=\"pf2-table\">\n<thead>\n<tr>\n<th>Dragon</th>\n<th>Breath Weapon Shape</th>\n<th>Damage Type</th>\n<th>Saving Throw</th>\n</tr>\n</thead>\n<tbody>\n<tr>\n<td>Black</td>\n<td>Line</td>\n<td>Acid</td>\n<td>Reflex</td>\n</tr>\n<tr>\n<td>Blue</td>\n<td>Line</td>\n<td>Electricity</td>\n<td>Reflex</td>\n</tr>\n<tr>\n<td>Green</td>\n<td>Cone</td>\n<td>Poison</td>\n<td>Fortitude</td>\n</tr>\n<tr>\n<td>Red</td>\n<td>Cone</td>\n<td>Fire</td>\n<td>Reflex</td>\n</tr>\n<tr>\n<td>White</td>\n<td>Cone</td>\n<td>Cold</td>\n<td>Reflex</td>\n</tr>\n<tr>\n<td>Brass</td>\n<td>Line</td>\n<td>Fire</td>\n<td>Reflex</td>\n</tr>\n<tr>\n<td>Bronze</td>\n<td>Line</td>\n<td>Electricity</td>\n<td>Reflex</td>\n</tr>\n<tr>\n<td>Copper</td>\n<td>Line</td>\n<td>Acid</td>\n<td>Reflex</td>\n</tr>\n<tr>\n<td>Gold</td>\n<td>Cone</td>\n<td>Fire</td>\n<td>Reflex</td>\n</tr>\n<tr>\n<td>Silver</td>\n<td>Cone</td>\n<td>Cold</td>\n<td>Reflex</td>\n</tr>\n</tbody>\n</table>"
        },
        "featType": {
            "value": "ancestryfeature"
        },
        "level": {
            "value": 1
        },
        "location": "If1SQR9Y288PwqeD",
        "prerequisites": {
            "value": []
        },
        "rules": [],
        "source": {
            "value": ""
        },
        "traits": {
            "custom": "",
            "rarity": {
                "value": "common"
            },
            "value": [
                "kobold"
            ]
        }
    },
    "effects": [],
    "flags": {},
    "img": "systems/pf2e/icons/features/ancestry/draconic-exemplar.webp",
    "name": "Draconic Exemplar",
    "permission": {
        "default": 0
    },
    "type": "feat"
}
