{
    "_id": "BjuZKA7lzFSjKbif",
    "data": {
        "actionCategory": {
            "value": ""
        },
        "actionType": {
            "value": "passive"
        },
        "actions": {
            "value": ""
        },
        "description": {
            "value": "<p>You were preprogrammed with a multitude of linguistic proficiencies, likely to act as a translator. You learn two new languages, chosen from common languages and any uncommon languages you have access to. These languages take the same form (signed or spoken) as your other languages. If you select the @Compendium[pf2e.feats-srd.Multilingual]{Multilingual} feat, you learn three new languages instead of two.</p>"
        },
        "featType": {
            "value": "heritage"
        },
        "level": {
            "value": 1
        },
        "location": "",
        "prerequisites": {
            "value": []
        },
        "rules": [],
        "source": {
            "value": ""
        },
        "traits": {
            "custom": "",
            "rarity": {
                "value": "common"
            },
            "value": [
                "android"
            ]
        }
    },
    "effects": [],
    "flags": {},
    "img": "systems/pf2e/icons/default-icons/feat.svg",
    "name": "Polyglot Android",
    "permission": {
        "default": 0
    },
    "type": "feat"
}
