{
    "_id": "MUujYQYWg6PNVaaN",
    "data": {
        "actionCategory": {
            "value": ""
        },
        "actionType": {
            "value": "passive"
        },
        "actions": {
            "value": ""
        },
        "description": {
            "value": "<p>You come from a line of strix with exceptionally broad wings and lengthy talons. You gain a talon melee unarmed attack that deals [[/r 1d4 #slashing]] slashing damage. Your talon attack is in the brawling group and has the agile, finesse, and unarmed traits.</p>"
        },
        "featType": {
            "value": "heritage"
        },
        "level": {
            "value": 1
        },
        "location": "",
        "prerequisites": {
            "value": []
        },
        "rules": [],
        "source": {
            "value": ""
        },
        "traits": {
            "custom": "",
            "rarity": {
                "value": "common"
            },
            "value": [
                "strix"
            ]
        }
    },
    "effects": [],
    "flags": {},
    "img": "systems/pf2e/icons/default-icons/feat.svg",
    "name": "Predator Strix",
    "permission": {
        "default": 0
    },
    "type": "feat"
}
