{
    "_id": "0vaeOoECfVD5EGbq",
    "data": {
        "actionCategory": {
            "value": ""
        },
        "actionType": {
            "value": "passive"
        },
        "actions": {
            "value": ""
        },
        "description": {
            "chat": "",
            "unidentified": "",
            "value": "<p>Your ancestors lived underground. Your ears are larger than those of other hobgoblins and sensitive to echoes. When you are underground, you can use the @Compendium[pf2e.actionspf2e.Seek]{Seek} action to sense @Compendium[pf2e.conditionitems.Undetected]{Undetected} creatures within a 30-foot burst instead of a 15-foot burst. In addition, if you roll a success on an Acrobatics check to @Compendium[pf2e.actionspf2e.Squeeze]{Squeeze}, you get a critical success instead.</p>"
        },
        "featType": {
            "value": "heritage"
        },
        "level": {
            "value": 1
        },
        "location": "",
        "prerequisites": {
            "value": []
        },
        "rules": [
            {
                "key": "PF2E.RuleElement.Note",
                "predicate": {
                    "all": [
                        "action:squeeze"
                    ]
                },
                "selector": "acrobatics",
                "text": "<p class='compact-text'><strong>{item|name}</strong> When you roll a success to Squeeze, you get a critical success instead.</p>"
            }
        ],
        "source": {
            "value": ""
        },
        "traits": {
            "custom": "",
            "rarity": {
                "value": "common"
            },
            "value": [
                "hobgoblin"
            ]
        }
    },
    "effects": [],
    "flags": {},
    "img": "systems/pf2e/icons/features/ancestry/warrenbred-hobgoblin.webp",
    "name": "Warrenbred Hobgoblin",
    "permission": {
        "default": 0
    },
    "type": "feat"
}
