{
    "_id": "YVpNrVBLRrHjaR4C",
    "data": {
        "actionCategory": {
            "value": ""
        },
        "actionType": {
            "value": "passive"
        },
        "actions": {
            "value": ""
        },
        "description": {
            "chat": "",
            "unidentified": "",
            "value": "<p><strong>[Generic][Limited Use]</strong> □□□</p>\n<p><strong>Effect</strong>: You can check a box whenever you attempt a Pathfinder Society Lore check. If you are Untrained in Pathfinder Society Lore, you can add your level to your Intelligence modifier when determining your bonus. If you are at least Trained in Pathfinder Society Lore, you gain a +2 circumstance bonus to this check instead. If the check is in relation to Durvin Gest, Selmius Foster, Gregaro Voth, or Kerinha Napsunar, you do not need to check a box.</p>"
        },
        "featType": {
            "value": "pfsboon"
        },
        "level": {
            "value": "0"
        },
        "prerequisites": {
            "value": []
        },
        "rules": [],
        "source": {
            "value": ""
        },
        "traits": {
            "custom": "",
            "rarity": {
                "value": "common"
            },
            "selected": {},
            "value": []
        }
    },
    "effects": [],
    "flags": {},
    "img": "systems/pf2e/icons/default-icons/mystery-man.webp",
    "name": "S1-00 - Nexian Researcher",
    "permission": {
        "default": 0
    },
    "type": "feat"
}
