{
    "_id": "prHShOQxNpLXwlss",
    "data": {
        "actionCategory": {
            "value": ""
        },
        "actionType": {
            "value": "passive"
        },
        "actions": {
            "value": ""
        },
        "description": {
            "chat": "",
            "unidentified": "",
            "value": "<p><strong>[Generic]</strong></p>\n<p><strong>Effect</strong>: You managed to impress the enigmatic pirate captain Stella Fane and she considers you a friend. This boon has special benefits when slotted during scenarios and quests that feature Stella Fane.</p>"
        },
        "featType": {
            "value": "pfsboon"
        },
        "level": {
            "value": "0"
        },
        "prerequisites": {
            "value": []
        },
        "rules": [],
        "source": {
            "value": ""
        },
        "traits": {
            "custom": "",
            "rarity": {
                "value": "common"
            },
            "selected": {},
            "value": []
        }
    },
    "effects": [],
    "flags": {},
    "img": "systems/pf2e/icons/default-icons/mystery-man.webp",
    "name": "S1-Q04 - Fane's Friend",
    "permission": {
        "default": 0
    },
    "type": "feat"
}
