{
    "_id": "6gVFdrqhs0mihRao",
    "data": {
        "actionCategory": {
            "value": ""
        },
        "actionType": {
            "value": "passive"
        },
        "actions": {
            "value": ""
        },
        "description": {
            "chat": "",
            "unidentified": "",
            "value": "<p><strong>[Slotless][Limited Use]</strong> □□□</p>\n<p><strong>Effect</strong>: Whenever you roll a critical failure on an Acrobatics or Athletics check, you can check a box next to this boon as a free action to get a failure instead (the GM can tell you if this wouldn't change the outcome of the check so you do not waste this ability).</p>"
        },
        "featType": {
            "value": "pfsboon"
        },
        "level": {
            "value": "0"
        },
        "prerequisites": {
            "value": []
        },
        "rules": [],
        "source": {
            "value": ""
        },
        "traits": {
            "custom": "",
            "rarity": {
                "value": "common"
            },
            "selected": {},
            "value": []
        }
    },
    "effects": [],
    "flags": {},
    "img": "systems/pf2e/icons/default-icons/mystery-man.webp",
    "name": "S1-Q02 - One-Who-Waits",
    "permission": {
        "default": 0
    },
    "type": "feat"
}
