{
    "_id": "GlpZyxAGhy5QNqkm",
    "data": {
        "description": {
            "value": "<p>Granted by @Compendium[pf2e.feats-srd.Divine Weapon]{Divine Weapon}.</p>\n<p>Until the end of your turn, the weapon deals an additional 1d6 lawful damage.</p>"
        },
        "duration": {
            "expiry": "turn-end",
            "sustained": false,
            "unit": "rounds",
            "value": 0
        },
        "level": {
            "value": 6
        },
        "rules": [
            {
                "key": "PF2E.RuleElement.EffectTarget",
                "scope": "weapon"
            },
            {
                "key": "PF2E.RuleElement.TokenEffectIcon"
            },
            {
                "damageType": "lawful",
                "diceNumber": 1,
                "dieSize": "d6",
                "key": "PF2E.RuleElement.DamageDice",
                "selector": "{item|data.target}-damage"
            }
        ],
        "source": {
            "value": ""
        },
        "start": {
            "initiative": null,
            "value": 0
        },
        "target": null,
        "traits": {
            "custom": "",
            "rarity": {
                "value": "common"
            },
            "value": []
        }
    },
    "effects": [],
    "flags": {},
    "img": "systems/pf2e/icons/spells/divine-lance.webp",
    "name": "Effect: Divine Weapon (Lawful)",
    "permission": {
        "default": 0
    },
    "type": "effect"
}
