{
    "_id": "5IGz4iheaiUWm5KR",
    "data": {
        "description": {
            "value": "<p>Granted by @Compendium[pf2e.feats-srd.Eye of the Arclords]{Eye of the Arclords}.</p>\n<p>While the eye is open, you gain the following benefits:</p>\n<ul>\n<li>you gain the effects of the detect magic arcane innate spell from your Arcane Sense at the start of each of your turns without needing to cast the spell;</li>\n<li>you gain darkvision;</li>\n<li>you gain a +2 status bonus to Perception checks to Seek undetected and hidden creatures and to your Perception DC against Hide and Sneak.</li>\n</ul>\n<hr />\n<p>Automatically applied effects:</p>\n<ul>\n<li>you gain darkvision</li>\n<li>you gain a +2 status bonus to Perception checks to Seek undetected and hidden creatures</li>\n</ul>"
        },
        "duration": {
            "expiry": "turn-start",
            "sustained": false,
            "unit": "minutes",
            "value": 1
        },
        "level": {
            "value": 1
        },
        "rules": [
            {
                "key": "PF2E.RuleElement.Sense",
                "label": "PF2E.SensesDarkvision",
                "selector": "darkvision"
            },
            {
                "key": "PF2E.RuleElement.FlatModifier",
                "label": "Eye of the Arclords (Seek undetected & hidden creatures)",
                "predicate": {
                    "all": [
                        "action:seek"
                    ],
                    "any": [
                        "target:hidden",
                        "target:undetected"
                    ]
                },
                "selector": "perception",
                "type": "status",
                "value": 2
            },
            {
                "key": "PF2E.RuleElement.TokenEffectIcon"
            }
        ],
        "source": {
            "value": ""
        },
        "start": {
            "initiative": null,
            "value": 0
        },
        "target": null,
        "traits": {
            "custom": "",
            "rarity": {
                "value": "common"
            },
            "value": []
        }
    },
    "effects": [],
    "flags": {},
    "img": "systems/pf2e/icons/spells/vigilant-eye.webp",
    "name": "Effect: Eye of the Arclords",
    "permission": {
        "default": 0
    },
    "type": "effect"
}
