{
    "_id": "Ix1PziAEk9IIMYBz",
    "data": {
        "abilities": {
            "cha": {
                "min": 3,
                "mod": -2,
                "value": 6
            },
            "con": {
                "min": 3,
                "mod": 4,
                "value": 18
            },
            "dex": {
                "min": 3,
                "mod": -3,
                "value": 4
            },
            "int": {
                "min": 3,
                "mod": -5,
                "value": 0
            },
            "str": {
                "min": 3,
                "mod": "+5",
                "value": 20
            },
            "wis": {
                "min": 3,
                "mod": 0,
                "value": 10
            }
        },
        "attributes": {
            "ac": {
                "check": 0,
                "details": "",
                "dex": 0,
                "item": 0,
                "min": 0,
                "value": "15"
            },
            "allSaves": {
                "value": ""
            },
            "ancestryhp": 0,
            "bonusEncumbranceBulk": 0,
            "bonusLimitBulk": 0,
            "classDC": {
                "ability": "str",
                "breakdown": "",
                "item": 0,
                "rank": 0,
                "value": 0
            },
            "classhp": 0,
            "flatbonushp": 0,
            "flatbonussp": 0,
            "hp": {
                "details": "",
                "max": 70,
                "min": 0,
                "temp": 0,
                "value": 70
            },
            "init": {
                "bonus": 0,
                "value": 0
            },
            "initiative": {
                "ability": "",
                "circumstance": 0,
                "status": 0
            },
            "levelbonushp": 0,
            "levelbonussp": 0,
            "perception": {
                "ability": "wis",
                "breakdown": "",
                "item": 0,
                "rank": 0,
                "value": 4
            },
            "resolve": {
                "value": 0
            },
            "shield": {
                "ac": 0,
                "brokenThreshold": 0,
                "hardness": 0,
                "max": 0,
                "min": 0,
                "value": 0
            },
            "sp": {
                "details": "",
                "max": 0,
                "min": 0,
                "value": 0
            },
            "speed": {
                "otherSpeeds": [],
                "value": "25 feet"
            }
        },
        "currency": {
            "cp": {
                "value": 0
            },
            "gp": {
                "value": 0
            },
            "pp": {
                "value": 0
            },
            "sp": {
                "value": 0
            }
        },
        "details": {
            "alignment": {
                "value": "NE"
            },
            "ancestry": {
                "value": "Zombie"
            },
            "biography": {
                "public": "",
                "value": ""
            },
            "class": {
                "value": ""
            },
            "creatureType": "Undead",
            "deity": {
                "image": "systems/pf2e/assets/sheet/deity.webp",
                "value": ""
            },
            "flavorText": "Necromantic augmentations have granted this zombie increased size and power.<br /><br />",
            "flavourText": "",
            "heritage": {
                "value": ""
            },
            "keyability": {
                "value": "str"
            },
            "level": {
                "min": 1,
                "value": 2
            },
            "recallKnowledgeText": "Recall Knowledge : DC 16",
            "sidebarText": "",
            "source": {
                "value": "Bestiary pg. 341"
            }
        },
        "martial": {
            "advanced": {
                "breakdown": "",
                "rank": 0,
                "value": 0
            },
            "heavy": {
                "breakdown": "",
                "rank": 0,
                "value": 0
            },
            "light": {
                "breakdown": "",
                "rank": 0,
                "value": 0
            },
            "martial": {
                "breakdown": "",
                "rank": 0,
                "value": 0
            },
            "medium": {
                "breakdown": "",
                "rank": 0,
                "value": 0
            },
            "simple": {
                "breakdown": "",
                "rank": 0,
                "value": 0
            },
            "unarmed": {
                "breakdown": "",
                "rank": 0,
                "value": 0
            },
            "unarmored": {
                "breakdown": "",
                "rank": 0,
                "value": 0
            }
        },
        "saves": {
            "fortitude": {
                "ability": "con",
                "breakdown": "",
                "item": 0,
                "rank": 0,
                "saveDetail": "",
                "value": 10
            },
            "reflex": {
                "ability": "dex",
                "breakdown": "",
                "item": 0,
                "rank": 0,
                "saveDetail": "",
                "value": 3
            },
            "will": {
                "ability": "wis",
                "breakdown": "",
                "item": 0,
                "rank": 0,
                "saveDetail": "",
                "value": 6
            }
        },
        "schema": {
            "version": {
                "value": ""
            }
        },
        "skills": {
            "acr": {
                "ability": "dex",
                "armor": 1,
                "breakdown": "",
                "item": 0,
                "mod": 0,
                "rank": 0,
                "value": 0
            },
            "arc": {
                "ability": "int",
                "breakdown": "",
                "item": 0,
                "mod": 0,
                "rank": 0,
                "value": 0
            },
            "ath": {
                "ability": "str",
                "armor": 1,
                "breakdown": "",
                "item": 0,
                "mod": 0,
                "rank": 0,
                "value": 0
            },
            "cra": {
                "ability": "int",
                "breakdown": "",
                "item": 0,
                "mod": 0,
                "rank": 0,
                "value": 0
            },
            "dec": {
                "ability": "cha",
                "breakdown": "",
                "item": 0,
                "mod": 0,
                "rank": 0,
                "value": 0
            },
            "dip": {
                "ability": "cha",
                "breakdown": "",
                "item": 0,
                "mod": 0,
                "rank": 0,
                "value": 0
            },
            "itm": {
                "ability": "cha",
                "breakdown": "",
                "item": 0,
                "mod": 0,
                "rank": 0,
                "value": 0
            },
            "med": {
                "ability": "wis",
                "breakdown": "",
                "item": 0,
                "mod": 0,
                "rank": 0,
                "value": 0
            },
            "nat": {
                "ability": "wis",
                "breakdown": "",
                "item": 0,
                "mod": 0,
                "rank": 0,
                "value": 0
            },
            "occ": {
                "ability": "int",
                "breakdown": "",
                "item": 0,
                "mod": 0,
                "rank": 0,
                "value": 0
            },
            "prf": {
                "ability": "cha",
                "breakdown": "",
                "item": 0,
                "mod": 0,
                "rank": 0,
                "value": 0
            },
            "rel": {
                "ability": "wis",
                "breakdown": "",
                "item": 0,
                "mod": 0,
                "rank": 0,
                "value": 0
            },
            "soc": {
                "ability": "int",
                "breakdown": "",
                "item": 0,
                "mod": 0,
                "rank": 0,
                "value": 0
            },
            "ste": {
                "ability": "dex",
                "armor": 1,
                "breakdown": "",
                "item": 0,
                "mod": 0,
                "rank": 0,
                "value": 0
            },
            "sur": {
                "ability": "wis",
                "breakdown": "",
                "item": 0,
                "mod": 0,
                "rank": 0,
                "value": 0
            },
            "thi": {
                "ability": "dex",
                "armor": 1,
                "breakdown": "",
                "item": 0,
                "mod": 0,
                "rank": 0,
                "value": 0
            }
        },
        "spells": {
            "spell0": {
                "max": 0
            },
            "spell1": {
                "max": 0
            },
            "spell10": {
                "max": 0
            },
            "spell11": {
                "max": 0
            },
            "spell2": {
                "max": 0
            },
            "spell3": {
                "max": 0
            },
            "spell4": {
                "max": 0
            },
            "spell5": {
                "max": 0
            },
            "spell6": {
                "max": 0
            },
            "spell7": {
                "max": 0
            },
            "spell8": {
                "max": 0
            },
            "spell9": {
                "max": 0
            }
        },
        "statusEffects": [],
        "traits": {
            "ci": [],
            "di": {
                "custom": "",
                "value": [
                    "death effects",
                    "disease",
                    "mental",
                    "paralyzed",
                    "poison",
                    "unconscious"
                ]
            },
            "dr": [],
            "dv": [
                {
                    "label": "Positive",
                    "type": "positive",
                    "value": "10"
                },
                {
                    "label": "Slashing",
                    "type": "slashing",
                    "value": "10"
                }
            ],
            "languages": {
                "custom": "",
                "selected": [],
                "value": []
            },
            "rarity": {
                "value": "common"
            },
            "senses": {
                "value": "darkvision"
            },
            "size": {
                "value": "lg"
            },
            "traits": {
                "custom": "",
                "value": [
                    "mindless",
                    "undead",
                    "zombie"
                ]
            }
        }
    },
    "effects": [],
    "flags": {},
    "img": "systems/pf2e/icons/default-icons/npc.svg",
    "items": [
        {
            "_id": "wdsdNrRHG7tMUw5P",
            "data": {
                "attack": {
                    "value": ""
                },
                "attackEffects": {
                    "value": [
                        "Improved Push 5 feet"
                    ]
                },
                "baseItem": null,
                "bonus": {
                    "value": 11
                },
                "brokenThreshold": {
                    "value": 0
                },
                "bulkCapacity": {
                    "value": ""
                },
                "collapsed": {
                    "value": false
                },
                "containerId": {
                    "value": ""
                },
                "damage": {
                    "damageType": "bludgeoning",
                    "die": "1d12+5"
                },
                "damageRolls": {
                    "izwzbwakdx5r2d8gxlh7": {
                        "damage": "1d12+5",
                        "damageType": "bludgeoning"
                    }
                },
                "description": {
                    "chat": "",
                    "unidentified": "",
                    "value": ""
                },
                "equipped": {
                    "value": false
                },
                "equippedBulk": {
                    "value": ""
                },
                "hardness": {
                    "value": 0
                },
                "hp": {
                    "value": 0
                },
                "identification": {
                    "status": "identified"
                },
                "identified": {
                    "value": false
                },
                "invested": {
                    "value": false
                },
                "maxHp": {
                    "value": 0
                },
                "negateBulk": {
                    "value": "0"
                },
                "preciousMaterial": {
                    "value": ""
                },
                "preciousMaterialGrade": {
                    "value": ""
                },
                "price": {
                    "value": 0
                },
                "property1": {
                    "critDamage": "",
                    "critDamageType": "",
                    "critDice": 0,
                    "critDie": "",
                    "damageType": "",
                    "dice": 0,
                    "die": "",
                    "value": ""
                },
                "property2": {
                    "critDamage": "",
                    "critDamageType": "",
                    "critDice": 0,
                    "critDie": "",
                    "damageType": "",
                    "dice": 0,
                    "die": "",
                    "value": ""
                },
                "property3": {
                    "critDamage": "",
                    "critDamageType": "",
                    "critDice": 0,
                    "critDie": "",
                    "damageType": "",
                    "dice": 0,
                    "die": "",
                    "value": ""
                },
                "quantity": {
                    "value": 1
                },
                "rules": [],
                "size": {
                    "value": "med"
                },
                "slug": null,
                "source": {
                    "value": ""
                },
                "stackGroup": {
                    "value": ""
                },
                "traits": {
                    "custom": "",
                    "rarity": {
                        "value": "common"
                    },
                    "value": [
                        "reach-10"
                    ]
                },
                "usage": {
                    "value": "held-in-one-hand"
                },
                "weaponType": {
                    "value": "melee"
                },
                "weight": {
                    "value": 0
                }
            },
            "effects": [],
            "flags": {},
            "img": "systems/pf2e/icons/default-icons/mystery-man.svg",
            "name": "Fist",
            "sort": 100000,
            "type": "melee"
        },
        {
            "_id": "TtcFIJZjrZ4Vaaml",
            "data": {
                "actionCategory": {
                    "value": "interaction"
                },
                "actionType": {
                    "value": "passive"
                },
                "actions": {
                    "value": ""
                },
                "description": {
                    "chat": "",
                    "unidentified": "",
                    "value": "<p>A zombie is permanently slowed 1 and can't use reactions.</p>"
                },
                "requirements": {
                    "value": ""
                },
                "rules": [],
                "slug": null,
                "source": {
                    "value": ""
                },
                "traits": {
                    "custom": "",
                    "rarity": {
                        "value": "common"
                    },
                    "value": []
                },
                "trigger": {
                    "value": ""
                },
                "usage": {
                    "value": "held-in-one-hand"
                },
                "weapon": {
                    "value": ""
                }
            },
            "effects": [],
            "flags": {},
            "img": "systems/pf2e/icons/default-icons/mystery-man.svg",
            "name": "Slow",
            "sort": 200000,
            "type": "action"
        },
        {
            "_id": "fr4XoB7nNYcZOIqN",
            "data": {
                "actionCategory": {
                    "value": "offensive"
                },
                "actionType": {
                    "value": "free"
                },
                "actions": {
                    "value": ""
                },
                "description": {
                    "chat": "",
                    "unidentified": "",
                    "value": "<p><strong>Requirements</strong> The monster's last action was a success with a Strike that lists Push in its damage entry. <strong>Effect</strong> The monster automatically knocks the target away from the monster. Unless otherwise noted in the ability description, the creature is pushed 5 feet. If the attack was a critical hit, this distance is doubled.</p>"
                },
                "requirements": {
                    "value": ""
                },
                "rules": [],
                "slug": null,
                "source": {
                    "value": ""
                },
                "traits": {
                    "custom": "",
                    "rarity": {
                        "value": "common"
                    },
                    "value": []
                },
                "trigger": {
                    "value": ""
                },
                "usage": {
                    "value": "held-in-one-hand"
                },
                "weapon": {
                    "value": ""
                }
            },
            "effects": [],
            "flags": {},
            "img": "systems/pf2e/icons/default-icons/mystery-man.svg",
            "name": "Push",
            "sort": 300000,
            "type": "action"
        },
        {
            "_id": "WHbE7viCeLXEGocR",
            "data": {
                "description": {
                    "chat": "",
                    "unidentified": "",
                    "value": ""
                },
                "item": {
                    "value": 0
                },
                "mod": {
                    "value": 9
                },
                "proficient": {
                    "value": 0
                },
                "rules": [],
                "slug": null,
                "source": {
                    "value": ""
                },
                "traits": {
                    "custom": "",
                    "rarity": {
                        "value": "common"
                    },
                    "value": []
                },
                "usage": {
                    "value": "held-in-one-hand"
                }
            },
            "effects": [],
            "flags": {},
            "img": "systems/pf2e/icons/default-icons/lore.svg",
            "name": "Athletics",
            "sort": 400000,
            "type": "lore"
        }
    ],
    "name": "Zombie Brute",
    "permission": {
        "default": 0
    },
    "token": {
        "actorId": "Ix1PziAEk9IIMYBz",
        "actorLink": false,
        "bar1": {
            "attribute": "attributes.hp"
        },
        "bar2": {},
        "brightLight": 0,
        "brightSight": 0,
        "dimLight": 0,
        "dimSight": 0,
        "displayBars": 20,
        "displayName": 20,
        "disposition": -1,
        "flags": {},
        "height": 2,
        "img": "systems/pf2e/icons/default-icons/npc.svg",
        "lightAlpha": 1,
        "lightAngle": 360,
        "lightAnimation": {
            "intensity": 5,
            "speed": 5
        },
        "lockRotation": false,
        "name": "Zombie Brute",
        "randomImg": false,
        "rotation": 0,
        "scale": 1,
        "sightAngle": 360,
        "tint": null,
        "vision": false,
        "width": 2
    },
    "type": "npc"
}
